date,date,open,high,low,close,volume,pair,close_open_diff,ema_short,ema_long,ema_sort_ema_long_diff,macd,signal,momentum,rsi,gradient
2021-06-15 00:00:00,2021-06-15 00:00:00,144.73,145.5,144.5,144.87,626.9333,LTCEUR,0.14000000000001478,144.56066052564296,144.22454313278936,0.33611739285359477,1.9332587080907615,1.8212192474584408,0.11203946063232073,68.66396388395559,193.00000000000068
2021-06-15 01:00:00,2021-06-15 01:00:00,144.97,148.71,144.94,148.59,897.5316,LTCEUR,3.6200000000000045,146.57533026282147,145.47181652342098,1.1035137394004835,2.2104135432270198,1.8990581066121568,0.311355436614863,84.29688181482206,156.00000000000023
2021-06-15 02:00:00,2021-06-15 02:00:00,148.34,149.67,147.28,147.99,525.657,LTCEUR,-0.3499999999999943,147.28266513141074,146.1912975167293,1.0913676146814453,2.354504499037745,1.9901473850972746,0.3643571139404702,76.87411722854577,-99.50000000000045
2021-06-15 03:00:00,2021-06-15 03:00:00,148.37,148.45,146.46,146.6,543.6877,LTCEUR,-1.7700000000000102,146.94133256570535,146.30806965480664,0.6332629108987078,2.329681122547129,2.0580541325872455,0.2716269899598833,61.756547466638196,-15.500000000000114
2021-06-15 04:00:00,2021-06-15 04:00:00,146.91,148.22,146.91,147.68,176.7954,LTCEUR,0.7700000000000102,147.31066628285268,146.70004975343332,0.6106165294193602,2.369837381734868,2.12041078241677,0.24942659931809796,67.68217288240058,32.99999999999983
2021-06-15 05:00:00,2021-06-15 05:00:00,148.23,148.5,147.26,147.26,481.1876,LTCEUR,-0.9699999999999989,147.28533314142635,146.86003553816664,0.42529760325970756,2.3407878710502246,2.164486200143461,0.17630167090676352,63.118244760460534,47.49999999999943
2021-06-15 06:00:00,2021-06-15 06:00:00,147.47,149.0,147.13,148.63,746.7437,LTCEUR,1.1599999999999966,147.95766657071317,147.365739670119,0.5919269005941601,2.4006403869406086,2.2117170375028907,0.18892334943771782,70.82017679876807,36.50000000000091
2021-06-15 07:00:00,2021-06-15 07:00:00,148.81,148.81,147.44,147.99,476.3853,LTCEUR,-0.8199999999999932,147.9738332853566,147.54409976437074,0.4297335209858488,2.3691215274593844,2.2431979354941896,0.12592359196519487,63.398412821391545,-35.5000000000004
2021-06-15 08:00:00,2021-06-15 08:00:00,147.91,149.38,147.63,147.92,608.9323,LTCEUR,0.009999999999990905,147.94691664267827,147.65149983169337,0.2954168109849036,2.311844682823562,2.256927284960064,0.05491739786349781,62.53822166745549,-17.00000000000017
2021-06-15 09:00:00,2021-06-15 09:00:00,147.78,147.78,146.65,147.65,699.9123,LTCEUR,-0.12999999999999545,147.79845832133913,147.6510713083524,0.1473870129867123,2.219085392207745,2.2493589064096002,-0.03027351420185509,58.84285695532032,-115.49999999999869
2021-06-15 10:00:00,2021-06-15 10:00:00,147.84,148.45,145.57,145.61,733.7434,LTCEUR,-2.2299999999999898,146.70422916066957,147.06790807739458,-0.3636789167250072,1.9583869691645077,2.1911645189605817,-0.232777549796074,38.31547254794982,-70.49999999999983
2021-06-15 11:00:00,2021-06-15 11:00:00,145.73,146.89,144.87,146.24,1334.7195,LTCEUR,0.5100000000000193,146.4721145803348,146.8313629124247,-0.35924833208991913,1.7820746779578371,2.109346550760033,-0.32727187280219594,45.37712079902295,-15.500000000000114
2021-06-15 12:00:00,2021-06-15 12:00:00,146.32,146.66,145.1,145.3,899.3025,LTCEUR,-1.0199999999999818,145.8860572901674,146.39383065173195,-0.5077733615645457,1.5486439691439386,1.9972060344368143,-0.4485620652928757,37.65817991082105,-16.00000000000108
2021-06-15 13:00:00,2021-06-15 13:00:00,145.3,146.64,145.07,145.92,1316.1841,LTCEUR,0.6199999999999761,145.90302864508368,146.25845046552283,-0.3554218204391475,1.3975669868066518,1.877278224910782,-0.4797112381041302,45.05573531434085,28.000000000000114
2021-06-15 14:00:00,2021-06-15 14:00:00,145.8,147.0,144.55,145.86,1380.0604,LTCEUR,0.060000000000002274,145.88151432254185,146.14460747537345,-0.2630931528316012,1.2584888156101215,1.75352034305065,-0.4950315274405286,44.443306079454594,-15.999999999999659
2021-06-15 15:00:00,2021-06-15 15:00:00,145.82,145.82,144.58,145.6,399.5334,LTCEUR,-0.21999999999999886,145.74075716127092,145.98900533955248,-0.24824817828155687,1.1144419428423475,1.6257046630089897,-0.5112627201666422,41.509340533693276,-135.00000000000085
2021-06-15 16:00:00,2021-06-15 16:00:00,145.5,145.54,142.47,143.16,1243.3726,LTCEUR,-2.3400000000000034,144.45037858063546,145.18071809968035,-0.7303395190448896,0.7942406386186462,1.4594118581309212,-0.665171219512275,23.80886186103183,-100.49999999999955
2021-06-15 17:00:00,2021-06-15 17:00:00,143.33,143.88,142.1,143.59,1190.9348,LTCEUR,0.2599999999999909,144.02018929031772,144.7262272140574,-0.7060379237396717,0.5686214898551327,1.2812537844757634,-0.7126322946206307,30.11126570072193,41.500000000000625
2021-06-15 18:00:00,2021-06-15 18:00:00,143.6,144.26,143.02,143.99,1205.8724,LTCEUR,0.3900000000000148,144.00509464515886,144.51587658146957,-0.5107819363107069,0.41728316544094923,1.1084596606688006,-0.6911764952278514,36.01905750624913,68.99999999999977
2021-06-15 19:00:00,2021-06-15 19:00:00,143.9,145.15,143.5,144.97,557.9056,LTCEUR,1.0699999999999932,144.48754732257942,144.64562612962112,-0.1580788070417043,0.3721345276185559,0.9611946340587518,-0.5890601064401959,48.75466518418729,51.50000000000006
2021-06-15 20:00:00,2021-06-15 20:00:00,145.16,146.76,144.42,145.02,1227.2572,LTCEUR,-0.13999999999998636,144.7537736612897,144.75259009258653,0.0011835687031691577,0.33650941789881017,0.8362575908267635,-0.49974817292795337,49.371668964004314,-75.49999999999955
2021-06-15 21:00:00,2021-06-15 21:00:00,144.88,145.29,143.27,143.46,856.3019,LTCEUR,-1.4199999999999875,144.10688683064484,144.3832786375618,-0.27639180691696197,0.18031869754400986,0.7050698121702128,-0.5247511146262029,34.03100627520651,-99.50000000000045
2021-06-15 22:00:00,2021-06-15 22:00:00,143.2,143.43,142.2,143.03,869.0311,LTCEUR,-0.1699999999999875,143.5684434153224,143.99662759825844,-0.428184182936036,0.021590142308298255,0.5683738781978299,-0.5467837358895317,30.859402483452527,10.999999999999943
2021-06-15 23:00:00,2021-06-15 23:00:00,143.04,143.76,142.64,143.68,434.5897,LTCEUR,0.6400000000000148,143.6242217076612,143.90616257018462,-0.2819408625234132,-0.051164026520950756,0.4444662972540738,-0.4956303237750246,40.85774802141497,87.5
