date,date,open,high,low,close,volume,pair,close_open_diff,ema_short,ema_long,ema_sort_ema_long_diff,macd,signal,momentum,rsi,gradient
2021-08-07 00:00:00,2021-08-07 00:00:00,127.44,128.53,126.46,127.05,556.5641,LTCEUR,-0.39000000000000057,127.16170970853389,127.08417771341202,0.07753199512187336,1.3579187354996947,1.336926802609282,0.02099193289041268,58.27997603424765,-18.000000000000682
2021-08-07 01:00:00,2021-08-07 01:00:00,127.15,127.17,126.01,126.82,279.1971,LTCEUR,-0.3300000000000125,126.99085485426694,127.00869836672288,-0.01784351245593996,1.2803797503324716,1.32561739215392,-0.045237641821448404,53.398744846009755,111.99999999999974
2021-08-07 02:00:00,2021-08-07 02:00:00,126.99,129.29,126.38,129.29,927.0154,LTCEUR,2.299999999999997,128.14042742713346,127.66049883337348,0.4799285937599791,1.402075647989676,1.3409090433210715,0.061166604668604574,77.58849540822683,115.00000000000057
2021-08-07 03:00:00,2021-08-07 03:00:00,129.27,129.45,128.47,129.12,641.717,LTCEUR,-0.15000000000000568,128.63021371356672,128.07749916669533,0.5527145468713854,1.4678821131286526,1.3663036572825877,0.10157845584606484,74.39891473848708,117.49999999999972
2021-08-07 04:00:00,2021-08-07 04:00:00,129.27,131.64,129.27,131.64,766.232,LTCEUR,2.369999999999976,130.13510685678335,129.0953565476395,1.039750309143841,1.7037375246976012,1.4337904307655907,0.26994709393201055,85.21241622069635,124.50000000000045
2021-08-07 05:00:00,2021-08-07 05:00:00,131.67,131.85,130.25,131.61,501.4613,LTCEUR,-0.05999999999997385,130.87255342839168,129.8138261054568,1.0587273229348853,1.8667155534231767,1.520375455297108,0.3463400981260687,84.70132299809708,-48.99999999999949
2021-08-07 06:00:00,2021-08-07 06:00:00,131.58,132.39,130.66,130.66,471.8968,LTCEUR,-0.9200000000000159,130.76627671419584,130.05559007532628,0.7106866388695607,1.8973483046648738,1.5957700251706615,0.30157827949421234,68.97955960804603,-17.500000000001137
2021-08-07 07:00:00,2021-08-07 07:00:00,130.8,131.39,130.61,131.26,737.807,LTCEUR,0.45999999999997954,131.01313835709792,130.3997071966616,0.6134311604363063,1.9475893684050476,1.666133893817539,0.28145547458750864,72.80521296016587,-1.999999999999602
2021-08-07 08:00:00,2021-08-07 08:00:00,131.11,131.27,129.86,130.62,487.8012,LTCEUR,-0.4900000000000091,130.81656917854895,130.46264799761545,0.3539211809334972,1.913703143490352,1.7156477437521016,0.19805539973825037,62.87920403342288,-0.49999999999954525
2021-08-07 09:00:00,2021-08-07 09:00:00,130.78,132.1,130.5,131.25,785.2855,LTCEUR,0.46999999999999886,131.03328458927447,130.68760571258247,0.3456788766920056,1.9156019343008666,1.7556385818618547,0.15996335243901183,68.02818511526058,59.499999999999886
2021-08-07 10:00:00,2021-08-07 10:00:00,131.15,131.81,130.81,131.81,456.3134,LTCEUR,0.6599999999999966,131.42164229463725,131.00828979470177,0.41335249993548473,1.9399317341176356,1.792497212313011,0.14743452180462469,72.14892087786654,103.49999999999966
2021-08-07 11:00:00,2021-08-07 11:00:00,131.86,133.99,131.55,133.32,1140.7457,LTCEUR,1.4599999999999795,132.37082114731862,131.66877842478698,0.7020427225316439,2.057341899397244,1.8454661497298577,0.2118757496673862,80.34559333819065,84.00000000000034
2021-08-07 12:00:00,2021-08-07 12:00:00,133.32,134.48,133.04,133.49,1965.4652,LTCEUR,0.17000000000001592,132.93041057365932,132.18912744627642,0.7412831273828999,2.139445682457932,1.9042620562754726,0.23518362618245958,81.0971738561452,21.000000000000796
2021-08-07 13:00:00,2021-08-07 13:00:00,133.56,133.79,132.28,133.74,942.5744,LTCEUR,0.18000000000000682,133.33520528682965,132.63223389019743,0.702971396632222,2.1993338807823193,1.963276421176842,0.2360574596054772,82.29213584651515,-157.00000000000074
2021-08-07 14:00:00,2021-08-07 14:00:00,133.6,134.94,129.42,130.35,2001.5362,LTCEUR,-3.25,131.8426026434148,131.98016706442672,-0.13756442101191624,1.9507638494890784,1.9607739068392895,-0.010010057350211099,40.56494356685123,-203.0000000000001
2021-08-07 15:00:00,2021-08-07 15:00:00,130.35,131.24,128.72,129.68,1008.6601,LTCEUR,-0.6699999999999875,130.7613013217074,131.32297647459052,-0.5616751528831117,1.6803370289660222,1.9046865312646362,-0.22434950229861395,36.21032963531949,53.49999999999966
2021-08-07 16:00:00,2021-08-07 16:00:00,129.66,131.56,129.66,131.42,500.9664,LTCEUR,1.759999999999991,131.0906506608537,131.35069748185037,-0.26004682099667775,1.5881184427560129,1.8413729135629118,-0.2532544708068989,52.20118246099067,142.00000000000017
2021-08-07 17:00:00,2021-08-07 17:00:00,131.47,134.03,130.75,132.52,1513.6112,LTCEUR,1.0500000000000114,131.80532533042685,131.68478391560743,0.12054141481942793,1.585518485551546,1.7902020279606388,-0.2046835424090927,59.83872205869447,89.50000000000102
2021-08-07 18:00:00,2021-08-07 18:00:00,132.64,133.42,128.67,133.21,1538.5682,LTCEUR,0.5700000000000216,132.50766266521345,132.1205599397196,0.3871027254938326,1.6204556303565596,1.7562527484398232,-0.13579711808326356,64.15050611476104,-60.5000000000004
2021-08-07 19:00:00,2021-08-07 19:00:00,133.32,133.4,130.49,131.31,753.6203,LTCEUR,-2.009999999999991,131.90883133260672,131.88897138551403,0.019859947092697894,1.4777943548578776,1.7005610697234341,-0.22276671486555655,47.35191720134915,-71.50000000000034
2021-08-07 20:00:00,2021-08-07 20:00:00,131.12,132.05,130.41,131.78,525.7481,LTCEUR,0.6599999999999966,131.84441566630335,131.85783670393857,-0.01342103763522573,1.3866746164488575,1.6377837790685188,-0.2511091626196613,51.14917530962316,57.500000000000284
2021-08-07 21:00:00,2021-08-07 21:00:00,131.91,132.83,130.99,132.46,279.3368,LTCEUR,0.5500000000000114,132.1522078331517,132.02988335995613,0.12232447319556172,1.3537269625221313,1.5809724157592415,-0.2272454532371102,56.58560317328796,62.999999999999545
2021-08-07 22:00:00,2021-08-07 22:00:00,132.44,133.31,132.2,133.04,566.823,LTCEUR,0.5999999999999943,132.59610391657583,132.31848811425436,0.27761580232146343,1.3587539919240044,1.5365287309921942,-0.17777473906818986,61.02503866595501,-12.000000000000455
2021-08-07 23:00:00,2021-08-07 23:00:00,132.93,134.1,131.92,132.22,927.9105,LTCEUR,-0.710000000000008,132.4080519582879,132.29034865303882,0.1177033052490799,1.2817950663337285,1.4855819980605012,-0.20378693172677265,52.00326912331673,-0.49999999999954525
