date,date,open,high,low,close,volume,pair,close_open_diff,ema_short,ema_long,ema_sort_ema_long_diff,macd,signal,momentum,rsi,gradient
2021-11-23 00:00:00,2021-11-23 00:00:00,188.1,188.5,185.9,186.3,456.152,LTCEUR,-1.799999999999983,186.66492782261327,187.04556963167352,-0.3806418090602506,-2.3584740037415486,-2.155267788986239,-0.20320621475530976,39.255892679432804,-65.00000000000057
2021-11-23 01:00:00,2021-11-23 01:00:00,186.1,188.6,184.2,187.0,459.56,LTCEUR,0.9000000000000057,186.83246391130663,187.03254973690966,-0.20008582560302557,-2.2831394273782735,-2.180842116664646,-0.10229731071362735,44.06680649275148,25.0
2021-11-23 02:00:00,2021-11-23 02:00:00,187.0,188.0,186.2,186.8,303.853,LTCEUR,-0.19999999999998863,186.81623195565334,186.96610695493547,-0.1498749992821331,-2.2140523441606206,-2.187484162163841,-0.026568181996779572,42.90184232718431,59.99999999999943
2021-11-23 03:00:00,2021-11-23 03:00:00,186.8,188.4,186.3,188.2,403.592,LTCEUR,1.3999999999999773,187.50811597782666,187.3186478249539,0.18946815287276308,-2.023012010082283,-2.1545897317475293,0.13157772166524628,53.277318433573065,34.99999999999943
2021-11-23 04:00:00,2021-11-23 04:00:00,188.2,189.1,187.4,187.5,182.25,LTCEUR,-0.6999999999999886,187.50405798891333,187.37046273210996,0.1335952568033747,-1.9061227225840582,-2.104896329914835,0.19877360733077687,48.03966063772722,-44.99999999999886
2021-11-23 05:00:00,2021-11-23 05:00:00,187.5,188.2,187.2,187.3,263.221,LTCEUR,-0.19999999999998863,187.40202899445666,187.35033052293568,0.05169847152097873,-1.8087750161670613,-2.04567206716528,0.2368970509982189,46.473231209441614,-75.0
2021-11-23 06:00:00,2021-11-23 06:00:00,187.4,187.4,185.6,186.0,255.863,LTCEUR,-1.4000000000000057,186.70101449722833,186.96452180209693,-0.26350730486859675,-1.8155963286191081,-1.9996569194560458,0.1840605908369377,37.05010602662311,-35.00000000000085
2021-11-23 07:00:00,2021-11-23 07:00:00,186.0,186.6,185.1,186.6,102.935,LTCEUR,0.5999999999999943,186.65050724861416,186.8603727157835,-0.20986546716935095,-1.7523868574220955,-1.950202907049256,0.19781604962716037,43.4056708375388,-109.99999999999943
2021-11-23 08:00:00,2021-11-23 08:00:00,186.1,186.1,183.6,183.8,404.38,LTCEUR,-2.299999999999983,185.22525362430707,185.98598051127394,-0.7607268869668644,-1.906255370217309,-1.9414133996828666,0.03515802946555757,27.728364832102457,-70.00000000000028
2021-11-23 09:00:00,2021-11-23 09:00:00,183.9,185.5,182.8,185.2,490.088,LTCEUR,1.299999999999983,185.21262681215353,185.76141465090996,-0.5487878387564251,-1.8934030042282188,-1.9318113205919372,0.03840831636371833,40.600704892007904,134.99999999999943
2021-11-23 10:00:00,2021-11-23 10:00:00,185.2,189.6,182.3,186.5,997.916,LTCEUR,1.3000000000000114,185.85631340607677,185.97243903636425,-0.11612563028748468,-1.7580525407982464,-1.8970595646331991,0.13900702383495278,50.437230980667515,25.0
2021-11-23 11:00:00,2021-11-23 11:00:00,186.5,189.7,184.8,185.7,777.046,LTCEUR,-0.8000000000000114,185.77815670303838,185.89459931168875,-0.11644260865037381,-1.69579160744658,-1.8568059731958755,0.1610143657492955,44.941382330823004,-84.99999999999943
2021-11-23 12:00:00,2021-11-23 12:00:00,186.2,186.7,184.4,184.8,642.077,LTCEUR,-1.3999999999999773,185.2890783515192,185.58185665120624,-0.2927782996870292,-1.699481285220088,-1.825341035600718,0.12585975038063002,39.17820675254416,-34.99999999999943
2021-11-23 13:00:00,2021-11-23 13:00:00,185.0,185.6,184.4,185.0,482.682,LTCEUR,0.0,185.1445391757596,185.41561189371876,-0.2710727179591572,-1.6670503343563894,-1.7936828953518524,0.12663256099546305,41.18933715269654,169.99999999999886
2021-11-23 14:00:00,2021-11-23 14:00:00,185.3,191.3,185.3,188.2,1174.0,LTCEUR,2.8999999999999773,186.67226958787978,186.21115135265626,0.46111823522352324,-1.3673730898408962,-1.7084209342496612,0.341047844408765,64.02723286082818,279.9999999999997
2021-11-23 15:00:00,2021-11-23 15:00:00,188.7,191.0,187.7,190.6,665.201,LTCEUR,1.9000000000000057,188.6361347939399,187.4651081090402,1.171026684899715,-0.9255476351368372,-1.5518462744270967,0.6262986392902594,73.34355902533639,10.000000000000853
2021-11-23 16:00:00,2021-11-23 16:00:00,190.7,191.0,188.1,188.4,822.921,LTCEUR,-2.299999999999983,188.51806739696997,187.73222007788584,0.7858473190841266,-0.7443391149540162,-1.3903448425324805,0.6460057275784643,57.08198470391017,-84.99999999999943
2021-11-23 17:00:00,2021-11-23 17:00:00,188.4,189.7,187.9,188.9,675.363,LTCEUR,0.5,188.70903369848497,188.06587148420417,0.6431622142808067,-0.5539980907087454,-1.2230754921677334,0.669077401458988,59.52919356151117,20.000000000000284
2021-11-23 18:00:00,2021-11-23 18:00:00,188.9,189.8,188.4,188.8,390.517,LTCEUR,-0.09999999999999432,188.7545168492425,188.27562248871726,0.4788943605252314,-0.40653434703270364,-1.0597672631407273,0.6532329161080237,58.72553855301457,-40.00000000000057
2021-11-23 19:00:00,2021-11-23 19:00:00,189.0,189.2,187.2,188.1,405.218,LTCEUR,-0.9000000000000057,188.42725842462124,188.22544463479804,0.20181378982320552,-0.3422076607106419,-0.9162553426547102,0.5740476819440683,52.744258543943644,75.0
2021-11-23 20:00:00,2021-11-23 20:00:00,188.6,190.4,187.7,190.3,460.593,LTCEUR,1.700000000000017,189.36362921231063,188.81817473914145,0.5454544731691726,-0.11241088184624459,-0.7554864504930171,0.6430755686467725,65.85877129065688,154.99999999999972
2021-11-23 21:00:00,2021-11-23 21:00:00,190.2,191.2,189.8,191.2,638.565,LTCEUR,1.0,190.2818146061553,189.4986962422439,0.7831183639113988,0.14070523700019066,-0.5762481129943756,0.7169533499945663,69.95239993288538,14.999999999999147
2021-11-23 22:00:00,2021-11-23 22:00:00,191.1,191.1,189.9,190.6,429.431,LTCEUR,-0.5,190.44090730307767,189.81335445874566,0.6275528443320013,0.2895488601761258,-0.4030887183602753,0.6926375785364012,63.829711444567224,-54.999999999999716
2021-11-23 23:00:00,2021-11-23 23:00:00,190.6,191.4,189.7,190.1,395.084,LTCEUR,-0.5,190.27045365153884,189.89525318481833,0.3752004667205142,0.36297849246298597,-0.24987527619562308,0.6128537686586091,58.69255751435373,85.00000000000085
