date,date,open,high,low,close,volume,pair,close_open_diff,ema_short,ema_long,ema_sort_ema_long_diff,macd,signal,momentum,rsi,gradient
2021-06-17 00:00:00,2021-06-17 00:00:00,140.25,140.75,139.07,139.19,683.629,LTCEUR,-1.0600000000000023,139.63292622698015,139.61661173583124,0.016314491148904153,-1.165832188895024,-1.2283993674752178,0.06256717858019378,42.698705618340476,-68.50000000000023
2021-06-17 01:00:00,2021-06-17 01:00:00,139.0,139.09,137.77,138.87,548.2534,LTCEUR,-0.12999999999999545,139.25146311349008,139.4032940970223,-0.15183098353222135,-1.1643100237347426,-1.215581498727123,0.051271474992380384,39.88058027979391,59.00000000000034
2021-06-17 02:00:00,2021-06-17 02:00:00,138.93,140.99,138.25,140.37,754.9994,LTCEUR,1.4399999999999977,139.81073155674505,139.67949578358736,0.13123577315769808,-1.0301908342360946,-1.1785033658289172,0.14831253159282265,56.157259778401915,95.49999999999983
2021-06-17 03:00:00,2021-06-17 03:00:00,140.47,141.29,140.47,140.78,316.7446,LTCEUR,0.3100000000000023,140.2953657783725,139.99392555970525,0.3014402186672669,-0.8806650779709457,-1.118935708257323,0.2382706302863773,59.73306193746006,71.99999999999989
2021-06-17 04:00:00,2021-06-17 04:00:00,141.06,142.29,140.97,141.81,309.7687,LTCEUR,0.75,141.05268288918626,140.51280397121803,0.539878917968224,-0.6713139575014111,-1.0294113581061408,0.3580974006047297,67.67973460587234,104.00000000000063
2021-06-17 05:00:00,2021-06-17 05:00:00,142.0,142.86,142.0,142.86,212.5531,LTCEUR,0.8600000000000136,141.95634144459314,141.1834314080129,0.7729100365802424,-0.41588143909933706,-0.9067053743047802,0.4908239352054431,73.96504662817401,45.000000000000284
2021-06-17 06:00:00,2021-06-17 06:00:00,142.87,143.35,142.31,142.71,275.7364,LTCEUR,-0.1599999999999966,142.3331707222966,141.61959386286637,0.7135768594302192,-0.22298266896555674,-0.7699608332369355,0.5469781642713788,71.57877758450476,-32.00000000000074
2021-06-17 07:00:00,2021-06-17 07:00:00,142.6,143.07,142.02,142.22,699.8547,LTCEUR,-0.37999999999999545,142.2765853611483,141.79113847347597,0.4854468876723388,-0.10839835995511748,-0.637648338580572,0.5292499786254545,63.54269207431113,60.49999999999898
2021-06-17 08:00:00,2021-06-17 08:00:00,142.21,143.93,142.21,143.92,225.7016,LTCEUR,1.7099999999999795,143.09829268057416,142.3993846239114,0.6989080566627592,0.11822351587875346,-0.48647396768870693,0.6046974835674603,75.1552699916081,104.00000000000063
2021-06-17 09:00:00,2021-06-17 09:00:00,143.86,144.77,143.77,144.3,416.7207,LTCEUR,0.4399999999999977,143.6991463402871,142.94241758850814,0.7567287517789509,0.3247423813795933,-0.32423069787504694,0.6489730792546402,77.11090825443158,50.500000000000966
2021-06-17 10:00:00,2021-06-17 10:00:00,144.31,145.09,143.52,144.93,492.0594,LTCEUR,0.6200000000000045,144.31457317014355,143.51029827750583,0.8042748926377215,0.5331005537078397,-0.15276444755846957,0.6858650012663092,80.21002347012848,17.499999999999716
2021-06-17 11:00:00,2021-06-17 11:00:00,144.99,145.13,143.41,144.65,339.5554,LTCEUR,-0.3400000000000034,144.4822865850718,143.8359273410756,0.6463592439961872,0.667932733694812,0.011374988692186727,0.6565577450026252,74.80800617675754,-44.50000000000074
2021-06-17 12:00:00,2021-06-17 12:00:00,144.68,144.74,143.79,144.04,216.2577,LTCEUR,-0.6400000000000148,144.2611432925359,143.894233815054,0.3669094774818973,0.7172977438419537,0.15255953972214012,0.5647382041198136,63.60857329979908,-67.00000000000017
2021-06-17 13:00:00,2021-06-17 13:00:00,143.98,144.3,143.23,143.31,636.3207,LTCEUR,-0.6699999999999875,143.78557164626795,143.7273098678957,0.058261778372241224,0.6895660823465164,0.2599608482470154,0.429605234099501,52.353081587236886,-75.99999999999909
2021-06-17 14:00:00,2021-06-17 14:00:00,143.31,143.37,142.19,142.52,896.7696,LTCEUR,-0.789999999999992,143.15278582313397,143.3823641913541,-0.22957836822013178,0.5969607511765957,0.3273608288329315,0.26959992234366426,42.57069108266793,-80.50000000000068
2021-06-17 15:00:00,2021-06-17 15:00:00,142.4,142.6,141.55,141.7,822.6977,LTCEUR,-0.700000000000017,142.42639291156698,142.90168870811007,-0.47529579654309373,0.45219063984774266,0.35232679103589376,0.0998638488118489,34.53339407848357,-25.500000000000966
2021-06-17 16:00:00,2021-06-17 16:00:00,141.51,142.55,141.0,142.01,513.7815,LTCEUR,0.5,142.21819645578347,142.6469205057929,-0.4287240500094356,0.3583429384949568,0.3535300205277064,0.0048129179672504185,39.698251195421385,48.49999999999994
2021-06-17 17:00:00,2021-06-17 17:00:00,142.1,142.91,141.64,142.67,452.559,LTCEUR,0.5699999999999932,142.44409822789174,142.65351464699492,-0.209416419103178,0.3333814295889965,0.34950030233996443,-0.016118872750967905,49.81373868096859,-107.49999999999886
2021-06-17 18:00:00,2021-06-17 18:00:00,142.73,143.04,139.65,139.86,1996.9672,LTCEUR,-2.869999999999976,141.15204911394588,141.8553676049964,-0.7033184910505099,0.08586592911177604,0.2967734276943268,-0.21090749858255076,26.82428374229886,-208.49999999999937
2021-06-17 19:00:00,2021-06-17 19:00:00,139.65,140.06,138.0,138.5,1579.0987,LTCEUR,-1.1500000000000057,139.82602455697292,140.896691146426,-1.070666589453083,-0.21752502914370098,0.19391373632672124,-0.41143876547042224,21.1541948116851,-90.50000000000011
2021-06-17 20:00:00,2021-06-17 20:00:00,138.49,139.07,136.79,138.05,1680.6745,LTCEUR,-0.4399999999999977,138.93801227848647,140.08335081887572,-1.1453385403892469,-0.48864301604879756,0.0574023858516175,-0.5460454019004151,19.516202345673435,-21.999999999999886
2021-06-17 21:00:00,2021-06-17 21:00:00,137.61,138.53,137.45,138.06,872.7717,LTCEUR,0.44999999999998863,138.49900613924325,139.5052505849112,-1.00624444566796,-0.6946910910764359,-0.09301630953399317,-0.6016747815424427,19.682045203808073,14.499999999999602
2021-06-17 22:00:00,2021-06-17 22:00:00,137.77,138.91,137.01,138.34,1085.795,LTCEUR,0.5699999999999932,138.4195030696216,139.17232184636515,-0.7528187767435384,-0.8258718781656,-0.23958742326031457,-0.5862844549052855,24.88280676002053,24.500000000000455
2021-06-17 23:00:00,2021-06-17 23:00:00,138.05,138.75,137.68,138.55,905.5254,LTCEUR,0.5,138.4847515348108,138.99451560454654,-0.5097640697357235,-0.9024850660198922,-0.37216695181223014,-0.5303181142076621,29.019342931867158,54.999999999999716
