date,date,open,high,low,close,volume,pair,close_open_diff,ema_short,ema_long,ema_sort_ema_long_diff,macd,signal,momentum,rsi,gradient
2021-04-20 00:00:00,2021-04-20 00:00:00,222.77,227.128,220.211,222.925,2129.395,LTCEUR,0.15500000000000114,223.27573411760483,222.67695749981263,0.5987766177921969,-2.1462352195493395,-2.7960546867922376,0.6498194672428981,51.30350916652262,-241.50000000000063
2021-04-20 01:00:00,2021-04-20 01:00:00,222.88,224.171,216.787,217.73,1720.844,LTCEUR,-5.150000000000006,220.5028670588024,221.26354107129472,-0.7606740124923306,-2.3764801488302396,-2.712139779199838,0.33565963036959845,38.26134576088075,-857.7000000000012
2021-04-20 02:00:00,2021-04-20 02:00:00,217.981,220.091,203.28,205.771,2234.738,LTCEUR,-12.210000000000008,213.13693352940118,216.83710076521052,-3.700167235809346,-3.483783382325754,-2.866468499825021,-0.6173148825007329,22.476895695700506,-595.5999999999989
2021-04-20 03:00:00,2021-04-20 03:00:00,205.83,210.187,203.79,205.818,944.928,LTCEUR,-0.012000000000000455,209.47746676470058,213.68878626086467,-4.211319496164094,-4.30787812785843,-3.154750425431703,-1.153127702426727,22.62743172803542,342.4500000000009
2021-04-20 06:00:00,2021-04-20 06:00:00,206.828,213.186,206.0,212.62,1086.304,LTCEUR,5.792000000000002,211.0487333823503,213.38341875776047,-2.3346853754101744,-4.361834089425514,-3.3961671582304653,-0.9656669311950488,42.13977554481629,93.8999999999993
2021-04-20 07:00:00,2021-04-20 07:00:00,212.514,212.826,206.132,207.696,2464.266,LTCEUR,-4.818000000000012,209.37236669117516,211.7584419698289,-2.386075278653749,-4.747197488494606,-3.6663732242832934,-1.080824264211313,34.56711879385148,-735.0499999999997
2021-04-20 08:00:00,2021-04-20 08:00:00,207.761,209.906,196.071,197.919,4590.924,LTCEUR,-9.841999999999985,203.6456833455876,207.80431569273492,-4.158632347147318,-5.774952886756751,-4.088089156777985,-1.6868637299787652,24.203640127136467,-178.05000000000035
2021-04-20 09:00:00,2021-04-20 09:00:00,197.781,204.34,194.986,204.135,4806.548,LTCEUR,6.353999999999985,203.8903416727938,206.75593978052493,-2.865598107731131,-6.018499675859516,-4.474171260594291,-1.544328415265225,38.313405902692146,562.3999999999995
2021-04-20 10:00:00,2021-04-20 10:00:00,204.341,210.134,203.738,209.167,2910.852,LTCEUR,4.825999999999993,206.52867083639688,207.44481412894638,-0.9161432925494921,-5.739312690958712,-4.727199546667175,-1.0121131442915372,47.76018865383475,265.9000000000006
2021-04-20 11:00:00,2021-04-20 11:00:00,209.342,212.14,206.127,209.453,3067.463,LTCEUR,0.11099999999999,207.99083541819846,208.01858152067598,-0.027746102477522072,-5.432356361581071,-4.868230909649955,-0.5641254519311163,48.30018247778547,296.94999999999965
2021-04-20 12:00:00,2021-04-20 12:00:00,209.505,216.76,208.933,215.106,3249.636,LTCEUR,5.600999999999999,211.54841770909923,210.04355822905427,1.5048594800449564,-4.679004748973739,-4.8303856775147125,0.15138092854097351,58.47997633540837,257.9499999999996
2021-04-20 13:00:00,2021-04-20 13:00:00,215.065,215.997,209.841,214.612,2362.721,LTCEUR,-0.45300000000000296,213.0802088545496,211.34882730646734,1.731381548082254,-4.074857420019555,-4.679280026015681,0.6044226059961257,57.2969065634241,-159.69999999999942
2021-04-20 14:00:00,2021-04-20 14:00:00,214.678,215.233,210.116,211.912,2199.156,LTCEUR,-2.765999999999991,212.49610442727482,211.50973379033383,0.9863706369409897,-3.770470111921327,-4.49751804319681,0.7270479312754832,50.58503979456933,217.1999999999997
2021-04-20 15:00:00,2021-04-20 15:00:00,212.001,219.59,211.982,218.956,2628.331,LTCEUR,6.954999999999984,215.7260522136374,213.637238421667,2.088813791970381,-2.927107176950699,-4.183435869947588,1.256328692996889,63.844444347462435,-81.1000000000007
2021-04-20 16:00:00,2021-04-20 16:00:00,219.066,219.434,209.84,210.29,3142.64,LTCEUR,-8.77600000000001,213.0080261068187,212.680884586905,0.32714151991370954,-2.9243002372791125,-3.931608743413893,1.0073085061347804,45.72933258318291,-356.6999999999993
2021-04-20 17:00:00,2021-04-20 17:00:00,210.231,212.475,205.344,211.822,3831.491,LTCEUR,1.5910000000000082,212.41501305340935,212.43548899064643,-0.02047593723708019,-2.7665648829805605,-3.6985999713272264,0.9320350883466659,48.810532280969454,534.7000000000008
2021-04-20 18:00:00,2021-04-20 18:00:00,211.851,220.984,210.576,220.984,5724.006,LTCEUR,9.13300000000001,216.69950652670468,214.87792070760457,1.8215858191001075,-1.8805834528836272,-3.3349966676385066,1.4544132147548794,63.62947022316413,449.4500000000002
2021-04-20 19:00:00,2021-04-20 19:00:00,221.0,221.545,218.102,220.811,3192.229,LTCEUR,-0.18899999999999295,218.75525326335236,216.57308621971754,2.18216704363482,-1.178807877133778,-2.903758909537561,1.7249510324037831,63.21481001208588,88.15000000000026
2021-04-20 20:00:00,2021-04-20 20:00:00,221.0,225.0,219.928,222.747,3244.62,LTCEUR,1.747000000000014,220.7511266316762,218.33706158551252,2.414065046163671,-0.4611112536587143,-2.4152293783617917,1.9541181247030774,66.17495470358452,322.79999999999944
2021-04-20 21:00:00,2021-04-20 21:00:00,222.828,227.537,222.8,227.267,2786.59,LTCEUR,4.438999999999993,224.0090633158381,220.8884725610804,3.1205907547577,0.4670113003876395,-1.8387812426119055,2.305792542999545,72.39790474690251,-57.95000000000101
2021-04-20 22:00:00,2021-04-20 22:00:00,227.31,227.422,220.0,221.588,3108.078,LTCEUR,-5.722000000000008,222.79853165791906,221.08833754362885,1.7101941142902035,0.7358251384537482,-1.3238599663987747,2.059685104852523,56.676945430717645,-211.54999999999973
2021-04-20 23:00:00,2021-04-20 23:00:00,221.619,223.199,217.646,223.036,1833.818,LTCEUR,1.4170000000000016,222.91726582895953,221.64481253116344,1.2724532977960905,1.0535587706883973,-0.8483762189813402,1.9019349896697375,59.37601167757408,-156.49999999999977
