date,date,open,high,low,close,volume,pair,close_open_diff,ema_short,ema_long,ema_sort_ema_long_diff,macd,signal,momentum,rsi,gradient
2021-11-28 00:00:00,2021-11-28 00:00:00,173.5,173.7,171.4,173.4,468.384,LTCEUR,-0.09999999999999432,173.19611654753675,173.3209437441826,-0.12482719664586739,-1.3960800730965275,-1.583277506856835,0.1871974337603075,47.3170442606884,-39.99999999999915
2021-11-28 01:00:00,2021-11-28 01:00:00,173.3,173.5,170.1,172.8,561.945,LTCEUR,-0.5,172.99805827376838,173.17210267441615,-0.17404440064777305,-1.3696026484545598,-1.54054253517638,0.17093988672182014,42.64609464947897,-145.00000000000028
2021-11-28 02:00:00,2021-11-28 02:00:00,172.3,173.1,169.9,170.5,376.166,LTCEUR,-1.8000000000000114,171.7490291368842,172.4086447674401,-0.6596156305559191,-1.5167260035247239,-1.535779228846049,0.01905322532132514,29.328300378832253,-215.00000000000057
2021-11-28 03:00:00,2021-11-28 03:00:00,170.5,171.4,163.3,168.5,964.247,LTCEUR,-2.0,170.1245145684421,171.29188911960006,-1.1673745511579625,-1.7742531221292666,-1.5834740075026927,-0.19077911462657382,22.12014161046514,-134.99999999999943
2021-11-28 04:00:00,2021-11-28 04:00:00,168.7,168.8,166.9,167.8,289.19,LTCEUR,-0.8999999999999773,168.96225728422104,170.29420651400005,-1.3319492297790134,-2.01164043018548,-1.6691072920392505,-0.34253313814622954,20.05042743561276,-65.00000000000057
2021-11-28 05:00:00,2021-11-28 05:00:00,168.3,169.1,166.8,167.2,228.728,LTCEUR,-1.1000000000000227,168.0811286421105,169.41014751000003,-1.3290188678895163,-2.222566207948205,-1.7797990752210415,-0.4427671327271634,18.290175612241143,44.99999999999886
2021-11-28 06:00:00,2021-11-28 06:00:00,167.2,169.0,167.2,168.7,283.1,LTCEUR,1.5,168.39056432105525,169.20724822142859,-0.8166839003733344,-2.2428349374438312,-1.8724062476655996,-0.3704286897782316,35.32410583585519,90.00000000000057
2021-11-28 07:00:00,2021-11-28 07:00:00,168.8,169.5,167.6,169.0,226.998,LTCEUR,0.19999999999998863,168.69528216052763,169.14803444387755,-0.45275228334992335,-2.2092239997273566,-1.9397697980779511,-0.2694542016494055,38.405814268706216,15.000000000000568
2021-11-28 08:00:00,2021-11-28 08:00:00,169.3,169.5,168.7,169.0,288.425,LTCEUR,-0.30000000000001137,168.84764108026383,169.10573888848396,-0.2580978082201284,-2.157714302089346,-1.9833586988802303,-0.17435560320911558,38.405814268706216,-59.99999999999943
2021-11-28 09:00:00,2021-11-28 09:00:00,169.0,169.2,167.5,167.8,316.817,LTCEUR,-1.1999999999999886,168.32382054013192,168.7326706346314,-0.40885009449948484,-2.1884948603263297,-2.0243859311694505,-0.16410892915687914,30.135081947156294,-29.999999999999716
2021-11-28 10:00:00,2021-11-28 10:00:00,167.8,168.4,166.7,168.4,260.807,LTCEUR,0.5999999999999943,168.36191027006595,168.63762188187957,-0.2757116118136196,-2.1398073220752565,-2.047470209350612,-0.0923371127246444,38.1294186394808,119.99999999999886
2021-11-28 11:00:00,2021-11-28 11:00:00,168.0,171.2,167.1,170.2,416.751,LTCEUR,2.1999999999999886,169.28095513503297,169.08401562991395,0.19693950511901903,-1.933686802681109,-2.0247135280167115,0.09102672533560252,56.18020492092855,14.999999999999147
2021-11-28 12:00:00,2021-11-28 12:00:00,170.2,170.8,168.3,168.7,344.251,LTCEUR,-1.5,168.99047756751648,168.97429687850996,0.016180689006517923,-1.8698181700767975,-1.993734456428729,0.12391628635193142,43.49152225450327,-75.0
2021-11-28 13:00:00,2021-11-28 13:00:00,168.8,169.3,168.0,168.7,279.489,LTCEUR,-0.10000000000002274,168.84523878375825,168.89592634179283,-0.050687558034582025,-1.798470173932941,-1.9546815999295715,0.15621142599663052,43.491522254503266,-14.999999999999147
2021-11-28 14:00:00,2021-11-28 14:00:00,168.9,169.0,168.0,168.4,293.807,LTCEUR,-0.5,168.62261939187914,168.7542331012806,-0.13161370940144934,-1.7460069840888082,-1.912946676761419,0.16693969267261077,40.835316972578305,0.0
2021-11-28 15:00:00,2021-11-28 15:00:00,168.4,169.4,167.0,168.7,276.777,LTCEUR,0.29999999999998295,168.66130969593956,168.73873792948612,-0.0774282335465557,-1.6610742059022243,-1.86257218258958,0.2014979766873557,44.875343090508835,-4.999999999999716
2021-11-28 16:00:00,2021-11-28 16:00:00,168.8,169.0,167.9,168.3,249.866,LTCEUR,-0.5,168.4806548479698,168.61338423534724,-0.1327293873774522,-1.6075106422984504,-1.8115598745313544,0.20404923223290394,40.455386831544764,-44.99999999999886
2021-11-28 17:00:00,2021-11-28 17:00:00,168.3,168.7,166.5,167.8,195.326,LTCEUR,-0.5,168.1403274239849,168.38098873953373,-0.2406613155488344,-1.5871117176254188,-1.7666702431501673,0.1795585255247485,35.2478319268662,-115.00000000000057
2021-11-28 18:00:00,2021-11-28 18:00:00,167.9,168.6,165.6,166.0,281.72,LTCEUR,-1.9000000000000057,167.07016371199245,167.7007062425241,-0.6305425305316419,-1.6966326545041284,-1.7526627254209597,0.05603007091683132,22.651609662735154,-65.00000000000057
2021-11-28 19:00:00,2021-11-28 19:00:00,166.0,166.5,161.6,166.5,1102.243,LTCEUR,0.5,166.78508185599622,167.35764731608862,-0.5725654600923917,-1.723218771380573,-1.7467739346128823,0.02355516323230944,30.88466558477721,104.99999999999972
2021-11-28 20:00:00,2021-11-28 20:00:00,166.4,169.3,166.0,168.1,637.941,LTCEUR,1.6999999999999886,167.4425409279981,167.56974808292046,-0.12720715492235968,-1.5967752017380974,-1.7167741880379255,0.11999898629982808,50.9379888984022,175.0
2021-11-28 21:00:00,2021-11-28 21:00:00,168.5,170.4,168.3,170.0,569.456,LTCEUR,1.5,168.72127046399905,168.26410577351461,0.45716469048443287,-1.327945906984155,-1.6390085318271714,0.3110626248430164,65.28926725925984,370.0000000000003
2021-11-28 22:00:00,2021-11-28 22:00:00,170.1,175.7,169.8,175.5,780.021,LTCEUR,5.400000000000006,172.11063523199954,170.331504123939,1.7791311080605396,-0.6634449392198576,-1.4438958133057087,0.7804508740858511,82.78321115713013,134.99999999999943
2021-11-28 23:00:00,2021-11-28 23:00:00,175.8,176.9,172.2,172.7,837.54,LTCEUR,-3.1000000000000227,172.40531761599976,171.008217231385,1.3971003846147596,-0.3586257201541514,-1.2268417946753971,0.8682160745212457,63.295069880594994,84.99999999999943
