date,date,open,high,low,close,volume,pair,close_open_diff,ema_short,ema_long,ema_sort_ema_long_diff,macd,signal,momentum,rsi,gradient
2021-09-07 00:00:00,2021-09-07 00:00:00,189.2,189.8,186.2,187.1,734.558,LTCEUR,-2.0999999999999943,187.807583834796,188.1483522406273,-0.3407684058313123,-0.41084152734370605,0.13022088457230022,-0.5410624119160062,37.263427242337,-135.00000000000085
2021-09-07 01:00:00,2021-09-07 01:00:00,187.5,187.5,184.4,186.2,787.033,LTCEUR,-1.3000000000000114,187.003791917398,187.59168017187665,-0.5878882544786563,-0.5915253499088351,-0.014128362323926849,-0.5773969875849082,32.700172663712394,-195.00000000000028
2021-09-07 02:00:00,2021-09-07 02:00:00,186.4,187.4,182.7,183.2,935.777,LTCEUR,-3.200000000000017,185.101895958699,186.3369144084833,-1.2350184497842918,-0.9656619590421087,-0.20443508166756325,-0.7612268773745454,21.94882061782279,-50.0
2021-09-07 03:00:00,2021-09-07 03:00:00,183.3,185.2,183.2,185.2,604.495,LTCEUR,1.8999999999999773,185.1509479793495,186.0120817203452,-0.8611337409957116,-1.08824007777568,-0.38119608088918666,-0.7070439968864933,38.203159065380326,165.00000000000057
2021-09-07 04:00:00,2021-09-07 04:00:00,185.4,186.8,185.2,186.5,181.531,LTCEUR,1.0999999999999943,185.82547398967475,186.15148694310372,-0.32601295342897174,-1.0681717653557996,-0.5185912177825093,-0.5495805475732903,46.838537100608555,30.000000000001137
2021-09-07 05:00:00,2021-09-07 05:00:00,186.7,188.3,185.8,185.8,207.717,LTCEUR,-0.8999999999999773,185.8127369948374,186.05106210221695,-0.23832510737955204,-1.0961162867891687,-0.6340962315838412,-0.4620200552053275,42.959612241848895,-34.99999999999943
2021-09-07 06:00:00,2021-09-07 06:00:00,186.1,187.4,185.2,185.8,923.184,LTCEUR,-0.29999999999998295,185.8063684974187,185.9793300730121,-0.17296157559340486,-1.1055187889174363,-0.7283807430505602,-0.37713804586687605,42.959612241848895,75.0
2021-09-07 07:00:00,2021-09-07 07:00:00,185.7,187.3,184.5,187.3,467.942,LTCEUR,1.6000000000000227,186.55318424870936,186.3566643378658,0.19651991084356268,-0.9806287972638472,-0.7788303538932176,-0.20179844337062958,54.56914338965255,-75.0
2021-09-07 08:00:00,2021-09-07 08:00:00,187.2,188.0,184.1,184.3,749.145,LTCEUR,-2.8999999999999773,185.42659212435467,185.76904595561842,-0.3424538312637537,-1.1109214955721711,-0.8452485822290084,-0.2656729133431627,36.6610776364894,-155.00000000000114
2021-09-07 09:00:00,2021-09-07 09:00:00,184.0,185.4,182.6,184.2,1030.419,LTCEUR,0.19999999999998863,184.81329606217733,185.32074711115604,-0.5074510489787087,-1.2083198034140423,-0.9178628264660152,-0.2904569769480271,36.1860674494277,-280.00000000000114
2021-09-07 10:00:00,2021-09-07 10:00:00,184.2,184.2,177.7,178.7,2913.973,LTCEUR,-5.5,181.75664803108867,183.42910507939717,-1.6724570483085017,-1.7096054314563673,-1.0762113474640858,-0.6333940839922816,19.50575052785723,-484.99999999999943
2021-09-07 11:00:00,2021-09-07 11:00:00,178.3,180.3,172.3,174.5,2533.43,LTCEUR,-3.8000000000000114,178.12832401554434,180.87793219956941,-2.749608184025078,-2.4179106336951577,-1.3445512047103003,-1.0733594289848574,13.71320247853616,-109.99999999999943
2021-09-07 12:00:00,2021-09-07 12:00:00,174.4,177.3,174.2,176.5,1782.067,LTCEUR,2.0999999999999943,177.31416200777215,179.62709442826386,-2.3129324204917054,-2.7857519102788615,-1.6327913458240126,-1.1529605644548488,26.23136728291513,84.99999999999943
2021-09-07 13:00:00,2021-09-07 13:00:00,176.4,177.0,175.5,176.2,731.653,LTCEUR,-0.20000000000001705,176.75708100388607,178.64792459161703,-1.8908435877309557,-3.0661318060606675,-1.9194594378713439,-1.1466723681893236,25.563801218839558,-9.999999999999432
2021-09-07 14:00:00,2021-09-07 14:00:00,176.0,177.0,174.2,176.3,1002.906,LTCEUR,0.30000000000001137,176.52854050194304,177.97708899401218,-1.4485484920691363,-3.2428837835984154,-2.1841443070167585,-1.058739476581657,26.31390072738556,-129.99999999999972
2021-09-07 15:00:00,2021-09-07 15:00:00,176.4,178.0,173.2,173.6,1598.468,LTCEUR,-2.8000000000000114,175.0642702509715,176.7264921385801,-1.6622218876086094,-3.559793352511491,-2.4592741161157052,-1.1005192363957859,19.837129776091217,-875.0
2021-09-07 16:00:00,2021-09-07 16:00:00,173.5,174.8,158.0,158.8,4770.537,LTCEUR,-14.699999999999989,166.93213512548576,171.60463724184294,-4.67250211635718,-4.9481436603207385,-2.9570480249567117,-1.9910956353640268,7.574253567547558,-820.0000000000002
2021-09-07 17:00:00,2021-09-07 17:00:00,158.0,164.1,140.4,157.2,4738.6542,LTCEUR,-0.8000000000000114,162.0660675627429,167.48902660131637,-5.422959038573481,-6.107128731563677,-3.587064166278105,-2.5200645652855718,7.011924834637597,59.99999999999943
2021-09-07 18:00:00,2021-09-07 18:00:00,157.2,160.9,154.5,160.0,2824.595,LTCEUR,2.8000000000000114,161.03303378137144,165.34930471522597,-4.3162709338545255,-6.722206736308806,-4.214092680284246,-2.50811405602456,19.554119547369268,5.000000000001137
2021-09-07 19:00:00,2021-09-07 19:00:00,160.3,160.7,154.4,157.3,2444.133,LTCEUR,-3.0,159.16651689068573,163.04950336801855,-3.882986477332821,-7.342883728786546,-4.839850889984707,-2.5030328388018397,16.914231393204815,-229.99999999999972
2021-09-07 20:00:00,2021-09-07 20:00:00,157.1,158.7,152.6,155.4,1455.699,LTCEUR,-1.6999999999999886,157.28325844534288,160.86393097715612,-3.580672531813235,-7.8970564866675375,-5.451292009321273,-2.4457644773462643,15.183283318329046,-215.00000000000057
2021-09-07 21:00:00,2021-09-07 21:00:00,155.4,156.9,152.6,153.0,892.856,LTCEUR,-2.4000000000000057,155.14162922267144,158.61709355511152,-3.475464332440083,-8.432695468065276,-6.047572701070074,-2.3851227669952024,13.144322560448217,-125.0
2021-09-07 22:00:00,2021-09-07 22:00:00,153.2,155.5,151.4,152.9,983.389,LTCEUR,-0.29999999999998295,154.0208146113357,156.9836382536511,-2.962823642315385,-8.76423375300007,-6.590904911456073,-2.173328841543997,13.056653760202124,-140.00000000000057
2021-09-07 23:00:00,2021-09-07 23:00:00,153.4,153.5,149.0,150.2,1834.816,LTCEUR,-3.200000000000017,152.11040730566785,155.04545589546507,-2.935048589797219,-9.139493278199694,-7.100622584804798,-2.0388706933948963,10.736509547915844,34.99999999999943
