date,date,open,high,low,close,volume,pair,close_open_diff,ema_short,ema_long,ema_sort_ema_long_diff,macd,signal,momentum,rsi,gradient
2021-10-16 00:00:00,2021-10-16 00:00:00,162.6,163.5,162.5,163.3,695.534,LTCEUR,0.700000000000017,163.47712377417318,163.11862899744187,0.35849477673130536,2.281222564420432,1.7268999757592804,0.5543225886611514,60.992503019291256,14.999999999999147
2021-10-16 01:00:00,2021-10-16 01:00:00,163.1,163.1,162.4,163.1,225.316,LTCEUR,0.0,163.2885618870866,163.1133064267442,0.1752554603423846,2.2315313394601617,1.827826248499457,0.4037050909607047,59.20905132909635,44.99999999999886
2021-10-16 02:00:00,2021-10-16 02:00:00,163.3,164.9,163.0,164.2,398.279,LTCEUR,0.8999999999999773,163.7442809435433,163.4237903048173,0.3204906387259996,2.2549181992268075,1.913244638644927,0.34167356058188036,65.80772723231303,20.000000000000284
2021-10-16 03:00:00,2021-10-16 03:00:00,163.8,165.6,162.8,163.5,785.206,LTCEUR,-0.30000000000001137,163.62214047177164,163.44556450344092,0.17657596833072375,2.191703708169598,1.9689364525498614,0.22276725561973665,58.57218594713703,5.000000000001137
2021-10-16 04:00:00,2021-10-16 04:00:00,163.7,164.3,163.2,164.3,282.726,LTCEUR,0.6000000000000227,163.9610702358858,163.68968893102922,0.2713813048565896,2.181017668644216,2.0113526957687324,0.16966497287548377,64.0004872931485,-25.0
2021-10-16 05:00:00,2021-10-16 05:00:00,164.5,164.8,162.8,163.0,469.743,LTCEUR,-1.5,163.4805351179429,163.49263495073518,-0.012099832792273446,2.044086809544325,2.017899518523851,0.026187291020474124,50.975721480342536,-75.0
2021-10-16 06:00:00,2021-10-16 06:00:00,163.2,163.7,162.4,162.8,314.588,LTCEUR,-0.39999999999997726,163.14026755897146,163.29473925052514,-0.154471691553681,1.8975559448986132,1.9938308037988035,-0.09627485890019027,49.129856101583314,9.999999999999432
2021-10-16 07:00:00,2021-10-16 07:00:00,162.7,164.1,162.6,163.2,356.218,LTCEUR,0.5,163.17013377948572,163.26767089323224,-0.09753711374651175,1.7930368236531251,1.953672007769668,-0.16063518411654298,53.19727605390129,14.999999999999147
2021-10-16 08:00:00,2021-10-16 08:00:00,163.2,163.6,162.9,163.1,344.736,LTCEUR,-0.09999999999999432,163.13506688974286,163.2197649237373,-0.08469803399444231,1.682737947194056,1.8994851956545458,-0.21674724846048976,51.951120598418896,-50.0
2021-10-16 09:00:00,2021-10-16 09:00:00,162.8,162.8,161.3,162.2,755.355,LTCEUR,-0.6000000000000227,162.66753344487142,162.9284035169552,-0.260870072083776,1.5053500759262022,1.8206581717088772,-0.31530809578267505,41.46165781031861,60.00000000000085
2021-10-16 10:00:00,2021-10-16 10:00:00,162.2,164.3,162.0,164.3,845.953,LTCEUR,2.1000000000000227,163.48376672243572,163.32028822639657,0.1634784960391471,1.5167373554066614,1.7598740084484343,-0.2431366530417729,62.60363960821448,125.0
2021-10-16 11:00:00,2021-10-16 11:00:00,164.0,165.5,163.7,164.7,592.728,LTCEUR,0.6999999999999886,164.09188336121787,163.71449159028327,0.37739177093459375,1.5402830888411359,1.7159558245269746,-0.17567273568583874,65.4553657513791,14.999999999999147
2021-10-16 12:00:00,2021-10-16 12:00:00,164.9,165.2,164.1,164.6,620.732,LTCEUR,-0.30000000000001137,164.34594168060892,163.96749399305946,0.37844768754945335,1.5332003091804722,1.6794047214576742,-0.14620441227720193,63.99143153686953,-19.999999999998863
2021-10-16 13:00:00,2021-10-16 13:00:00,164.6,164.8,163.6,164.3,545.683,LTCEUR,-0.29999999999998295,164.32297084030446,164.0624957093282,0.2604751309762605,1.4862471307092733,1.6407732033079943,-0.15452607259872098,59.22306442874347,-184.99999999999943
2021-10-16 14:00:00,2021-10-16 14:00:00,164.2,164.6,160.4,160.9,793.508,LTCEUR,-3.299999999999983,162.61148542015223,163.158925506663,-0.5474400865107611,1.1612980919559561,1.544878181037587,-0.38358008908163077,29.414255383784592,-135.00000000000085
2021-10-16 15:00:00,2021-10-16 15:00:00,160.7,162.0,160.4,161.6,1194.905,LTCEUR,0.9000000000000057,162.10574271007613,162.713518219045,-0.6077755089688708,0.9493146787793023,1.4257654805859301,-0.4764508018066278,37.220976649242886,39.99999999999915
2021-10-16 16:00:00,2021-10-16 16:00:00,161.6,162.2,161.3,161.7,495.834,LTCEUR,0.09999999999999432,161.90287135503806,162.42394158503214,-0.5210702299940806,0.7803896151363006,1.2966903074960043,-0.5163006923597038,38.38910983624901,10.000000000000853
2021-10-16 17:00:00,2021-10-16 17:00:00,161.7,162.3,161.0,161.8,295.693,LTCEUR,0.10000000000002274,161.85143567751902,162.24567256073726,-0.394236883218241,0.6471247975797212,1.1667772055127477,-0.5196524079330265,39.73474113435638,0.0
2021-10-16 18:00:00,2021-10-16 18:00:00,161.6,162.2,160.9,161.7,506.436,LTCEUR,0.09999999999999432,161.7757178387595,162.08976611481233,-0.31404827605283003,0.5273631906897265,1.0388944025481435,-0.511531211858417,38.719931862116965,-50.0
2021-10-16 19:00:00,2021-10-16 19:00:00,161.9,161.9,160.0,160.8,910.828,LTCEUR,-1.0999999999999943,161.28785891937974,161.72126151058023,-0.4334025912004904,0.3557281631754563,0.902261154673606,-0.5465329914981497,30.348873503103306,-54.999999999999716
2021-10-16 20:00:00,2021-10-16 20:00:00,160.7,161.1,160.2,160.6,632.915,LTCEUR,-0.09999999999999432,160.94392945968985,161.40090107898587,-0.45697161929601293,0.20124797736596634,0.7620585192120781,-0.5608105418461118,28.69457342442047,-15.000000000000568
2021-10-16 21:00:00,2021-10-16 21:00:00,160.9,161.4,160.5,160.5,413.638,LTCEUR,-0.4000000000000057,160.72196472984493,161.14350077070418,-0.42153604085925167,0.06994586053673402,0.6236359874770094,-0.5536901269402754,27.785819750997263,-14.999999999999147
2021-10-16 22:00:00,2021-10-16 22:00:00,160.4,160.8,159.2,160.3,623.933,LTCEUR,-0.09999999999999432,160.51098236492248,160.90250055050296,-0.39151818558048035,-0.04967768809626705,0.48897325236235417,-0.5386509404586213,25.82306752270256,-54.999999999999716
2021-10-16 23:00:00,2021-10-16 23:00:00,160.5,160.6,159.4,159.4,232.065,LTCEUR,-1.0999999999999943,159.95549118246123,160.47321467893067,-0.5177234964694435,-0.21462858587887013,0.3482528847141093,-0.5628814705929794,18.692745810560993,4.999999999999716
