date,date,open,high,low,close,volume,pair,close_open_diff,ema_short,ema_long,ema_sort_ema_long_diff,macd,signal,momentum,rsi,gradient
2021-06-12 00:00:00,2021-06-12 00:00:00,133.37,135.76,132.95,134.95,1527.2146,LTCEUR,1.579999999999984,134.85659872305018,135.60660481989916,-0.7500060968489777,-0.9335401451549501,-0.26578659307291486,-0.6677535520820352,33.92417854177731,62.000000000000455
2021-06-12 01:00:00,2021-06-12 01:00:00,134.67,135.25,132.8,134.75,1485.3525,LTCEUR,0.0800000000000125,134.8032993615251,135.36186058564226,-0.5585612241171702,-1.0277623232132669,-0.41818173910098533,-0.6095805841122816,32.68710175831522,-100.0
2021-06-12 02:00:00,2021-06-12 02:00:00,134.75,134.84,132.48,132.95,608.3079,LTCEUR,-1.8000000000000114,133.87664968076254,134.67275756117306,-0.796107880410517,-1.233460470430316,-0.5812374853668515,-0.6522229850634645,23.45124825140283,-269.4999999999993
2021-06-12 03:00:00,2021-06-12 03:00:00,132.95,134.1,129.15,129.36,1377.3502,LTCEUR,-3.589999999999975,131.61832484038126,133.15482682940933,-1.5365019890280678,-1.666945224284916,-0.7983790331504644,-0.8685661911344517,13.990349766832324,-228.9999999999992
2021-06-12 04:00:00,2021-06-12 04:00:00,129.14,130.82,128.01,128.37,1531.7804,LTCEUR,-0.7699999999999818,129.99416242019063,131.7877334495781,-1.793571029387465,-2.066547863637794,-1.0520127992479305,-1.0145350643898636,12.34258725964456,29.999999999999716
2021-06-12 05:00:00,2021-06-12 05:00:00,129.06,130.5,128.18,129.96,595.963,LTCEUR,0.9000000000000057,129.97708121009532,131.2655238925558,-1.2884426824604702,-2.2292388447417864,-1.2874580083467018,-0.9417808363950846,28.55905951943525,-20.000000000000284
2021-06-12 06:00:00,2021-06-12 06:00:00,129.8,130.38,127.77,127.97,379.7748,LTCEUR,-1.8300000000000125,128.97354060504767,130.32394563753985,-1.3504050324921764,-2.490045296093996,-1.5279754658961606,-0.9620698301978352,22.349366276780785,-64.00000000000006
2021-06-12 07:00:00,2021-06-12 07:00:00,128.64,129.94,128.11,128.68,741.5148,LTCEUR,0.040000000000020464,128.82677030252384,129.85424688395705,-1.0274765814332056,-2.6093660736936783,-1.7442535874556644,-0.865112486238014,28.96240426935239,100.49999999999955
2021-06-12 08:00:00,2021-06-12 08:00:00,128.7,129.99,128.69,129.98,730.1439,LTCEUR,1.2800000000000011,129.40338515126192,129.8901763456836,-0.4867911944216985,-2.5694109441926685,-1.9092850588030652,-0.6601258853896033,40.15976247679049,88.49999999999909
2021-06-12 09:00:00,2021-06-12 09:00:00,129.99,131.04,129.99,130.45,1110.3703,LTCEUR,0.45999999999997954,129.92669257563097,130.05012596120258,-0.12343338557161587,-2.471333153909029,-2.021694677824258,-0.4496384760847709,43.99002422946161,-11.499999999999488
2021-06-12 10:00:00,2021-06-12 10:00:00,130.3,131.6,129.53,129.75,581.2674,LTCEUR,-0.5500000000000114,129.83834628781548,129.96437568657328,-0.12602939875779384,-2.422168695380151,-2.101789481335437,-0.3203792140447139,39.474266424413244,-12.999999999999545
2021-06-12 11:00:00,2021-06-12 11:00:00,129.7,131.0,129.22,130.19,950.2592,LTCEUR,0.4900000000000091,130.01417314390773,130.02883977612376,-0.014666632216034259,-2.32094675555976,-2.145620936180302,-0.17532581937945801,43.82400444139757,159.00000000000034
2021-06-12 12:00:00,2021-06-12 12:00:00,130.38,133.83,128.42,132.93,2275.4679,LTCEUR,2.5500000000000114,131.47208657195387,130.85774269723126,0.6143438747226071,-1.996616782702631,-2.115820105484768,0.11920332278213674,63.45170114362527,102.50000000000057
2021-06-12 13:00:00,2021-06-12 13:00:00,133.24,133.33,131.39,132.24,858.4897,LTCEUR,-1.0,131.85604328597694,131.2526733551652,0.6033699308117377,-1.7748013705472943,-2.0476163584972733,0.27281498794997905,57.39201908148045,58.499999999999375
2021-06-12 14:00:00,2021-06-12 14:00:00,132.27,135.13,132.09,134.1,1042.5928,LTCEUR,1.829999999999984,132.97802164298847,132.06619525368941,0.9118263892990512,-1.4324126417014043,-1.9245756151380995,0.49216297343669524,67.44808675262783,115.50000000000011
2021-06-12 15:00:00,2021-06-12 15:00:00,134.43,134.8,133.71,134.55,1434.0358,LTCEUR,0.12000000000000455,133.76401082149425,132.7758537526353,0.9881570688589534,-1.1119381374295472,-1.7620481195963893,0.6501099821668421,69.53551649758728,-7.9999999999998295
2021-06-12 16:00:00,2021-06-12 16:00:00,134.49,134.97,133.27,133.94,566.8063,LTCEUR,-0.5500000000000114,133.85200541074713,133.10846696616807,0.7435384445790589,-0.8968434330863033,-1.589007182294372,0.6921637492080688,62.96727907832959,-53.000000000000114
2021-06-12 17:00:00,2021-06-12 17:00:00,134.44,134.79,133.45,133.49,570.2496,LTCEUR,-0.9499999999999886,133.67100270537355,133.21747640440577,0.45352630096778057,-0.7539989389930213,-1.422005533634102,0.6680065946410807,58.10830801688725,-12.999999999999545
2021-06-12 18:00:00,2021-06-12 18:00:00,133.39,134.31,132.91,133.68,857.8285,LTCEUR,0.29000000000002046,133.67550135268678,133.34962600314697,0.3258753495398139,-0.6183344614100577,-1.261271319189293,0.6429368577792354,59.68455118641907,96.99999999999989
2021-06-12 19:00:00,2021-06-12 19:00:00,133.66,135.94,133.47,135.43,452.7197,LTCEUR,1.7700000000000102,134.5527506763434,133.9440185736764,0.6087321026670054,-0.36539694237600884,-1.082096443826636,0.7166995014506272,71.52608951713968,75.0
2021-06-12 20:00:00,2021-06-12 20:00:00,135.24,135.67,134.85,135.18,237.2697,LTCEUR,-0.060000000000002274,134.8663753381717,134.2971561240546,0.569219214117112,-0.18300547370401432,-0.9022782498021118,0.7192727760980975,68.0972331082876,-33.500000000000796
2021-06-12 21:00:00,2021-06-12 21:00:00,135.53,135.66,134.51,134.76,338.4623,LTCEUR,-0.7700000000000102,134.81318766908583,134.42939723146756,0.3837904376182735,-0.07152491592734123,-0.7361275830271578,0.6646026670998165,62.09601923933076,-28.000000000000114
2021-06-12 22:00:00,2021-06-12 22:00:00,134.78,135.6,134.05,134.62,164.0058,LTCEUR,-0.1599999999999966,134.71659383454292,134.48385516533398,0.23273866920894193,0.005464409007998938,-0.5878091846201264,0.5932735936281254,59.98161611269851,21.50000000000034
2021-06-12 23:00:00,2021-06-12 23:00:00,134.6,136.01,134.2,135.19,974.0519,LTCEUR,0.5900000000000034,134.95329691727147,134.68561083238143,0.26768608489004464,0.1111914936837195,-0.4480090489593573,0.5592005426430768,65.6895452481447,25.99999999999909
