date,date,open,high,low,close,volume,pair,close_open_diff,ema_short,ema_long,ema_sort_ema_long_diff,macd,signal,momentum,rsi,gradient
2021-02-24 00:00:00,2021-02-24 00:00:00,144.625,146.551,142.23,146.325,2180.729,LTCEUR,1.6999999999999886,144.56034279272458,143.11799729452883,1.442345498195749,-5.879332501600743,-7.224569101334366,1.3452365997336226,58.90136772368271,7.600000000000762
2021-02-24 01:00:00,2021-02-24 01:00:00,146.25,146.834,139.5,144.895,2916.94,LTCEUR,-1.3549999999999898,144.7276713963623,143.6257123532349,1.1019590431274082,-5.347557877448111,-6.849166856557115,1.5016089791090046,54.16052132487041,237.00000000000045
2021-02-24 02:00:00,2021-02-24 02:00:00,144.898,151.065,144.457,151.065,3255.71,LTCEUR,6.167000000000002,147.89633569818113,145.7512231094535,2.145112588727642,-4.377790774451626,-6.354891640136018,1.9771008656843927,67.64430136829301,308.5499999999996
2021-02-24 03:00:00,2021-02-24 03:00:00,150.906,151.826,148.435,151.066,2981.944,LTCEUR,0.1599999999999966,149.48116784909058,147.26973079246676,2.211437056623822,-3.568032608007627,-5.797519833710341,2.229487225702714,67.64615231539887,28.199999999999648
2021-02-24 04:00:00,2021-02-24 04:00:00,150.957,152.663,150.0,151.629,2510.371,LTCEUR,0.671999999999997,150.55508392454527,148.5152362803334,2.039847644211875,-2.848033672953136,-5.2076226015589,2.3595889286057643,68.85005171379221,-33.75000000000057
2021-02-24 05:00:00,2021-02-24 05:00:00,151.781,152.87,148.487,150.391,2305.933,LTCEUR,-1.3900000000000148,150.47304196227265,149.0511687716667,1.421873190605936,-2.3502335537742454,-4.636144792001969,2.2859112382277234,62.69423908234762,-93.50000000000023
2021-02-24 06:00:00,2021-02-24 06:00:00,150.346,151.679,147.799,149.759,2074.115,LTCEUR,-0.5870000000000175,150.11602098113633,149.2534062654762,0.8626147156601291,-1.9838518814400743,-4.10568620988959,2.1218343284495154,59.43866311342675,-64.79999999999961
2021-02-24 07:00:00,2021-02-24 07:00:00,149.755,151.621,147.01,149.095,3131.254,LTCEUR,-0.6599999999999966,149.60551049056818,149.208147332483,0.3973631580851702,-1.7271613759766637,-3.6299812431070047,1.902819867130341,55.78641006446547,-6.550000000000011
2021-02-24 08:00:00,2021-02-24 08:00:00,149.222,150.689,146.445,149.628,3316.777,LTCEUR,0.4059999999999775,149.61675524528408,149.32810523748785,0.2886500077962353,-1.4638493118560234,-3.1967548568568085,1.732905545000785,58.25708160201057,278.4499999999994
2021-02-24 09:00:00,2021-02-24 09:00:00,150.11,154.953,148.74,154.664,3372.361,LTCEUR,4.553999999999974,152.14037762264203,150.8526465982056,1.2877310244364253,-0.8391364489482953,-2.725231175275106,1.8860947263268106,74.44691389385933,251.400000000001
2021-02-24 10:00:00,2021-02-24 10:00:00,154.753,157.034,153.212,154.656,4485.077,LTCEUR,-0.09699999999997999,153.398188811321,151.9393189987183,1.4588698126026998,-0.34076441733745355,-2.2483378236875757,1.9075734063501222,74.39191286940975,-103.19999999999965
2021-02-24 11:00:00,2021-02-24 11:00:00,154.62,155.212,152.6,152.6,2913.491,LTCEUR,-2.0200000000000102,152.99909440566051,152.1280849990845,0.8710094065760074,-0.11043004023679259,-1.8207562669974193,1.7103262267606267,60.58740831573379,-57.850000000000534
2021-02-24 12:00:00,2021-02-24 12:00:00,152.626,155.288,152.306,153.499,2100.762,LTCEUR,0.8729999999999905,153.24904720283024,152.51977499934605,0.7292722034841859,0.14300492803567977,-1.4280040279907997,1.5710089560264795,64.0844106562748,75.40000000000049
2021-02-24 13:00:00,2021-02-24 13:00:00,153.442,156.24,153.442,154.108,2053.498,LTCEUR,0.6659999999999968,153.67852360141512,152.97355357096149,0.7049700304536373,0.3885165991547126,-1.0646999025616974,1.45321650171641,66.50063030432949,-130.34999999999997
2021-02-24 14:00:00,2021-02-24 14:00:00,154.196,154.749,149.61,150.892,3712.84,LTCEUR,-3.304000000000002,152.28526180070756,152.3788239792582,-0.0935621785506271,0.3198944998986235,-0.7877810220696333,1.1076755219682568,46.62399429471049,-203.5499999999999
2021-02-24 15:00:00,2021-02-24 15:00:00,150.963,152.137,147.7,150.037,2326.856,LTCEUR,-0.9259999999999877,151.16113090035378,151.70973141375583,-0.5486005134020502,0.19428009734872376,-0.591368798185962,0.7856488955346858,42.5651481161508,14.499999999999602
2021-02-24 16:00:00,2021-02-24 16:00:00,150.057,151.466,146.563,151.182,2732.691,LTCEUR,1.125,151.1715654501769,151.5589510098256,-0.3873855596486919,0.18498926803070503,-0.4360971849426286,0.6210864529733336,49.6140744865702,-9.05000000000058
2021-02-24 17:00:00,2021-02-24 17:00:00,151.224,152.437,149.659,149.856,2208.619,LTCEUR,-1.367999999999995,150.51378272508845,151.07239357844685,-0.5586108533584024,0.06982421066726374,-0.3349129058206502,0.40473711648791394,42.38505346711197,24.099999999999966
2021-02-24 18:00:00,2021-02-24 18:00:00,149.804,152.0,149.79,151.664,1268.786,LTCEUR,1.8599999999999852,151.08889136254422,151.2414239846049,-0.15253262206067575,0.12302737984785495,-0.24332484868694917,0.3663522285348041,53.47639546337061,4.749999999999943
2021-02-24 19:00:00,2021-02-24 19:00:00,151.705,151.705,149.609,149.951,1983.481,LTCEUR,-1.754000000000019,150.5199456812721,150.87273141757493,-0.3527857363028204,0.02665918043265947,-0.18932804286302746,0.21598722329568693,43.87369597770985,-213.04999999999978
2021-02-24 20:00:00,2021-02-24 20:00:00,149.925,150.884,147.181,147.403,1638.395,LTCEUR,-2.52200000000002,148.96147284063605,149.8813795839821,-0.919906743346047,-0.2524060376895818,-0.20194364182833835,-0.05046239586124346,33.22457143732808,-132.50000000000028
2021-02-24 21:00:00,2021-02-24 21:00:00,147.408,148.787,145.607,147.301,1759.569,LTCEUR,-0.10699999999999932,148.13123642031803,149.14412827427293,-1.0128918539548977,-0.4763072081535995,-0.2568163550933906,-0.21949085306020888,32.84164392808225,-78.94999999999897
2021-02-24 22:00:00,2021-02-24 22:00:00,147.16,147.363,142.655,145.824,1412.916,LTCEUR,-1.3359999999999843,146.97761821015902,148.19552019590924,-1.217901985750217,-0.7641237125552607,-0.3582778265857647,-0.405845885969496,27.36185021342976,-52.69999999999868
2021-02-24 23:00:00,2021-02-24 23:00:00,145.607,146.313,141.881,146.247,1004.923,LTCEUR,0.6400000000000148,146.61230910507953,147.63880013993517,-1.0264910348556384,-0.9471694215587831,-0.47605614558036835,-0.4711132759784148,31.30124328972424,186.59999999999997
