date,date,open,high,low,close,volume,pair,close_open_diff,ema_short,ema_long,ema_sort_ema_long_diff,macd,signal,momentum,rsi,gradient
2021-07-23 00:00:00,2021-07-23 00:00:00,102.13,103.04,102.02,102.56,371.719,LTCEUR,0.4300000000000068,102.61465079623866,102.75009565278313,-0.13544485654446703,1.0315507747694141,1.1524994897756193,-0.12094871500620519,49.838754555170006,69.50000000000003
2021-07-23 01:00:00,2021-07-23 01:00:00,102.48,103.82,102.4,103.62,384.1537,LTCEUR,1.1400000000000006,103.11732539811933,102.99863975198795,0.11868564613138233,1.0439343927728402,1.1307864703750636,-0.08685207760222347,65.38014991585642,36.999999999999744
2021-07-23 02:00:00,2021-07-23 02:00:00,103.62,103.9,102.63,103.3,513.5334,LTCEUR,-0.3200000000000074,103.20866269905966,103.0847426799914,0.12392001906826522,1.0162129038265562,1.1078717570653622,-0.09165885323880607,58.782420205444105,23.99999999999949
2021-07-23 03:00:00,2021-07-23 03:00:00,103.31,104.48,103.31,104.1,501.9208,LTCEUR,0.789999999999992,103.65433134952983,103.37481619999386,0.27951514953596757,1.0467306785401291,1.0956435413603156,-0.048912862820186476,68.36085591705097,53.000000000000114
2021-07-23 04:00:00,2021-07-23 04:00:00,104.14,106.0,103.9,104.36,3211.2523,LTCEUR,0.21999999999999886,104.0071656747649,103.6562972857099,0.35086838905500883,1.0794528019933267,1.0924053934869178,-0.01295259149359107,70.99005578621555,-26.999999999999602
2021-07-23 05:00:00,2021-07-23 05:00:00,104.34,104.34,103.47,103.56,481.8854,LTCEUR,-0.7800000000000011,103.78358283738245,103.62878377550707,0.15479906187538006,1.0289706730521573,1.0797184493999656,-0.05074777634780836,54.3223651422532,-8.99999999999963
2021-07-23 06:00:00,2021-07-23 06:00:00,103.59,104.42,103.48,104.18,670.4961,LTCEUR,0.5900000000000034,103.98179141869123,103.7862741253622,0.19551729332903278,1.0271516754708898,1.0692050946141505,-0.04205341914326066,62.508728727692755,35.00000000000014
2021-07-23 07:00:00,2021-07-23 07:00:00,104.18,105.0,104.01,104.26,478.6375,LTCEUR,0.0799999999999983,104.12089570934562,103.92162437525872,0.19927133408690167,1.020402869098433,1.059444649511007,-0.039041780412574,63.521029430720084,-12.000000000000455
2021-07-23 08:00:00,2021-07-23 08:00:00,104.0,104.45,103.72,103.94,319.6326,LTCEUR,-0.060000000000002274,104.03044785467281,103.92687455375622,0.10357330091659378,0.9779597544864203,1.0431476705060898,-0.06518791601966956,56.23297408160137,-34.5000000000006
2021-07-23 09:00:00,2021-07-23 09:00:00,103.83,103.93,102.95,103.57,525.0169,LTCEUR,-0.2600000000000051,103.8002239273364,103.82491039554016,-0.024686468203753975,0.9040460919899544,1.0153273548028627,-0.11128126281290829,48.51040155133646,-69.50000000000003
2021-07-23 10:00:00,2021-07-23 10:00:00,103.7,103.79,102.5,102.55,680.9836,LTCEUR,-1.1500000000000057,103.1751119636682,103.46065028252869,-0.28553831886048897,0.7544664864216344,0.9631551811266171,-0.20868869470498275,33.35634044789312,-41.99999999999946
2021-07-23 11:00:00,2021-07-23 11:00:00,102.5,103.26,102.44,102.73,653.6645,LTCEUR,0.23000000000000398,102.95255598183411,103.25189305894907,-0.2993370771149557,0.6430355534388212,0.899131255589058,-0.2560957021502368,37.49145132859287,-5.499999999999972
2021-07-23 12:00:00,2021-07-23 12:00:00,102.68,102.83,102.2,102.44,3530.4085,LTCEUR,-0.2400000000000091,102.69627799091705,103.01992361353504,-0.32364562261798824,0.5252701722877333,0.8243590389287931,-0.2990888666410598,33.475717201081096,-3.9999999999999147
2021-07-23 13:00:00,2021-07-23 13:00:00,102.44,103.3,102.44,102.65,564.4355,LTCEUR,0.21000000000000796,102.67313899545853,102.91423115252502,-0.24109215706648968,0.4437699999068059,0.7482412311243958,-0.3044712312175899,39.1402656300557,28.50000000000037
2021-07-23 14:00:00,2021-07-23 14:00:00,102.52,103.19,102.27,103.01,732.4524,LTCEUR,0.4900000000000091,102.84156949772927,102.94159368037501,-0.10002418264573976,0.40357732923905587,0.6793084507473278,-0.27573112150827195,48.21179309104579,57.99999999999983
2021-07-23 15:00:00,2021-07-23 15:00:00,103.05,103.84,102.93,103.81,435.4644,LTCEUR,0.7600000000000051,103.32578474886463,103.18970977169643,0.1360749771682066,0.43130583707213077,0.6297079280122884,-0.1984020909401576,62.941811398720304,12.5
2021-07-23 16:00:00,2021-07-23 16:00:00,103.77,103.87,103.18,103.26,582.1217,LTCEUR,-0.5099999999999909,103.29289237443231,103.20979269406888,0.08309968036343207,0.4042406413621933,0.5846144706822695,-0.18037382932007617,50.97934765463563,-84.49999999999989
2021-07-23 17:00:00,2021-07-23 17:00:00,103.19,103.19,102.08,102.12,688.5522,LTCEUR,-1.0699999999999932,102.70644618721616,102.89842335290635,-0.19197716569019008,0.28748881405255133,0.5251893393563258,-0.2377005253037745,34.61575618662654,-101.00000000000051
2021-07-23 18:00:00,2021-07-23 18:00:00,102.14,102.18,100.7,101.24,1208.5793,LTCEUR,-0.9000000000000057,101.97322309360808,102.42458810921882,-0.45136501561073317,0.1225409286783048,0.44465965722072165,-0.32211872854241685,26.682240063307276,-43.50000000000023
2021-07-23 19:00:00,2021-07-23 19:00:00,101.17,101.33,100.71,101.25,502.5704,LTCEUR,0.0799999999999983,101.61161154680404,102.08899150658488,-0.4773799597808335,-0.00729050206992099,0.35426962536259315,-0.36156012743251414,26.91066550156465,7.000000000000028
2021-07-23 20:00:00,2021-07-23 20:00:00,101.24,101.72,100.97,101.38,824.2602,LTCEUR,0.14000000000000057,101.49580577340203,101.88642250470349,-0.39061673130146346,-0.09855683098012946,0.26370433409404864,-0.3622611650741781,30.2983498491063,46.999999999999886
2021-07-23 21:00:00,2021-07-23 21:00:00,101.5,102.25,101.47,102.19,363.0936,LTCEUR,0.6899999999999977,101.84290288670101,101.97315893193105,-0.1302560452300412,-0.10432325014365063,0.1900988172465088,-0.2944220673901594,48.237046658721276,85.99999999999994
2021-07-23 22:00:00,2021-07-23 22:00:00,102.2,103.19,102.1,103.1,555.971,LTCEUR,0.8999999999999915,102.4714514433505,102.2951135228079,0.17633792054260766,-0.035059638375528834,0.14506712612210126,-0.1801267644976301,61.57067180968348,70.49999999999983
2021-07-23 23:00:00,2021-07-23 23:00:00,103.1,103.67,102.99,103.6,421.752,LTCEUR,0.5,103.03572572167525,102.66793823057706,0.3677874910981842,0.05949230404536365,0.12795216170675375,-0.0684598576613901,67.14991783543184,100.0
