date,date,open,high,low,close,volume,pair,close_open_diff,ema_short,ema_long,ema_sort_ema_long_diff,macd,signal,momentum,rsi,gradient
2021-01-23 00:00:00,2021-01-23 00:00:00,112.67,114.141,112.397,113.36,1359.888,LTCEUR,0.6899999999999977,113.46821196081135,113.91355819588672,-0.44534623507537674,0.33630344671296086,0.42278307899293915,-0.08647963227997829,42.21278158618727,0.3500000000002501
2021-01-23 01:00:00,2021-01-23 01:00:00,113.182,113.238,111.1,112.65,1295.667,LTCEUR,-0.5319999999999965,113.05910598040568,113.55254156849051,-0.4934355880848358,0.20068028766189627,0.3783625207267306,-0.17768223306483433,36.46932430272701,-26.950000000000074
2021-01-23 02:00:00,2021-01-23 02:00:00,112.768,113.206,111.457,112.821,635.905,LTCEUR,0.05299999999999727,112.94005299020284,113.34352969177894,-0.4034767015760963,0.10577689766276421,0.32384539611393737,-0.21806849845117315,38.87303004470382,-37.45000000000047
2021-01-23 03:00:00,2021-01-23 03:00:00,112.701,113.263,111.68,111.901,688.715,LTCEUR,-0.7999999999999972,112.42052649510143,112.93137835127067,-0.5108518561692392,-0.043173358292818875,0.2504416452325861,-0.293615003525405,31.241626414153487,-1.2000000000000455
2021-01-23 04:00:00,2021-01-23 04:00:00,112.02,112.929,111.719,112.797,276.786,LTCEUR,0.777000000000001,112.60876324755071,112.89298453662191,-0.2842212890711977,-0.08790448921764948,0.182772418342539,-0.2706769075601885,44.0731401735598,214.25000000000054
2021-01-23 05:00:00,2021-01-23 05:00:00,112.833,116.847,112.692,116.186,672.952,LTCEUR,3.3530000000000086,114.39738162377536,113.83384609758708,0.5635355261882751,0.14839909184371436,0.17589775304277405,-0.027498661199059693,69.72060034692268,173.10000000000016
2021-01-23 06:00:00,2021-01-23 06:00:00,116.05,116.747,114.758,116.259,333.82,LTCEUR,0.20900000000000318,115.32819081188768,114.52674721256221,0.8014435993254665,0.3376694292354614,0.20825208828131153,0.12941734095414986,70.07532058931218,-55.350000000000676
2021-01-23 07:00:00,2021-01-23 07:00:00,116.3,116.53,115.079,115.079,869.789,LTCEUR,-1.2210000000000036,115.20359540594384,114.68453372325871,0.519061682685134,0.3879790163174732,0.2441974738885439,0.14378154242892932,57.10007019100082,-2.949999999999875
2021-01-23 08:00:00,2021-01-23 08:00:00,115.173,116.2,115.068,116.2,509.929,LTCEUR,1.027000000000001,115.70179770297193,115.11752408804193,0.5842736149299981,0.5123984476060315,0.2978376686320414,0.21456077897399006,64.57724936340219,101.8500000000003
2021-01-23 09:00:00,2021-01-23 09:00:00,116.2,117.289,115.542,117.116,976.554,LTCEUR,0.9159999999999968,116.40889885148596,115.68851720574423,0.7203816457417247,0.6771099855374416,0.37369213201312146,0.30341785352432016,69.74752019173114,-2.850000000000108
2021-01-23 10:00:00,2021-01-23 10:00:00,117.133,118.188,115.492,116.143,1961.3,LTCEUR,-0.9899999999999949,116.27594942574298,115.81836943267444,0.4575799930685349,0.7208229000359978,0.4431182856176967,0.2777046144183011,58.80656082793199,-130.19999999999996
2021-01-23 11:00:00,2021-01-23 11:00:00,116.173,116.56,113.9,114.512,1274.583,LTCEUR,-1.6610000000000014,115.39397471287148,115.44512102333888,-0.051146310467402145,0.6167481418791851,0.47784425686999443,0.1389038850091907,44.701595451571215,-168.75
2021-01-23 12:00:00,2021-01-23 12:00:00,114.556,114.981,112.035,112.768,1204.836,LTCEUR,-1.7879999999999967,114.08098735643574,114.68022930238493,-0.5992419459491884,0.3890571132163956,0.4600868281392747,-0.07102971492287913,34.18165845219596,-69.7499999999998
2021-01-23 13:00:00,2021-01-23 13:00:00,112.823,113.767,112.5,113.117,1207.924,LTCEUR,0.29400000000001114,113.59899367821788,114.23359235884638,-0.6345986806284998,0.23407346268895424,0.41488415504921067,-0.18081069236025643,37.70230391823577,64.99999999999986
2021-01-23 14:00:00,2021-01-23 14:00:00,113.181,114.638,112.452,114.068,810.171,LTCEUR,0.8870000000000005,113.83349683910893,114.18628025631884,-0.35278341720990625,0.18584326968097287,0.36907597797556313,-0.18323270829459026,46.97656928310434,40.95000000000013
2021-01-23 15:00:00,2021-01-23 15:00:00,114.068,114.462,113.283,113.936,424.18,LTCEUR,-0.1319999999999908,113.88474841955447,114.11477161165632,-0.23002319210185362,0.13540829487777728,0.322342441356006,-0.1869341464782287,45.839921119883606,6.94999999999979
2021-01-23 16:00:00,2021-01-23 16:00:00,113.876,114.894,113.67,114.207,301.506,LTCEUR,0.33099999999998886,114.04587420977722,114.14112257975452,-0.09524836997729835,0.11596883262596691,0.2810677196099982,-0.1650988869840313,48.886794995468236,3.399999999999892
2021-01-23 17:00:00,2021-01-23 17:00:00,114.364,115.05,113.86,114.004,503.505,LTCEUR,-0.35999999999999943,114.02493710488861,114.10194469982466,-0.07700759493604892,0.08322317037595894,0.24149880976319038,-0.15827563938723144,46.533641682190066,31.65000000000049
2021-01-23 18:00:00,2021-01-23 18:00:00,114.005,115.05,113.982,114.84,323.83,LTCEUR,0.835000000000008,114.4324685524443,114.31281764273189,0.1196509097124192,0.12330878348065255,0.21786080450668283,-0.09455202102603028,56.807976106502856,30.5499999999995
2021-01-23 19:00:00,2021-01-23 19:00:00,114.818,115.215,114.087,114.615,300.288,LTCEUR,-0.20300000000000296,114.52373427622214,114.3991554590942,0.12457881712794006,0.13536094436346957,0.20136083247804018,-0.06599988811457061,53.488345613261124,1.3999999999995794
2021-01-23 20:00:00,2021-01-23 20:00:00,114.556,115.029,114.552,114.868,339.012,LTCEUR,0.3119999999999976,114.69586713811107,114.53311104221015,0.16275609590091733,0.16344328187149415,0.19377732235673098,-0.03033404048523683,56.88773212190585,0.7500000000000284
2021-01-23 21:00:00,2021-01-23 21:00:00,115.005,115.031,114.206,114.63,300.151,LTCEUR,-0.375,114.66293356905553,114.56079360157867,0.10213996747685883,0.16459675676385643,0.1879412092381561,-0.02334445247429967,52.551970045819154,-32.39999999999981
2021-01-23 22:00:00,2021-01-23 22:00:00,114.587,114.835,113.209,114.22,753.613,LTCEUR,-0.36700000000000443,114.44146678452776,114.46342400112762,-0.021957216599858498,0.13091817718648713,0.17653660282782233,-0.0456184256413352,45.3990733061197,-85.04999999999967
2021-01-23 23:00:00,2021-01-23 23:00:00,114.303,114.43,112.841,112.929,424.705,LTCEUR,-1.3739999999999952,113.68523339226388,114.0250171436626,-0.33978375139871275,5.412564084394944e-05,0.14124010739042667,-0.14118598174958272,29.980235833352594,-46.24999999999986
