date,date,open,high,low,close,volume,pair,close_open_diff,ema_short,ema_long,ema_sort_ema_long_diff,macd,signal,momentum,rsi,gradient
2021-07-18 00:00:00,2021-07-18 00:00:00,103.73,103.73,102.81,103.06,623.338,LTCEUR,-0.6700000000000017,103.44682579992698,103.48522467982589,-0.03839887989890656,-0.24587412429079336,-0.47665578033132905,0.2307816560405357,43.937515876596365,-60.00000000000014
2021-07-18 01:00:00,2021-07-18 01:00:00,103.04,103.04,102.45,102.58,625.2078,LTCEUR,-0.46000000000000796,103.0134128999635,103.22658905701849,-0.21317615705498838,-0.2894140316232239,-0.439207430589708,0.14979339896648414,36.92869594431797,82.49999999999957
2021-07-18 02:00:00,2021-07-18 02:00:00,102.57,105.17,102.43,104.71,507.5393,LTCEUR,2.1400000000000006,103.86170644998174,103.6504207550132,0.211285694968538,-0.15031379911590648,-0.38142870429494774,0.23111490517904126,65.8969469832548,146.00000000000009
2021-07-18 03:00:00,2021-07-18 03:00:00,105.28,105.83,104.61,105.5,927.7458,LTCEUR,0.21999999999999886,104.68085322499087,104.17887196786657,0.5019812571242994,0.023400785317079453,-0.3004628063725423,0.32386359168962175,71.68503612129135,29.000000000000625
2021-07-18 04:00:00,2021-07-18 04:00:00,105.59,105.75,105.18,105.29,483.2822,LTCEUR,-0.29999999999999716,104.98542661249544,104.4963371199047,0.4890894925907503,0.14248314308859733,-0.2118736164803144,0.3543567595689117,68.00335846634326,-29.50000000000017
2021-07-18 05:00:00,2021-07-18 05:00:00,105.29,105.49,104.71,104.91,334.7314,LTCEUR,-0.38000000000000966,104.94771330624772,104.61452651421764,0.3331867920300766,0.20384415680601364,-0.12873006182304877,0.33257421862906245,61.18036628004085,-30.49999999999997
2021-07-18 06:00:00,2021-07-18 06:00:00,104.97,104.98,104.6,104.68,974.9422,LTCEUR,-0.28999999999999204,104.81385665312386,104.63323322444117,0.18062342868269354,0.23124843642159476,-0.056734362174120076,0.28798279859571485,57.024768294727465,-28.999999999999915
2021-07-18 07:00:00,2021-07-18 07:00:00,104.68,104.77,104.33,104.33,709.7309,LTCEUR,-0.3500000000000085,104.57192832656193,104.54659516031512,0.025333166246809924,0.22216348812699493,-0.0009547921138970752,0.223118280240892,50.732217184834894,-43.50000000000023
2021-07-18 08:00:00,2021-07-18 08:00:00,104.45,104.46,103.64,103.81,1032.7711,LTCEUR,-0.6400000000000006,104.19096416328097,104.33613940022508,-0.14517523694411238,0.1710323920200807,0.03344264471289848,0.1375897473071822,42.39221961457324,-34.499999999999886
2021-07-18 09:00:00,2021-07-18 09:00:00,104.01,104.06,103.51,103.64,702.7767,LTCEUR,-0.37000000000000455,103.91548208164048,104.13724242873221,-0.2217603470917311,0.11546207578794565,0.04984653092790792,0.06561554486003773,39.82387986078891,10.000000000000142
2021-07-18 10:00:00,2021-07-18 10:00:00,103.62,104.19,103.59,104.01,575.283,LTCEUR,0.39000000000000057,103.96274104082025,104.10088744909444,-0.13814640827419566,0.100123941124167,0.05990201296715974,0.040221928157007265,48.044946404325565,14.000000000000057
2021-07-18 11:00:00,2021-07-18 11:00:00,104.0,104.28,103.43,103.92,397.9605,LTCEUR,-0.0799999999999983,103.94137052041012,104.04920532078175,-0.10783480037163429,0.07978638329785781,0.06387888703329936,0.01590749626455845,46.2025137723515,-12.000000000000455
2021-07-18 12:00:00,2021-07-18 12:00:00,103.71,103.99,103.27,103.77,502.701,LTCEUR,0.060000000000002274,103.85568526020506,103.96943237198697,-0.11374711178190466,0.05097734074676907,0.061298577775993304,-0.010321237029224231,42.91137404815183,6.499999999999773
2021-07-18 13:00:00,2021-07-18 13:00:00,103.75,104.13,103.45,104.05,498.3313,LTCEUR,0.29999999999999716,103.95284263010254,103.99245169427641,-0.039609064173873776,0.0501613975429791,0.05907114172939047,-0.00890974418641137,50.76706610479365,1.0000000000005116
2021-07-18 14:00:00,2021-07-18 14:00:00,103.91,104.3,103.71,103.79,388.1931,LTCEUR,-0.11999999999999034,103.87142131505126,103.93460835305459,-0.0631870380033206,0.028209745203341186,0.05289886242418062,-0.024689117220839434,44.01775682011812,-46.000000000000085
2021-07-18 15:00:00,2021-07-18 15:00:00,103.7,103.84,102.99,103.13,468.2589,LTCEUR,-0.5700000000000074,103.50071065752563,103.70472025218184,-0.20400959465621327,-0.04195989403943656,0.03392711113145718,-0.07588700517089375,31.329903378354572,-160.5000000000004
2021-07-18 16:00:00,2021-07-18 16:00:00,103.14,103.4,99.7,100.58,2445.8486,LTCEUR,-2.5600000000000023,102.04035532876281,102.81194303727274,-0.7715877085099265,-0.2998767351095353,-0.03283365811674131,-0.26704307699279395,13.409455122529678,-95.49999999999983
2021-07-18 17:00:00,2021-07-18 17:00:00,100.2,101.73,100.0,101.22,723.8072,LTCEUR,1.019999999999996,101.6301776643814,102.35710216948053,-0.7269245050991202,-0.44747680449370364,-0.11576228739213379,-0.33171451710156985,26.13432934111951,49.499999999999744
2021-07-18 18:00:00,2021-07-18 18:00:00,101.19,101.75,100.73,101.57,948.6807,LTCEUR,0.37999999999999545,101.60008883219069,102.13221583534323,-0.5321270031525387,-0.5300982058118677,-0.1986294710760806,-0.33146873473578714,32.631294591455884,28.000000000000114
2021-07-18 19:00:00,2021-07-18 19:00:00,101.54,102.15,101.16,101.78,868.8505,LTCEUR,0.23999999999999488,101.69004441609535,102.03158273953088,-0.3415383234355289,-0.5720369309948836,-0.2733109630598412,-0.2987259679350424,36.64357309928232,29.000000000000625
2021-07-18 20:00:00,2021-07-18 20:00:00,101.95,102.41,101.9,102.15,831.6151,LTCEUR,0.20000000000000284,101.92002220804767,102.06541624252205,-0.1453940344743785,-0.5688602976654096,-0.3324208299809549,-0.23643946768445467,43.7292196217492,17.499999999999716
2021-07-18 21:00:00,2021-07-18 21:00:00,102.13,102.56,102.03,102.13,1225.0299,LTCEUR,0.0,102.02501110402383,102.0838687446586,-0.05885764063476984,-0.5614841855392996,-0.3782335010926239,-0.1832506844466757,43.414277389672094,-10.000000000000142
2021-07-18 22:00:00,2021-07-18 22:00:00,102.14,102.45,101.85,101.95,1108.5061,LTCEUR,-0.18999999999999773,101.98750555201192,102.045620531899,-0.0581149798870797,-0.5636654744941723,-0.4153198957729336,-0.14834557872123866,40.28110490352628,98.49999999999994
2021-07-18 23:00:00,2021-07-18 23:00:00,102.05,104.46,101.15,104.1,1486.1796,LTCEUR,2.049999999999997,103.04375277600596,102.63258609421356,0.4111666817923947,-0.3874409518862336,-0.40974410699559366,0.02230315510936004,70.64580867941507,-50.0
