date,date,open,high,low,close,volume,pair,close_open_diff,ema_short,ema_long,ema_sort_ema_long_diff,macd,signal,momentum,rsi,gradient
2021-08-19 00:00:00,2021-08-19 00:00:00,143.43,145.66,143.2,145.65,354.3388,LTCEUR,2.219999999999999,144.99221917163229,145.6171543439449,-0.624935172312604,-1.2819516580906907,-1.2206345191543082,-0.061317138936382465,45.833585108437866,40.500000000000114
2021-08-19 01:00:00,2021-08-19 01:00:00,145.51,146.7,144.31,144.31,342.9397,LTCEUR,-1.1999999999999886,144.65110958581613,145.24368167424635,-0.5925720884302166,-1.3516663531899837,-1.2468408859614435,-0.10482546722854025,38.948350425881145,42.99999999999926
2021-08-19 02:00:00,2021-08-19 02:00:00,144.84,146.66,142.91,146.51,574.2697,LTCEUR,1.6699999999999875,145.58055479290806,145.60548691017596,-0.024932117267894682,-1.2153839478895634,-1.2405494983470675,0.025165550457504127,52.89081718788159,65.50000000000011
2021-08-19 03:00:00,2021-08-19 03:00:00,146.33,146.69,144.54,145.62,548.6785,LTCEUR,-0.710000000000008,145.60027739645403,145.60963350726854,-0.009356110814508156,-1.1657566052993218,-1.2255909197375185,0.059834314438196756,47.61232179207858,-87.99999999999955
2021-08-19 04:00:00,2021-08-19 04:00:00,145.41,145.66,144.0,144.75,407.9958,LTCEUR,-0.6599999999999966,145.17513869822702,145.36402393376324,-0.18888523553621894,-1.1829915180243518,-1.2170710393948854,0.034079521370533605,42.62255918149064,-100.0
2021-08-19 05:00:00,2021-08-19 05:00:00,144.57,144.73,143.07,143.62,375.8522,LTCEUR,-0.9499999999999886,144.3975693491135,144.86573138125945,-0.46816203214595475,-1.2731557200963834,-1.228287975535185,-0.044867744561198464,36.63799344469286,-34.00000000000034
2021-08-19 06:00:00,2021-08-19 06:00:00,143.95,144.6,142.75,144.07,342.6192,LTCEUR,0.12000000000000455,144.23378467455674,144.63837955804246,-0.40459488348571426,-1.2933908559637075,-1.2413085516208895,-0.05208230434281802,40.62211998359504,86.49999999999949
2021-08-19 07:00:00,2021-08-19 07:00:00,143.88,145.83,143.33,145.35,327.2962,LTCEUR,1.4699999999999989,144.79189233727837,144.84169968431604,-0.04980734703767098,-1.1923968358487684,-1.2315262084664653,0.03912937261769689,51.1142802758933,5.500000000000682
2021-08-19 08:00:00,2021-08-19 08:00:00,145.33,145.33,143.59,144.18,387.522,LTCEUR,-1.1500000000000057,144.4859461686392,144.65264263165432,-0.1666964630151142,-1.1930152322162826,-1.2238240132164289,0.03080878100014628,42.815754156592256,-62.999999999999545
2021-08-19 09:00:00,2021-08-19 09:00:00,144.06,144.84,142.39,144.09,621.8629,LTCEUR,0.030000000000001137,144.28797308431962,144.49188759403881,-0.20391450971919767,-1.1870836027923417,-1.2164759311316116,0.029392328339269858,42.18357525947102,41.499999999999204
2021-08-19 10:00:00,2021-08-19 10:00:00,144.15,145.4,143.0,145.01,475.8785,LTCEUR,0.8599999999999852,144.6489865421598,144.63991971002773,0.009066832132077707,-1.0955179831263706,-1.1922843415305633,0.09676635840419268,51.049431765372226,50.499999999999545
2021-08-19 11:00:00,2021-08-19 11:00:00,145.22,145.6,144.75,145.1,584.6856,LTCEUR,-0.12000000000000455,144.8744932710799,144.77137122144836,0.10312204963153704,-1.0041145149194222,-1.154650376208335,0.15053586128891294,51.91502683077969,-112.99999999999955
2021-08-19 12:00:00,2021-08-19 12:00:00,145.16,145.36,142.31,142.75,568.0128,LTCEUR,-2.4099999999999966,143.81224663553996,144.19383658674883,-0.3815899512088663,-1.1085235980630443,-1.145425020579277,0.03690142251623274,33.405875905911444,-171.9999999999999
2021-08-19 13:00:00,2021-08-19 13:00:00,142.75,144.0,141.57,141.66,795.7043,LTCEUR,-1.0900000000000034,142.73612331776997,143.46988327624916,-0.7337599584791974,-1.2646444056762505,-1.1692688975986718,-0.09537550807757866,27.874423396768393,33.499999999999375
2021-08-19 14:00:00,2021-08-19 14:00:00,141.84,143.74,141.07,143.42,1169.8605,LTCEUR,1.579999999999984,143.07806165888496,143.45563091160653,-0.37756925272157105,-1.2321505152800398,-1.1818452211349455,-0.050305294145094326,45.39401523745845,153.49999999999966
2021-08-19 15:00:00,2021-08-19 15:00:00,143.47,144.85,142.46,144.73,490.8458,LTCEUR,1.259999999999991,143.9040308294425,143.81973636543324,0.0842944640092469,-1.0881493132285414,-1.1631060395536648,0.0749567263251234,55.129092689160274,178.50000000000108
2021-08-19 16:00:00,2021-08-19 16:00:00,144.76,147.12,144.76,146.99,1062.9428,LTCEUR,2.230000000000018,145.44701541472125,144.72552597530947,0.7214894394117835,-0.7826423963707896,-1.0870133109170896,0.30437091454630005,67.22544364622424,159.4999999999999
2021-08-19 17:00:00,2021-08-19 17:00:00,147.14,148.03,146.7,147.92,546.511,LTCEUR,0.7800000000000011,146.6835077073606,145.63823283950677,1.0452748678538342,-0.46017808947229355,-0.9616462666281305,0.5014681771558369,71.07584470065179,-13.500000000000512
2021-08-19 18:00:00,2021-08-19 18:00:00,148.03,148.45,146.69,146.72,417.2765,LTCEUR,-1.3100000000000023,146.70175385368032,145.94730917107626,0.7544446826040598,-0.29801741495671763,-0.828920496293848,0.5309030813371304,60.13659525561826,-26.999999999999602
2021-08-19 19:00:00,2021-08-19 19:00:00,146.87,147.53,145.81,147.38,1612.4996,LTCEUR,0.5099999999999909,147.04087692684016,146.35664940791162,0.6842275189285374,-0.11492267093501596,-0.6861209312220816,0.5711982602870657,63.81252891838668,175.0
2021-08-19 20:00:00,2021-08-19 20:00:00,147.66,150.96,147.14,150.22,1188.7669,LTCEUR,2.5600000000000023,148.6304384634201,147.460463862794,1.169974600626091,0.2563899937080123,-0.49761874623606284,0.7540087399440751,75.48532806068766,114.00000000000006
2021-08-19 21:00:00,2021-08-19 21:00:00,150.63,150.74,149.04,149.66,711.283,LTCEUR,-0.9699999999999989,149.14521923171003,148.08890275913856,1.056316472571467,0.49971028659120975,-0.29815293967060835,0.7978632262618182,70.13245719048231,-43.99999999999977
2021-08-19 22:00:00,2021-08-19 22:00:00,149.65,150.24,148.61,149.34,410.8522,LTCEUR,-0.3100000000000023,149.24260961585503,148.44635911367038,0.7962505021846482,0.6591240740456783,-0.10669753692735104,0.7658216109730294,66.88034212417335,-12.5
2021-08-19 23:00:00,2021-08-19 23:00:00,149.29,149.67,148.7,149.41,376.0872,LTCEUR,0.12000000000000455,149.3263048079275,148.72168508119313,0.60461972673437,0.7820935761932333,0.07106068569676584,0.7110328904964675,67.27863955743658,32.99999999999983
