date,date,open,high,low,close,volume,pair,close_open_diff,ema_short,ema_long,ema_sort_ema_long_diff,macd,signal,momentum,rsi,gradient
2021-09-10 00:00:00,2021-09-10 00:00:00,155.3,155.4,154.2,155.0,366.96,LTCEUR,-0.30000000000001137,155.17773985711486,155.84503885849267,-0.6672990013778133,-0.22842227293674,0.0721495413402677,-0.3005718142770077,34.340570292676674,-45.000000000000284
2021-09-10 01:00:00,2021-09-10 01:00:00,155.1,155.8,153.6,154.2,219.711,LTCEUR,-0.9000000000000057,154.68886992855744,155.37502775606617,-0.6861578275087368,-0.3911453668296758,-0.020509440293721003,-0.37063592653595484,29.154544046262785,75.0
2021-09-10 02:00:00,2021-09-10 02:00:00,154.1,157.2,153.4,156.5,298.445,LTCEUR,2.4000000000000057,155.59443496427872,155.69644839719012,-0.10201343291140574,-0.330701689773349,-0.08254789018964662,-0.2481537995837024,53.42210612654711,250.0
2021-09-10 03:00:00,2021-09-10 03:00:00,156.6,160.3,156.6,159.2,320.376,LTCEUR,2.5999999999999943,157.39721748213935,156.6974631408501,0.699754341289264,-0.06419223692554965,-0.07887675953682723,0.014684522611277576,68.58232253218571,70.00000000000028
2021-09-10 04:00:00,2021-09-10 04:00:00,159.0,159.5,157.9,157.9,126.422,LTCEUR,-1.0999999999999943,157.64860874106967,157.04104510060722,0.6075636404624447,0.04163929720789383,-0.05477354818788302,0.09641284539577685,57.726523572981336,-114.99999999999915
2021-09-10 05:00:00,2021-09-10 05:00:00,158.0,158.0,156.6,156.9,246.409,LTCEUR,-1.0999999999999943,157.27430437053482,157.00074650043373,0.27355787010108656,0.04430913965197192,-0.034957010619912035,0.07926615027188395,50.36723833248246,-79.99999999999972
2021-09-10 06:00:00,2021-09-10 06:00:00,157.1,157.3,156.2,156.3,266.865,LTCEUR,-0.799999999999983,156.78715218526742,156.80053321459553,-0.013381029328115801,-0.001967298771063497,-0.028359068250142328,0.02639176947907883,46.13273989128231,14.999999999999147
2021-09-10 07:00:00,2021-09-10 07:00:00,156.4,157.2,155.1,157.2,207.32,LTCEUR,0.799999999999983,156.9935760926337,156.91466658185396,0.07890951077973796,0.03359352353302825,-0.015968549893508217,0.049562073426536464,53.21303299005587,-50.0
2021-09-10 08:00:00,2021-09-10 08:00:00,157.1,157.3,155.1,155.3,314.948,LTCEUR,-1.799999999999983,156.14678804631686,156.45333327275284,-0.30654522643598625,-0.09049521709516739,-0.030873883333840054,-0.05962133376132733,39.92034126836709,-179.99999999999972
2021-09-10 09:00:00,2021-09-10 09:00:00,155.4,155.7,152.9,153.6,645.389,LTCEUR,-1.8000000000000114,154.87339402315843,155.63809519482345,-0.764701171665024,-0.32229699146657254,-0.08915850496038656,-0.23313848650618596,31.477759139185764,-130.00000000000114
2021-09-10 10:00:00,2021-09-10 10:00:00,153.9,156.5,150.8,152.7,1346.787,LTCEUR,-1.200000000000017,153.7866970115792,154.7986394248739,-1.0119424132946904,-0.5720300398605218,-0.18573281194041363,-0.3862972279201082,27.749462508100095,45.000000000000284
2021-09-10 11:00:00,2021-09-10 11:00:00,152.9,154.7,152.2,154.5,729.631,LTCEUR,1.5999999999999943,154.14334850578962,154.71331387490994,-0.5699653691203252,-0.6175812311679181,-0.2721024957859145,-0.3454787353820036,43.74156426938425,90.00000000000057
2021-09-10 12:00:00,2021-09-10 12:00:00,154.4,155.2,153.7,154.5,401.048,LTCEUR,0.09999999999999432,154.3216742528948,154.6523670535071,-0.33069280061229733,-0.6462315237173755,-0.3469283013722067,-0.29930322234516876,43.74156426938425,4.999999999999716
2021-09-10 13:00:00,2021-09-10 13:00:00,154.4,154.9,152.8,154.6,427.579,LTCEUR,0.19999999999998863,154.46083712644742,154.63740503821936,-0.1765679117719401,-0.6533366643334091,-0.40820997396444725,-0.24512669036896184,44.72042109928694,0.0
2021-09-10 14:00:00,2021-09-10 14:00:00,154.5,155.7,152.9,154.5,724.089,LTCEUR,0.0,154.4804185632237,154.59814645587096,-0.11772789264725247,-0.6594351458493009,-0.458455008341418,-0.20098013750788285,43.805793462108824,-109.99999999999943
2021-09-10 15:00:00,2021-09-10 15:00:00,154.0,154.5,151.6,152.4,552.098,LTCEUR,-1.5999999999999943,153.44020928161186,153.9701046113364,-0.5298953297245532,-0.8242195955173202,-0.5316079257765984,-0.2926116697407217,28.90720601705435,-354.9999999999997
2021-09-10 16:00:00,2021-09-10 16:00:00,152.2,153.1,146.5,147.4,2019.996,LTCEUR,-4.799999999999983,150.42010464080593,152.0929318652403,-1.6728272244343714,-1.3427918042826548,-0.6938447014778097,-0.648947102804845,14.660835759500372,-110.00000000000085
2021-09-10 17:00:00,2021-09-10 17:00:00,147.4,150.5,145.6,150.2,680.194,LTCEUR,2.799999999999983,150.31005232040297,151.55209418945736,-1.2420418690543897,-1.5104162777679448,-0.8571590167358367,-0.6532572610321081,35.892213039482456,100.0
2021-09-10 18:00:00,2021-09-10 18:00:00,150.0,150.2,148.8,149.4,494.854,LTCEUR,-0.5999999999999943,149.85502616020148,150.9372101353267,-1.0821839751252185,-1.688350936165051,-1.0233974006216795,-0.6649535355433716,33.071272752182324,45.000000000000284
2021-09-10 19:00:00,2021-09-10 19:00:00,149.8,151.1,148.9,151.1,330.033,LTCEUR,1.299999999999983,150.47751308010072,150.98372152523336,-0.5062084451326427,-1.6729054299387087,-1.1532990064850854,-0.5196064234536233,44.24541990255927,100.0
2021-09-10 20:00:00,2021-09-10 20:00:00,151.1,151.8,150.5,151.4,393.575,LTCEUR,0.30000000000001137,150.93875654005035,151.10265823230955,-0.16390169225920204,-1.6178081765711454,-1.2462008405022975,-0.3716073360688479,46.14933030996499,-20.000000000000284
2021-09-10 21:00:00,2021-09-10 21:00:00,151.4,151.5,150.5,150.7,373.205,LTCEUR,-0.700000000000017,150.81937827002517,150.98761302307824,-0.16823475305307056,-1.6120447082453495,-1.319369614050908,-0.2926750941944416,42.121866918394794,-150.0
2021-09-10 22:00:00,2021-09-10 22:00:00,151.0,151.5,148.3,148.4,420.907,LTCEUR,-2.5999999999999943,149.6096891350126,150.24829501648446,-0.6386058814718751,-1.7726340739930038,-1.410022506039327,-0.36261156795367677,31.33848036653444,-144.99999999999886
2021-09-10 23:00:00,2021-09-10 23:00:00,148.3,149.3,146.4,147.8,527.79,LTCEUR,-0.5,148.7048445675063,149.54878215463177,-0.8439375871254526,-1.9261142428950677,-1.5132408534104753,-0.4128733894845924,29.013336164371637,-70.00000000000028
