date,date,open,high,low,close,volume,pair,close_open_diff,ema_short,ema_long,ema_sort_ema_long_diff,macd,signal,momentum,rsi,gradient
2021-01-17 00:00:00,2021-01-17 00:00:00,119.974,120.526,118.182,118.984,955.164,LTCEUR,-0.9900000000000091,119.59537950027661,120.19338096782616,-0.5980014675495511,0.02257958874285748,0.309527166400844,-0.2869475776579865,36.44765515990029,20.750000000000313
2021-01-17 01:00:00,2021-01-17 01:00:00,118.947,120.917,117.102,120.382,1117.277,LTCEUR,1.4350000000000023,119.9886897501383,120.24727211987582,-0.2585823697375105,0.00011806056372165585,0.24764534523341952,-0.24752728466969787,48.42411599793683,132.40000000000052
2021-01-17 02:00:00,2021-01-17 02:00:00,120.284,121.632,119.609,121.632,722.858,LTCEUR,1.347999999999999,120.81034487506915,120.64290865705416,0.1674362180149842,0.0822337514710938,0.2145630264809544,-0.1323292750098606,57.09874656785451,-7.600000000000051
2021-01-17 03:00:00,2021-01-17 03:00:00,121.652,121.652,119.77,120.23,447.904,LTCEUR,-1.421999999999997,120.52017243753457,120.52493475503869,-0.004762317504116709,0.03379181413104959,0.17840878401097346,-0.14461696987992387,46.559058767416474,-113.75000000000028
2021-01-17 04:00:00,2021-01-17 04:00:00,120.199,120.403,118.838,119.357,529.248,LTCEUR,-0.8419999999999987,119.93858621876728,120.19123911074192,-0.25265289197463403,-0.07418738821949944,0.12788954956487888,-0.20207693778437832,40.91568888886089,-119.35000000000002
2021-01-17 05:00:00,2021-01-17 05:00:00,119.159,119.934,117.616,117.843,722.464,LTCEUR,-1.3160000000000025,118.89079310938365,119.52031365052994,-0.6295205411462916,-0.2787159668335164,0.04656844628519983,-0.32528441311871625,32.67379860296188,-103.04999999999964
2021-01-17 06:00:00,2021-01-17 06:00:00,117.767,118.48,117.0,117.296,746.374,LTCEUR,-0.4709999999999894,118.09339655469182,118.88479546466425,-0.791398909972429,-0.4794182325073848,-0.0586288894733171,-0.4207893430340677,30.049479663638692,-20.15000000000029
2021-01-17 07:00:00,2021-01-17 07:00:00,117.245,118.059,116.173,117.44,991.131,LTCEUR,0.19499999999999318,117.76669827734591,118.47199676047447,-0.7052984831285585,-0.6197129622232893,-0.17084570402331156,-0.44886725819997775,31.78042132758955,-96.85000000000059
2021-01-17 08:00:00,2021-01-17 08:00:00,117.379,118.528,114.432,115.359,2072.414,LTCEUR,-2.0200000000000102,116.56284913867296,117.58256911462462,-1.0197199759516593,-0.8885739275309135,-0.314391348724832,-0.5741825788060815,22.23770089338754,-89.69999999999985
2021-01-17 09:00:00,2021-01-17 09:00:00,115.278,116.454,114.285,115.646,1617.932,LTCEUR,0.367999999999995,116.10442456933649,117.0292636533033,-0.9248390839668161,-1.066199197472443,-0.4647529184743542,-0.6014462789980888,25.919075451970883,-57.04999999999956
2021-01-17 10:00:00,2021-01-17 10:00:00,115.647,116.927,113.201,114.218,1589.879,LTCEUR,-1.429000000000002,115.16121228466824,116.22604546664522,-1.0648331819769794,-1.3071284067146962,-0.6332280161224226,-0.6739003905922736,20.20724222588278,77.7000000000001
2021-01-17 11:00:00,2021-01-17 11:00:00,114.117,118.246,113.147,117.2,2138.681,LTCEUR,3.0829999999999984,116.18060614233411,116.50431819046088,-0.32371204812676524,-1.2431142155886477,-0.7552052560156677,-0.48790895957297997,48.594619444137756,194.95000000000005
2021-01-17 12:00:00,2021-01-17 12:00:00,117.2,118.258,116.789,118.117,769.54,LTCEUR,0.9170000000000016,117.14880307116707,116.96508442175778,0.18371864940928617,-1.1056431061242051,-0.8252928260373752,-0.28035028008682994,54.56005955006662,-6.9000000000002615
2021-01-17 13:00:00,2021-01-17 13:00:00,118.258,118.448,116.74,117.062,834.007,LTCEUR,-1.195999999999998,117.10540153558352,116.99277458696986,0.1126269486136664,-1.0694974436534892,-0.8741337495605981,-0.19536369409289112,47.02589126604202,-118.55000000000047
2021-01-17 14:00:00,2021-01-17 14:00:00,117.097,117.863,115.382,115.746,890.211,LTCEUR,-1.350999999999999,116.42570076779177,116.63655327640703,-0.21085250861526106,-1.1339702443541881,-0.9261010485193162,-0.20786919583487196,38.97058462330666,-58.099999999999596
2021-01-17 15:00:00,2021-01-17 15:00:00,115.746,117.173,115.226,115.9,874.622,LTCEUR,0.15400000000001057,116.16285038389589,116.42610948314788,-0.26325909925199653,-1.1592754842837394,-0.9727359356722008,-0.18653954861153854,40.404116589095,107.25000000000051
2021-01-17 16:00:00,2021-01-17 16:00:00,115.95,118.772,115.861,117.891,1491.802,LTCEUR,1.9410000000000025,117.02692519194795,116.84464963081992,0.1822755611280371,-1.0070641995073686,-0.9796015884392345,-0.02746261106813408,56.321392419769644,128.6999999999999
2021-01-17 17:00:00,2021-01-17 17:00:00,117.782,118.886,116.74,118.474,943.464,LTCEUR,0.6920000000000073,117.75046259597397,117.3101783077285,0.44028428824546495,-0.8298267063121187,-0.9496466120138114,0.11981990570169265,60.06889822692138,43.44999999999999
2021-01-17 18:00:00,2021-01-17 18:00:00,118.579,119.532,117.785,118.76,973.627,LTCEUR,0.1810000000000116,118.255231297987,117.72441307694893,0.5308182210380608,-0.6586938930530266,-0.8914560682216545,0.23276217516862785,61.98873613935004,-31.050000000000466
2021-01-17 19:00:00,2021-01-17 19:00:00,118.772,118.984,117.65,117.853,440.18,LTCEUR,-0.9190000000000111,118.0541156489935,117.76115219782068,0.29296345117282385,-0.5894622713479976,-0.8310573088469231,0.24159503749892552,52.40101358809704,-69.6000000000005
2021-01-17 20:00:00,2021-01-17 20:00:00,118.021,118.737,116.917,117.368,1076.84,LTCEUR,-0.6530000000000058,117.71105782449675,117.64882299844334,0.06223482605341246,-0.5671929122190136,-0.7782844295213411,0.21109151730232756,47.669907535808804,32.65000000000029
2021-01-17 21:00:00,2021-01-17 21:00:00,117.368,118.633,117.346,118.506,888.989,LTCEUR,1.1380000000000052,118.10852891224837,117.89373071317382,0.21479819907455067,-0.45250104495592325,-0.7131277526082576,0.2606267076523343,58.27668723291724,136.44999999999996
2021-01-17 22:00:00,2021-01-17 22:00:00,118.506,120.3,118.365,120.097,841.464,LTCEUR,1.590999999999994,119.10276445612419,118.52323622369559,0.5795282324286006,-0.23056865841127205,-0.6166159337688605,0.3860472753575884,68.86433266066062,18.39999999999975
2021-01-17 23:00:00,2021-01-17 23:00:00,120.081,120.132,118.301,118.874,777.635,LTCEUR,-1.2070000000000078,118.9883822280621,118.62345444549685,0.36492778256524616,-0.1516236984869863,-0.5236174867124856,0.37199378822549933,55.8023130894046,-101.09999999999957
