date,date,open,high,low,close,volume,pair,close_open_diff,ema_short,ema_long,ema_sort_ema_long_diff,macd,signal,momentum,rsi,gradient
2021-01-16 00:00:00,2021-01-16 00:00:00,118.052,120.146,117.776,119.13,1688.741,LTCEUR,1.0779999999999887,118.20111275328678,117.69887712232199,0.5022356309647904,-1.5196852935141578,-1.3185952497875968,-0.20109004372656103,57.40111857873024,101.8500000000003
2021-01-16 01:00:00,2021-01-16 01:00:00,119.155,121.498,119.0,120.137,2073.25,LTCEUR,0.9819999999999993,119.1690563766434,118.39548365880142,0.7735727178419722,-1.261639309520561,-1.3072040617341898,0.04556475221362888,63.10467032516975,7.600000000000051
2021-01-16 02:00:00,2021-01-16 02:00:00,120.136,121.181,119.051,119.282,1017.566,LTCEUR,-0.8539999999999992,119.2255281883217,118.64877404200101,0.5767541463206953,-1.113294002294566,-1.268422049846265,0.15512804755169896,55.52955461468141,-136.14999999999995
2021-01-16 03:00:00,2021-01-16 03:00:00,119.2,120.037,117.182,117.414,1522.228,LTCEUR,-1.7860000000000014,118.31976409416086,118.29598145857216,0.023782635588702306,-1.1333961803677255,-1.241416875950557,0.10802069558283156,42.23689797515906,-5.5999999999997385
2021-01-16 04:00:00,2021-01-16 04:00:00,117.408,119.263,117.143,119.17,741.607,LTCEUR,1.7620000000000005,118.74488204708044,118.54570104183725,0.19918100524319016,-0.9961497822157099,-1.1923634572035877,0.19621367498787778,54.51841630962867,54.89999999999995
2021-01-16 05:00:00,2021-01-16 05:00:00,119.14,119.326,117.656,118.512,314.921,LTCEUR,-0.6280000000000001,118.62844102354022,118.53607217274089,0.09236885079933188,-0.9297584471140965,-1.1398424551856896,0.2100840080715931,49.760978769625645,-108.65000000000009
2021-01-16 06:00:00,2021-01-16 06:00:00,118.72,118.868,115.526,116.997,822.279,LTCEUR,-1.722999999999999,117.81272051177011,118.0963372662435,-0.2836167544733854,-0.9880016068252075,-1.1094742855135933,0.12147267868838574,40.09424265503433,-54.95000000000019
2021-01-16 07:00:00,2021-01-16 07:00:00,117.108,118.684,116.864,117.413,649.376,LTCEUR,0.3049999999999926,117.61286025588505,117.90109804731678,-0.288237791431726,-0.9891892492561141,-1.0854172782620974,0.09622802900598337,43.698165141852726,84.00000000000034
2021-01-16 08:00:00,2021-01-16 08:00:00,117.498,119.21,117.166,118.677,941.522,LTCEUR,1.179000000000002,118.14493012794253,118.122784319512,0.022145808430536817,-0.8780150175509362,-1.0439368261198652,0.1659218085689289,53.82643520880246,199.24999999999997
2021-01-16 09:00:00,2021-01-16 09:00:00,118.697,122.024,118.291,121.398,1620.803,LTCEUR,2.7009999999999934,119.77146506397126,119.05856022822286,0.7129048357484038,-0.5638470010576953,-0.9479188611074312,0.3840718600497359,68.4758165549805,116.0499999999999
2021-01-16 10:00:00,2021-01-16 10:00:00,121.328,121.527,120.205,120.998,1017.277,LTCEUR,-0.3299999999999983,120.38473253198563,119.61268587730206,0.772046654683578,-0.3431871932517936,-0.8269725275363038,0.4837853342845102,64.84649789650706,11.149999999999949
2021-01-16 11:00:00,2021-01-16 11:00:00,121.075,122.722,120.619,121.621,1083.967,LTCEUR,0.5459999999999923,121.00286626599282,120.18648991235861,0.8163763536342117,-0.11669660658618852,-0.6849173433462807,0.5682207367600922,68.01493055429185,123.19999999999993
2021-01-16 12:00:00,2021-01-16 12:00:00,121.583,124.473,121.078,123.462,1235.248,LTCEUR,1.8790000000000049,122.23243313299642,121.12234993739901,1.1100831955974115,0.20894355797049968,-0.5061451630829247,0.7150887210534244,75.76175943741052,84.9499999999999
2021-01-16 13:00:00,2021-01-16 13:00:00,123.498,125.56,120.429,123.32,2453.537,LTCEUR,-0.17800000000001148,122.7762165664982,121.750249955285,1.0259666112132066,0.4503659825323183,-0.3148429339598761,0.7652089164921945,74.10058924920222,-66.45000000000039
2021-01-16 14:00:00,2021-01-16 14:00:00,123.276,124.6,121.995,122.133,1550.408,LTCEUR,-1.1430000000000007,122.4546082832491,121.85960711091786,0.5950011723312372,0.5396927712057504,-0.14393579292675082,0.6836285641325013,60.741087516572776,-58.69999999999962
2021-01-16 15:00:00,2021-01-16 15:00:00,122.128,122.826,120.526,122.146,984.504,LTCEUR,0.018000000000000682,122.30030414162455,121.94143365065561,0.35887049096893975,0.6045648390130935,0.00576433346121806,0.5988005055518755,60.83388857587654,88.55000000000004
2021-01-16 16:00:00,2021-01-16 16:00:00,122.256,124.26,121.293,123.904,1579.012,LTCEUR,1.6479999999999961,123.10215207081228,122.50216689332544,0.5999851774868432,0.7887402216084212,0.1623595110906587,0.6263807105177625,71.69247572983028,47.4499999999999
2021-01-16 17:00:00,2021-01-16 17:00:00,124.037,126.13,121.906,123.095,2875.186,LTCEUR,-0.9420000000000073,123.09857603540614,122.67154778094672,0.4270282544594153,0.8595130686946817,0.30179022261146327,0.5577228460832184,62.173711747291875,-116.79999999999993
2021-01-16 18:00:00,2021-01-16 18:00:00,123.13,123.468,121.357,121.568,1527.166,LTCEUR,-1.5619999999999976,122.33328801770307,122.35624841496195,-0.022960397258884768,0.7833548939765791,0.39810315688448644,0.38525173709209265,47.799040501383296,-158.20000000000007
2021-01-16 19:00:00,2021-01-16 19:00:00,121.569,122.712,119.5,119.931,1607.848,LTCEUR,-1.6380000000000052,121.13214400885153,121.6633202964014,-0.5311762875498687,0.5841727924854467,0.4353170840046785,0.14885570848076823,36.84137877565248,-39.19999999999959
2021-01-16 20:00:00,2021-01-16 20:00:00,119.821,121.209,117.826,120.784,2361.213,LTCEUR,0.9630000000000081,120.95807200442576,121.412085926001,-0.454013921575239,0.48950678371051026,0.4461550239458449,0.043351759764665376,44.75975136039232,103.45000000000013
2021-01-16 21:00:00,2021-01-16 21:00:00,120.81,122.341,120.382,122.0,1552.928,LTCEUR,1.1899999999999977,121.47903600221288,121.58006137571499,-0.10102537350211094,0.5067626824342994,0.4582765556435358,0.04848612679076364,54.514980357732455,-68.50000000000023
2021-01-16 22:00:00,2021-01-16 22:00:00,122.057,122.086,117.959,119.414,2500.965,LTCEUR,-2.6430000000000007,120.44651800110644,120.96118669693928,-0.5146686958328388,0.30821658961180276,0.42826456243718924,-0.12004797282538648,37.579190500415066,-101.65000000000006
2021-01-16 23:00:00,2021-01-16 23:00:00,119.269,120.118,116.498,119.967,1317.206,LTCEUR,0.6979999999999933,120.20675900055322,120.67713335495662,-0.470374354403404,0.19326205432794552,0.38126406081534053,-0.188002006487395,42.18796746464519,-21.50000000000034
