date,date,open,high,low,close,volume,pair,close_open_diff,ema_short,ema_long,ema_sort_ema_long_diff,macd,signal,momentum,rsi,gradient
2021-01-09 00:00:00,2021-01-09 00:00:00,140.755,141.683,139.803,140.213,523.946,LTCEUR,-0.5420000000000016,139.82212001818507,139.64070864758978,0.1814113705952991,0.9215825010434457,1.0168937376399176,-0.0953112365964719,53.043995640936885,-66.84999999999945
2021-01-09 01:00:00,2021-01-09 01:00:00,140.188,142.8,137.79,139.418,886.041,LTCEUR,-0.7699999999999818,139.62006000909253,139.57707760542127,0.04298240367126027,0.8509557749507621,0.9837061451020866,-0.13275037015132451,49.63712444205771,-102.64999999999986
2021-01-09 02:00:00,2021-01-09 02:00:00,139.18,139.229,136.298,138.16,908.455,LTCEUR,-1.0200000000000102,138.89003000454625,139.17219828958662,-0.2821682850403704,0.6855706673288466,0.9240790495474387,-0.23850838221859205,44.241473728321836,-47.20000000000084
2021-01-09 03:00:00,2021-01-09 03:00:00,138.071,140.239,136.416,138.474,598.2,LTCEUR,0.4029999999999916,138.68201500227312,138.97271306399045,-0.29069806171733603,0.5732311024703449,0.8539094601320201,-0.28067835766167515,45.99965637875576,76.1499999999998
2021-01-09 04:00:00,2021-01-09 04:00:00,138.369,140.05,136.9,139.683,433.092,LTCEUR,1.313999999999993,139.18250750113657,139.1756521885646,0.006855312571957484,0.575127670145605,0.7981531021347371,-0.22302543198913216,52.8665432730147,-33.899999999999864
2021-01-09 05:00:00,2021-01-09 05:00:00,139.462,139.462,137.688,137.796,277.499,LTCEUR,-1.6659999999999968,138.48925375056828,138.7814658489747,-0.2922120984064236,0.4195295089778597,0.7224283835033616,-0.3028988745255019,42.697262325550525,-238.15000000000026
2021-01-09 06:00:00,2021-01-09 06:00:00,137.718,137.718,134.35,134.92,1044.399,LTCEUR,-2.798000000000002,136.70462687528413,137.67818989212478,-0.9735630168406431,0.06341665325979307,0.5906260374546479,-0.5272093841948549,31.58526584126919,-156.90000000000026
2021-01-09 07:00:00,2021-01-09 07:00:00,134.464,136.517,133.272,134.658,827.992,LTCEUR,0.1939999999999884,135.68131343764207,136.81527849437484,-1.1339650567327624,-0.23721212718328388,0.42505840452706156,-0.6622705317103454,30.71151626157213,86.40000000000043
2021-01-09 08:00:00,2021-01-09 08:00:00,134.6,136.934,133.861,136.648,442.058,LTCEUR,2.048000000000002,136.16465671882105,136.76748463883916,-0.6028279200181146,-0.31129778562515753,0.2777871664966178,-0.5890849521217754,44.6637873544397,196.40000000000128
2021-01-09 09:00:00,2021-01-09 09:00:00,136.368,138.988,135.559,138.586,646.181,LTCEUR,2.2180000000000177,137.37532835941053,137.2870604563137,0.08826790309683474,-0.21119626120642465,0.17999048095600928,-0.39118674216243393,55.205093473800154,92.6000000000002
2021-01-09 10:00:00,2021-01-09 10:00:00,138.77,140.041,137.248,138.5,910.776,LTCEUR,-0.27000000000001023,137.93766417970528,137.63361461165266,0.3040495680526192,-0.13722274479621888,0.11654783580556366,-0.25377058060178254,54.65071448425218,64.4999999999996
2021-01-09 11:00:00,2021-01-09 11:00:00,138.589,141.637,138.302,139.876,971.22,LTCEUR,1.2870000000000061,138.90683208985263,138.27429615118047,0.632535938672163,0.03206388765960355,0.09965104617637165,-0.0675871585167681,61.98112226643129,45.49999999999983
2021-01-09 12:00:00,2021-01-09 12:00:00,139.841,141.529,138.475,139.41,992.151,LTCEUR,-0.4310000000000116,139.1584160449263,138.5987829651289,0.5596330797974076,0.1271566750519355,0.10515217195148444,0.022004503100451073,58.16049633953853,-91.10000000000014
2021-01-09 13:00:00,2021-01-09 13:00:00,139.459,140.259,137.032,138.054,634.038,LTCEUR,-1.4050000000000011,138.60620802246314,138.44313068937777,0.16307733308536854,0.09203955206814385,0.10252964797481633,-0.010490095906672478,47.859128643733335,-15.59999999999917
2021-01-09 14:00:00,2021-01-09 14:00:00,138.49,139.86,138.419,139.098,436.707,LTCEUR,0.6080000000000041,138.85210401123157,138.6302362066984,0.22186780453316146,0.1467593041227815,0.11137557920440935,0.035383724918372134,55.191569554109336,54.44999999999993
2021-01-09 15:00:00,2021-01-09 15:00:00,139.129,140.81,139.0,139.143,551.688,LTCEUR,0.014000000000010004,138.99755200561577,138.77674014764173,0.22081185797404146,0.19154817762287735,0.12741009888810295,0.0641380787347744,55.51514512526714,4.299999999999216
2021-01-09 16:00:00,2021-01-09 16:00:00,139.539,139.83,137.3,139.184,761.607,LTCEUR,-0.35499999999998977,139.0907760028079,138.8931001054584,0.1976758973495123,0.227726945434938,0.14747346819746998,0.08025347723746801,55.86361508265132,-146.69999999999987
2021-01-09 17:00:00,2021-01-09 17:00:00,139.327,139.617,136.0,136.209,1431.523,LTCEUR,-3.117999999999995,137.64988800140395,138.12621436104172,-0.4763263596377669,0.016155017704392094,0.12120977809885441,-0.10505476039446232,33.2109649370051,-22.400000000000375
2021-01-09 18:00:00,2021-01-09 18:00:00,136.552,141.069,136.552,138.736,1267.549,LTCEUR,2.1839999999999975,138.19294400070197,138.3004388293155,-0.10749482861353954,0.0517934786824128,0.10732651821556609,-0.05553303953315329,52.74325940278144,168.3499999999995
2021-01-09 19:00:00,2021-01-09 19:00:00,139.088,140.132,138.652,139.576,378.692,LTCEUR,0.48799999999999955,138.88447200035097,138.6648848780825,0.21958712226847865,0.14613365775429088,0.11508794612331105,0.031045711630979828,57.68008892654469,64.54999999999984
2021-01-09 20:00:00,2021-01-09 20:00:00,139.64,140.5,138.702,140.027,1079.979,LTCEUR,0.38700000000000045,139.45573600017548,139.05406062720178,0.40167537297369904,0.25435877061397605,0.14294211102144405,0.111416659592532,60.34890159769557,177.85000000000082
2021-01-09 21:00:00,2021-01-09 21:00:00,140.033,143.939,138.642,143.133,2299.451,LTCEUR,3.1000000000000227,141.29436800008773,140.2194718765727,1.0748961235150318,0.5840239300269445,0.23115847482254415,0.3528654552044004,73.93381703525117,162.45000000000118
2021-01-09 22:00:00,2021-01-09 22:00:00,143.157,143.445,140.882,143.276,1334.378,LTCEUR,0.11899999999999977,142.28518400004387,141.09276562612337,1.1924183739205034,0.8470604631279741,0.35433887248363016,0.49272159064434395,74.41804654597743,-97.05000000000013
2021-01-09 23:00:00,2021-01-09 23:00:00,143.364,144.76,139.803,141.192,1127.563,LTCEUR,-2.171999999999997,141.73859200002192,141.12111830437382,0.6174736956481013,0.8772450920461097,0.45892011639612607,0.4183249756499836,56.16984836894531,-53.15000000000083
