date,date,open,high,low,close,volume,pair,close_open_diff,ema_short,ema_long,ema_sort_ema_long_diff,macd,signal,momentum,rsi,gradient
2021-07-14 00:00:00,2021-07-14 00:00:00,112.19,112.47,111.14,111.94,1032.234,LTCEUR,-0.25,112.07274004367865,112.19400959672487,-0.12126955304621845,-0.2510451250942225,-0.2992442319001182,0.048199106805895675,46.07960946005447,6.500000000000483
2021-07-14 01:00:00,2021-07-14 01:00:00,111.83,112.54,111.41,112.48,668.3616,LTCEUR,0.6500000000000057,112.27637002183933,112.27572114051776,0.0006488813215668188,-0.21611009867496023,-0.2826174052550866,0.06650730658012638,52.30896413256799,-107.99999999999983
2021-07-14 02:00:00,2021-07-14 02:00:00,112.46,112.73,109.27,109.78,1115.8598,LTCEUR,-2.6799999999999926,111.02818501091966,111.5626579575127,-0.5344729465930413,-0.4016611737176987,-0.30642615894760905,-0.09523501477008967,30.89405618955999,-170.00000000000028
2021-07-14 03:00:00,2021-07-14 03:00:00,109.54,109.63,108.43,109.08,496.4619,LTCEUR,-0.46000000000000796,110.05409250545983,110.85332711250908,-0.7992346070492431,-0.5982990681390135,-0.36480074078589,-0.23349832735312348,27.40373514837269,21.000000000000085
2021-07-14 04:00:00,2021-07-14 04:00:00,109.06,110.28,109.02,110.2,229.4415,LTCEUR,1.1400000000000006,110.12704625272991,110.66666222322077,-0.539615970490857,-0.6561971441883117,-0.42308002146637436,-0.2331171227219373,40.34406456281476,-98.49999999999994
2021-07-14 05:00:00,2021-07-14 05:00:00,110.09,110.09,106.1,107.11,862.6093,LTCEUR,-2.980000000000004,108.61852312636495,109.65047301658626,-1.0319498902213127,-0.9405765810453062,-0.5265793333821607,-0.4139972476631455,25.371441286021835,-114.00000000000006
2021-07-14 06:00:00,2021-07-14 06:00:00,106.89,108.16,106.55,107.92,530.9901,LTCEUR,1.0300000000000011,108.26926156318248,109.15605215470447,-0.8867905915219865,-1.0880467770894455,-0.6388728221236177,-0.4491739549658278,33.172945577848765,-19.50000000000003
2021-07-14 07:00:00,2021-07-14 07:00:00,108.07,108.37,106.41,106.72,638.7092,LTCEUR,-1.3499999999999943,107.49463078159124,108.46003725336034,-0.9654064717691,-1.2869132067298494,-0.768480899044864,-0.5184323076849854,27.974100241942466,-50.0
2021-07-14 08:00:00,2021-07-14 08:00:00,106.82,107.81,106.37,106.92,1363.0056,LTCEUR,0.10000000000000853,107.20731539079563,108.0200266095431,-0.8127112187474665,-1.412100144975426,-0.8972047482309765,-0.5148953967444495,30.163061374706786,54.50000000000017
2021-07-14 09:00:00,2021-07-14 09:00:00,106.87,108.18,106.87,107.81,583.8652,LTCEUR,0.9399999999999977,107.50865769539782,107.96001900681651,-0.45136131141869384,-1.4230916191567076,-1.0023821224161227,-0.4207094967405849,39.91433778285958,-5.000000000000426
2021-07-14 10:00:00,2021-07-14 10:00:00,107.83,108.16,106.71,106.82,727.6,LTCEUR,-1.0100000000000051,107.1643288476989,107.63429929058321,-0.46997044288431766,-1.4944599636672962,-1.1007976906663575,-0.3936622730009387,33.64376396079918,83.50000000000009
2021-07-14 11:00:00,2021-07-14 11:00:00,106.66,110.83,106.44,109.48,849.6894,LTCEUR,2.8200000000000074,108.32216442384944,108.16164235041659,0.1605220734328583,-1.3211507183275444,-1.1448682961985948,-0.17628242212894962,55.9542848731449,163.00000000000026
2021-07-14 12:00:00,2021-07-14 12:00:00,109.46,110.59,109.07,110.08,493.8007,LTCEUR,0.6200000000000045,109.20108221192473,108.70974453601184,0.491337675912888,-1.122448025046225,-1.140384241968121,0.017936216921895953,59.62841572504318,30.49999999999997
2021-07-14 13:00:00,2021-07-14 13:00:00,109.98,110.97,109.48,110.09,936.5839,LTCEUR,0.10999999999999943,109.64554110596237,109.10410324000846,0.5414378659539096,-0.9531801254663179,-1.1029434186677602,0.14976329320144233,59.69565651404653,-24.0000000000002
2021-07-14 14:00:00,2021-07-14 14:00:00,110.13,110.31,109.27,109.6,249.4477,LTCEUR,-0.5300000000000011,109.62277055298118,109.24578802857746,0.37698252440371505,-0.8487886927417065,-1.0521124734825495,0.203323780740843,54.370887684675374,125.49999999999955
2021-07-14 15:00:00,2021-07-14 15:00:00,109.74,112.73,109.74,112.6,817.1071,LTCEUR,2.8599999999999994,111.11138527649058,110.20413430612678,0.9072509703638048,-0.5180114882681153,-0.9452922764396627,0.42728078817154747,72.43514618844932,142.00000000000017
2021-07-14 16:00:00,2021-07-14 16:00:00,112.76,113.16,112.04,112.44,457.7538,LTCEUR,-0.3200000000000074,111.77569263824529,110.84295307580484,0.932739562440446,-0.265715826777182,-0.8093769865071666,0.5436611597299846,70.64519687424162,-42.99999999999997
2021-07-14 17:00:00,2021-07-14 17:00:00,112.46,112.62,111.39,111.74,503.0417,LTCEUR,-0.7199999999999989,111.75784631912265,111.09925219700345,0.6585941221191973,-0.12086064097344718,-0.6716737174004227,0.5508130764269755,62.532644872263276,-21.49999999999963
2021-07-14 18:00:00,2021-07-14 18:00:00,111.78,112.08,111.26,112.01,601.6966,LTCEUR,0.23000000000000398,111.88392315956133,111.35946585500247,0.5244573045588652,0.015545679994971806,-0.5342298379213438,0.5497755179163156,64.4236107507171,30.000000000000426
2021-07-14 19:00:00,2021-07-14 19:00:00,112.05,112.57,111.79,112.34,825.7258,LTCEUR,0.29000000000000625,112.11196157978067,111.63961846785891,0.4723431119217594,0.14856435676517776,-0.3976709989840395,0.5462353557492172,66.8755555071314,-12.5
2021-07-14 20:00:00,2021-07-14 20:00:00,112.39,112.98,111.48,111.76,1892.3019,LTCEUR,-0.6299999999999955,111.93598078989034,111.67401319132779,0.26196759856254914,0.20482042139407497,-0.27717271490841666,0.48199313630249163,58.388254499883715,-14.999999999999858
2021-07-14 21:00:00,2021-07-14 21:00:00,111.87,112.59,111.55,112.04,1152.5603,LTCEUR,0.1700000000000017,111.98799039494517,111.77858085094843,0.20940954399674183,0.2688977321842998,-0.1679586254898734,0.4368563576741732,61.2380830497576,34.499999999999886
2021-07-14 22:00:00,2021-07-14 22:00:00,112.04,112.93,111.91,112.45,1629.8993,LTCEUR,0.4099999999999966,112.2189951974726,111.97041489353458,0.248580303938013,0.3487429445449095,-0.06461831148291682,0.4133612560278263,65.40164748369587,26.499999999999346
2021-07-14 23:00:00,2021-07-14 23:00:00,112.42,112.99,112.4,112.57,431.9648,LTCEUR,0.14999999999999147,112.3944975987363,112.14172492395326,0.25277267478303145,0.41689810585828013,0.03168497198532258,0.3852131338729575,66.65944715143138,17.99999999999997
