date,date,open,high,low,close,volume,pair,close_open_diff,ema_short,ema_long,ema_sort_ema_long_diff,macd,signal,momentum,rsi,gradient
2021-01-19 00:00:00,2021-01-19 00:00:00,123.692,126.72,123.49,125.805,795.386,LTCEUR,2.1130000000000138,124.6461682267601,124.07033228950284,0.5758359372572528,1.5788367423885603,1.3703893550460844,0.20844738734247592,70.46756466239417,70.79999999999984
2021-01-19 01:00:00,2021-01-19 01:00:00,125.903,126.669,124.234,125.009,672.086,LTCEUR,-0.8940000000000055,124.82758411338006,124.33852306393061,0.4890610494494467,1.6048095043607873,1.4172733849090249,0.1875361194517624,62.175503083885765,139.44999999999936
2021-01-19 02:00:00,2021-01-19 02:00:00,125.108,130.352,125.009,128.594,2462.231,LTCEUR,3.48599999999999,126.71079205669002,125.55437361709329,1.1564184395967345,1.8928530129787902,1.512389310522978,0.3804637024558122,76.87934298600972,310.1999999999997
2021-01-19 03:00:00,2021-01-19 03:00:00,128.669,131.365,127.881,131.213,1064.121,LTCEUR,2.5439999999999827,128.961896028345,127.1711240122095,1.7907720161354916,2.3058802289846057,1.6710874942153036,0.6347927347693021,82.75592793631778,129.85000000000042
2021-01-19 04:00:00,2021-01-19 04:00:00,131.175,132.618,130.147,131.191,1059.512,LTCEUR,0.015999999999991132,130.0764480141725,128.3196600087211,1.7567880054514262,2.601444227519252,1.8571588408760933,0.7442853866431589,82.5444421847941,-89.54999999999984
2021-01-19 05:00:00,2021-01-19 05:00:00,131.176,133.195,129.21,129.422,1133.494,LTCEUR,-1.7539999999999907,129.74922400708624,128.63461429194365,1.114609715142592,2.662248565658686,2.018176785832612,0.6440717798260742,66.21640451790012,-37.85000000000025
2021-01-19 06:00:00,2021-01-19 06:00:00,129.498,131.941,129.498,130.434,761.453,LTCEUR,0.936000000000007,130.0916120035431,129.14872449424547,0.9428875092976341,2.7602776218573126,2.166596953037552,0.5936806688197604,70.25552157916485,107.45000000000005
2021-01-19 07:00:00,2021-01-19 07:00:00,130.231,132.743,130.231,131.571,589.391,LTCEUR,1.3400000000000034,130.83130600177157,129.84080321017532,0.9905027915962421,2.896325712931926,2.312542705016427,0.5837830079154989,74.38451632851888,277.64999999999986
2021-01-19 08:00:00,2021-01-19 08:00:00,131.567,136.648,130.61,135.987,1693.333,LTCEUR,4.4199999999999875,133.4091530008858,131.59685943583952,1.812293565046275,3.3221830411193594,2.5144707722370137,0.8077122688823457,84.44695501350651,174.09999999999997
2021-01-19 09:00:00,2021-01-19 09:00:00,136.078,137.445,134.146,135.053,1975.379,LTCEUR,-1.0250000000000057,134.2310765004429,132.5843281684568,1.646748331986089,3.543465186666552,2.7202696551229213,0.8231955315436306,76.79082856620131,-120.94999999999914
2021-01-19 10:00:00,2021-01-19 10:00:00,135.031,135.545,133.391,133.568,1543.873,LTCEUR,-1.4629999999999939,133.89953825022144,132.86537726318343,1.0341609870380069,3.5579914809082,2.8878140202799774,0.6701774606282225,65.4666647640693,-92.65000000000043
2021-01-19 11:00:00,2021-01-19 11:00:00,133.663,134.842,131.962,133.2,1311.0,LTCEUR,-0.4630000000000223,133.5497691251107,132.96098375941673,0.5887853656939797,3.4994694438506997,3.010145104994122,0.4893243388565778,62.71636349788453,115.3499999999994
2021-01-19 12:00:00,2021-01-19 12:00:00,133.274,135.9,132.98,135.875,2370.917,LTCEUR,2.600999999999999,134.71238456255537,133.7935598281548,0.9188247344005731,3.6271291647446446,3.1335419169442265,0.4935872478004182,72.71500748927087,-85.49999999999898
2021-01-19 13:00:00,2021-01-19 13:00:00,135.944,136.19,130.12,131.49,2792.78,LTCEUR,-4.453999999999979,133.1011922812777,133.13539987725343,-0.03420759597574374,3.3360120894935505,3.1740359514540915,0.1619761380394591,47.60289443819382,-89.19999999999959
2021-01-19 14:00:00,2021-01-19 14:00:00,131.5,134.356,131.5,134.091,1231.695,LTCEUR,2.591000000000008,133.59609614063885,133.40842848375246,0.18766765688638998,3.277398858576106,3.1947085328784945,0.08269032569761148,57.94155767717107,33.3999999999989
2021-01-19 15:00:00,2021-01-19 15:00:00,134.281,135.269,131.67,132.158,1906.116,LTCEUR,-2.123000000000019,132.8770480703194,133.05116320268033,-0.17411513236092446,3.039928106619982,3.163752447626792,-0.12382434100681028,49.271438248927126,-25.100000000000477
2021-01-19 16:00:00,2021-01-19 16:00:00,132.283,133.589,130.861,133.589,1526.395,LTCEUR,1.3060000000000116,133.2330240351597,133.20483085905738,0.028193176102320194,2.9333863139863183,3.117679220898698,-0.18429290691237954,55.223580499358725,-9.949999999999193
2021-01-19 17:00:00,2021-01-19 17:00:00,133.641,135.754,131.746,131.959,2177.432,LTCEUR,-1.681999999999988,132.59601201757985,132.84887918504097,-0.2528671674611189,2.6864560056381492,3.0314345778465883,-0.3449785722084391,47.590948411224936,-43.09999999999974
2021-01-19 18:00:00,2021-01-19 18:00:00,131.84,134.76,131.699,132.727,1756.301,LTCEUR,0.8870000000000005,132.66150600878993,132.81405656074355,-0.15255055195362388,2.52364216285099,2.9298760948474687,-0.4062339319964785,51.389635387293836,-132.50000000000028
2021-01-19 19:00:00,2021-01-19 19:00:00,132.541,132.541,129.078,129.309,2796.962,LTCEUR,-3.2319999999999993,130.98525300439496,131.81261182910254,-0.8273588247075736,2.0946610363043305,2.7628330831388412,-0.6681720468345107,37.04834799661066,-147.50000000000085
2021-01-19 20:00:00,2021-01-19 20:00:00,129.174,130.913,128.714,129.777,1485.791,LTCEUR,0.6029999999999802,130.38112650219747,131.23100844935894,-0.8498819471614638,1.7720272643796875,2.5646719193870107,-0.7926446550073232,39.80831654616184,87.14999999999975
2021-01-19 21:00:00,2021-01-19 21:00:00,129.359,131.379,128.902,131.052,1855.523,LTCEUR,1.6929999999999836,130.71656325109873,131.17986317811352,-0.4632999270147877,1.6007668759557703,2.371890910700763,-0.7711240347449926,47.35414249162369,71.10000000000127
2021-01-19 22:00:00,2021-01-19 22:00:00,131.097,132.0,130.882,131.199,1044.174,LTCEUR,0.10200000000000387,130.9577816255494,131.18533084150965,-0.22754921596026634,1.460072647122729,2.1895272579851563,-0.7294546108624274,48.251684748709394,-3.499999999999659
2021-01-19 23:00:00,2021-01-19 23:00:00,131.197,132.186,130.189,130.982,791.634,LTCEUR,-0.2150000000000034,130.96989081277468,131.12723631536403,-0.15734550258935087,1.3158925801210728,2.0148003224123396,-0.6989077422912668,46.837177865891356,-265.85000000000036
