date,date,open,high,low,close,volume,pair,close_open_diff,ema_short,ema_long,ema_sort_ema_long_diff,macd,signal,momentum,rsi,gradient
2021-07-15 00:00:00,2021-07-15 00:00:00,112.71,113.47,112.29,112.81,1215.5605,LTCEUR,0.10000000000000853,112.60224879936814,112.33266065996662,0.26958813940152027,0.48469034784613996,0.12228604715748606,0.3624043006886539,69.33498149020981,0.0
2021-07-15 01:00:00,2021-07-15 01:00:00,112.83,112.83,112.0,112.57,340.7475,LTCEUR,-0.2600000000000051,112.58612439968407,112.40047189997617,0.1856524997078992,0.5131350918782829,0.20045585610164543,0.3126792357766375,63.24462645854784,6.499999999999773
2021-07-15 02:00:00,2021-07-15 02:00:00,112.54,113.03,111.02,112.94,1150.2435,LTCEUR,0.3999999999999915,112.76306219984204,112.55462278569726,0.2084394141447774,0.559088836155567,0.27218245211242975,0.2869063840431373,68.38256158024564,-23.99999999999949
2021-07-15 03:00:00,2021-07-15 03:00:00,112.94,114.29,112.09,112.09,611.2437,LTCEUR,-0.8499999999999943,112.42653109992102,112.42187341835519,0.00465768156583124,0.520914831402365,0.32192892797041683,0.19898590343194822,49.36087338762423,-63.4999999999998
2021-07-15 04:00:00,2021-07-15 04:00:00,112.28,112.52,111.36,111.67,394.4824,LTCEUR,-0.6099999999999994,112.04826554996052,112.20705244168228,-0.15878689172176053,0.4515657982606598,0.3478563020284654,0.10370949623219439,42.37217827162586,-54.50000000000017
2021-07-15 05:00:00,2021-07-15 05:00:00,111.55,111.72,111.0,111.0,639.5524,LTCEUR,-0.5499999999999972,111.52413277498026,111.86218031548734,-0.33804754050707686,0.3386391677563694,0.3460128751740462,-0.007373707417676845,33.33683948344829,-55.49999999999997
2021-07-15 06:00:00,2021-07-15 06:00:00,110.97,111.06,110.26,110.56,946.8015,LTCEUR,-0.4099999999999966,111.04206638749014,111.49012879677667,-0.4480624092865355,0.21120503653212097,0.3190513074456612,-0.10784627091354021,28.540741731841024,-43.50000000000023
2021-07-15 07:00:00,2021-07-15 07:00:00,110.45,110.52,109.9,110.13,908.3945,LTCEUR,-0.3200000000000074,110.58603319374507,111.1015205691262,-0.5154873753811273,0.07465459142444786,0.27017196424141854,-0.19551737281697068,24.420561024047885,-46.50000000000034
2021-07-15 08:00:00,2021-07-15 08:00:00,110.0,110.5,109.28,109.63,445.0268,LTCEUR,-0.37000000000000455,110.10801659687253,110.68108612080442,-0.5730695239318919,-0.07306618000093579,0.20152433539294767,-0.27459051539388346,20.32616968200007,-25.0
2021-07-15 09:00:00,2021-07-15 09:00:00,109.44,111.51,109.21,109.63,1022.6477,LTCEUR,0.18999999999999773,109.86900829843626,110.38077580057458,-0.5117675021383263,-0.1879691641091341,0.12362563549253133,-0.3115947996016655,20.32616968200007,12.5
2021-07-15 10:00:00,2021-07-15 10:00:00,109.69,110.5,109.18,109.88,419.0274,LTCEUR,0.18999999999999773,109.87450414921813,110.23769700041042,-0.36319285119229505,-0.2559077509277188,0.047718958208481314,-0.3036267091362001,28.90812375199296,37.000000000000455
2021-07-15 11:00:00,2021-07-15 11:00:00,109.73,110.66,109.57,110.37,1300.0143,LTCEUR,0.6400000000000006,110.12225207460907,110.27549785743602,-0.1532457828269571,-0.2671313417294101,-0.01525110177909697,-0.25188023995031317,43.27816669978423,-128.99999999999991
2021-07-15 12:00:00,2021-07-15 12:00:00,110.17,110.73,107.19,107.3,1351.1684,LTCEUR,-2.8700000000000045,108.71112603730452,109.42535561245431,-0.7142295751497869,-0.5177808064118921,-0.115757042705656,-0.40202376370623605,17.17583055058931,-164.00000000000006
2021-07-15 13:00:00,2021-07-15 13:00:00,107.61,107.65,106.6,107.09,1237.3752,LTCEUR,-0.519999999999996,107.90056301865226,108.75811115175308,-0.8575481331008206,-0.7250100929134078,-0.23760765274720635,-0.48740244016620143,16.36560710040922,-8.500000000000085
2021-07-15 14:00:00,2021-07-15 14:00:00,107.02,108.08,106.36,107.13,617.3416,LTCEUR,0.10999999999999943,107.51528150932613,108.29293653696648,-0.7776550276403498,-0.8759161140423544,-0.365269345006236,-0.5106467690361184,17.257753876837256,25.9999999999998
2021-07-15 15:00:00,2021-07-15 15:00:00,106.68,107.84,106.32,107.61,745.5754,LTCEUR,0.9299999999999926,107.56264075466306,108.09781181211892,-0.5351710574558552,-0.9458747788694097,-0.48139043177887075,-0.464484347090539,28.275250676850263,19.000000000000483
2021-07-15 16:00:00,2021-07-15 16:00:00,107.75,108.45,107.21,107.51,943.3991,LTCEUR,-0.23999999999999488,107.53632037733153,107.92986558008495,-0.3935452027534154,-0.9978837068237141,-0.5846890867878395,-0.4131946200358746,27.364330213929534,2.499999999999858
2021-07-15 17:00:00,2021-07-15 17:00:00,107.5,108.15,107.24,107.66,712.9896,LTCEUR,0.1599999999999966,107.59816018866576,107.8527611286321,-0.2546009399663376,-1.0152937363397854,-0.6708100166982287,-0.34448371964155666,31.345541663863372,-13.000000000000256
2021-07-15 18:00:00,2021-07-15 18:00:00,107.62,107.88,106.53,107.25,1216.3359,LTCEUR,-0.37000000000000455,107.42408009433288,107.68054366330864,-0.25646356897576084,-1.0500703265721398,-0.746662078673011,-0.3034082478991288,26.568992718422393,-72.99999999999969
2021-07-15 19:00:00,2021-07-15 19:00:00,107.27,107.27,105.0,106.2,1162.9493,LTCEUR,-1.0699999999999932,106.81204004716645,107.2575311880776,-0.4454911409111588,-1.1491110132034947,-0.8271518655791078,-0.32195914762438693,18.09505790383902,-16.499999999999915
2021-07-15 20:00:00,2021-07-15 20:00:00,106.1,107.27,106.07,106.92,802.1894,LTCEUR,0.8200000000000074,106.86602002358322,107.16109370576973,-0.2950736821865121,-1.156175813120356,-0.8929566550873576,-0.26321915803299856,35.12185300707604,55.49999999999997
2021-07-15 21:00:00,2021-07-15 21:00:00,106.92,107.86,106.84,107.31,333.1877,LTCEUR,0.39000000000000057,107.08801001179161,107.2036383612641,-0.11562834947248746,-1.1174240089170695,-0.9378501258533,-0.17957388306376953,42.84493870141556,33.99999999999963
2021-07-15 22:00:00,2021-07-15 22:00:00,107.57,107.98,107.17,107.6,424.6131,LTCEUR,0.030000000000001137,107.34400500589581,107.31688454376007,0.027120462135741263,-1.051194828884121,-0.9605190664594643,-0.0906757624246568,48.333015365577545,14.999999999999858
2021-07-15 23:00:00,2021-07-15 23:00:00,107.88,108.1,107.61,107.61,962.6414,LTCEUR,-0.269999999999996,107.4770025029479,107.40063181697148,0.07637068597641417,-0.9865287211217435,-0.9657209973919201,-0.020807723729823424,48.53749011572997,10.500000000000398
