date,date,open,high,low,close,volume,pair,close_open_diff,ema_short,ema_long,ema_sort_ema_long_diff,macd,signal,momentum,rsi,gradient
2021-04-15 00:00:00,2021-04-15 00:00:00,234.719,235.525,230.813,231.473,2416.857,LTCEUR,-3.245999999999981,230.09110130237244,227.7446935562681,2.3464077461043473,1.1523952765861623,0.7566225357229394,0.3957727408632229,63.759871817003194,-69.5999999999998
2021-04-15 01:00:00,2021-04-15 01:00:00,231.655,234.182,231.528,233.028,1670.223,LTCEUR,1.3729999999999905,231.5595506511862,229.25420968304863,2.3053409681375854,1.601740460616611,0.9256461207016737,0.6760943399149373,66.59697546941015,-165.40000000000106
2021-04-15 02:00:00,2021-04-15 02:00:00,233.179,236.272,228.165,228.165,2243.015,LTCEUR,-5.01400000000001,229.8622753255931,228.9430069164633,0.9192684091297849,1.547606454251678,1.0500381874116747,0.49756826684000344,51.47423494912184,-234.29999999999893
2021-04-15 03:00:00,2021-04-15 03:00:00,228.376,230.23,226.972,228.342,1048.239,LTCEUR,-0.033999999999991815,229.10213766279657,228.77129065461665,0.33084700817991575,1.5016768885326712,1.140365927635874,0.36131096089679726,51.95078936125967,26.05000000000075
2021-04-15 04:00:00,2021-04-15 04:00:00,228.606,230.475,226.742,228.686,1269.084,LTCEUR,0.0800000000000125,228.89406883139827,228.74692189615476,0.1471469352435122,1.4760206545530252,1.2074968730193043,0.2685237815337209,53.02665494287999,231.59999999999883
2021-04-15 05:00:00,2021-04-15 05:00:00,228.648,232.974,226.743,232.974,1505.5,LTCEUR,4.325999999999993,230.93403441569913,229.9546584972534,0.9793759184457258,1.7811615463974704,1.3222298076949377,0.4589317387025327,64.8120328832309,35.199999999998965
2021-04-15 06:00:00,2021-04-15 06:00:00,232.993,233.66,228.991,229.39,1516.658,LTCEUR,-3.6030000000000086,230.16201720784954,229.79332749803814,0.3686897098114059,1.714030774521774,1.400590001060305,0.31344077346146904,51.78152524694603,-184.3999999999994
2021-04-15 07:00:00,2021-04-15 07:00:00,229.584,230.474,227.222,229.286,1407.471,LTCEUR,-0.2980000000000018,229.72400860392477,229.64837678431297,0.07563181961180021,1.633606029895276,1.4471932068272992,0.18641282306797669,51.42152958552409,-27.69999999999868
2021-04-15 08:00:00,2021-04-15 08:00:00,229.644,230.8,227.94,228.836,1437.542,LTCEUR,-0.8079999999999927,229.28000430196238,229.41626913165211,-0.1362648296897362,1.5160811612574605,1.4609707977133317,0.05511036354412879,49.62998750088043,-26.250000000000284
2021-04-15 09:00:00,2021-04-15 09:00:00,229.065,231.724,228.342,228.761,2165.369,LTCEUR,-0.30400000000000205,229.0205021509812,229.2290493797515,-0.20854722877029985,1.400743088549632,1.4489252558805918,-0.048182167330959924,49.28655571469379,-78.45000000000084
2021-04-15 10:00:00,2021-04-15 10:00:00,228.761,231.583,226.477,227.267,2006.048,LTCEUR,-1.4939999999999998,228.1437510754906,228.6684638426796,-0.5247127671890155,1.1752361302908412,1.3941874307626416,-0.21895130047180045,42.29110175910195,-43.0499999999995
2021-04-15 11:00:00,2021-04-15 11:00:00,227.238,228.372,224.53,227.9,1282.449,LTCEUR,0.6620000000000061,228.0218755377453,228.44890274477115,-0.4270272070258443,1.035659611651738,1.322481866940461,-0.28682225528872296,46.175316868364845,-206.60000000000025
2021-04-15 12:00:00,2021-04-15 12:00:00,227.9,228.776,222.886,223.135,1763.751,LTCEUR,-4.765000000000015,225.57843776887265,226.9306448176937,-1.3522070488210431,0.5343884405053814,1.1648631816534452,-0.6304747411480638,28.71605927888585,-76.8500000000003
2021-04-15 13:00:00,2021-04-15 13:00:00,223.194,227.077,223.0,226.363,1033.833,LTCEUR,3.169000000000011,225.97071888443634,226.76846058406693,-0.7977416996305919,0.3930689937040768,1.0105043440635715,-0.6174353503594947,45.47549779333233,175.75000000000074
2021-04-15 14:00:00,2021-04-15 14:00:00,226.388,227.695,226.0,226.65,1452.081,LTCEUR,0.26200000000000045,226.31035944221816,226.73461470290493,-0.42425526068677755,0.30076379756394545,0.8685562347636463,-0.5677924371997009,46.80972447346349,87.25000000000023
2021-04-15 15:00:00,2021-04-15 15:00:00,226.719,230.213,226.719,228.108,2249.597,LTCEUR,1.38900000000001,227.20917972110908,227.12701050207497,0.0821692190341139,0.3413250963423309,0.7631100070793833,-0.4217849107370524,53.71436414399402,164.54999999999984
2021-04-15 16:00:00,2021-04-15 16:00:00,228.114,231.484,227.398,229.941,1264.306,LTCEUR,1.8269999999999982,228.57508986055456,227.9310075014821,0.6440823590724563,0.5154363692160757,0.7135752795067218,-0.19813891029064612,61.29436366266682,327.45000000000033
2021-04-15 17:00:00,2021-04-15 17:00:00,229.827,235.218,228.434,234.657,1849.924,LTCEUR,4.8300000000000125,231.61604493027727,229.8527196439158,1.7633252863614644,1.0221795446104238,0.7752961325274622,0.2468834120829616,74.29238625142105,172.49999999999943
2021-04-15 18:00:00,2021-04-15 18:00:00,235.216,238.5,232.975,233.391,3418.52,LTCEUR,-1.825000000000017,232.50352246513864,230.8636568885113,1.6398655766273578,1.3065603282429379,0.8815489716705573,0.42501135657238054,67.0400405275632,-47.350000000000136
2021-04-15 19:00:00,2021-04-15 19:00:00,233.421,234.25,231.062,233.71,1822.599,LTCEUR,0.2890000000000157,233.10676123256934,231.6768977775081,1.429863455061252,1.5399235025619191,1.0132238778488298,0.5266996247130893,67.98502692125166,62.95000000000073
2021-04-15 20:00:00,2021-04-15 20:00:00,233.804,236.113,231.673,234.65,1339.552,LTCEUR,0.8460000000000036,233.8783806162847,232.52635555536293,1.3520250609217612,1.780194667597442,1.1666180357985523,0.6135766317988898,70.93197711799975,323.6999999999995
2021-04-15 21:00:00,2021-04-15 21:00:00,234.529,241.449,233.62,240.184,2920.075,LTCEUR,5.655000000000001,237.03119030814236,234.71425396811637,2.3169363400259897,2.3896128776099204,1.4112170041608258,0.9783958734490945,82.386194147762,308.89999999999986
2021-04-15 22:00:00,2021-04-15 22:00:00,239.953,241.851,237.559,240.828,2218.395,LTCEUR,0.875,238.9295951540712,236.46103854865456,2.4685566054166372,2.891218450951783,1.7072172935190175,1.1840011574327653,83.30488078115262,-65.25000000000034
2021-04-15 23:00:00,2021-04-15 23:00:00,240.829,240.829,237.43,238.879,760.318,LTCEUR,-1.950000000000017,238.9042975770356,237.15188467761038,1.7524128994252237,3.0957901286304264,1.9849318605412996,1.1108582680891268,70.0383513477471,85.2499999999992
