date,date,open,high,low,close,volume,pair,close_open_diff,ema_short,ema_long,ema_sort_ema_long_diff,macd,signal,momentum,rsi,gradient
2021-03-31 00:00:00,2021-03-31 00:00:00,166.896,167.127,165.706,166.61,374.146,LTCEUR,-0.28599999999997294,166.72593900690384,166.9400075505664,-0.21406854366256312,0.88586689015915,1.1171068201008074,-0.23123992994165743,45.378407243622085,13.150000000000261
2021-03-31 01:00:00,2021-03-31 01:00:00,166.558,167.689,165.965,167.076,541.529,LTCEUR,0.5180000000000007,166.9009695034519,166.97886253611887,-0.07789303266696379,0.8344887008414332,1.0605831962489327,-0.22609449540749949,51.77283962015993,94.49999999999932
2021-03-31 02:00:00,2021-03-31 02:00:00,167.084,168.5,166.388,168.5,297.334,LTCEUR,1.4159999999999968,167.70048475172595,167.4134732400849,0.28701151164105454,0.8983207325629792,1.028130703511742,-0.1298099709487628,66.25777762780987,53.4000000000006
2021-03-31 03:00:00,2021-03-31 03:00:00,168.416,168.541,167.689,168.144,164.71,LTCEUR,-0.27199999999999136,167.922242375863,167.6221951714892,0.30004720437378296,0.9096954499224239,1.0044436527938785,-0.09474820287145458,60.78112797356177,-54.94999999999948
2021-03-31 04:00:00,2021-03-31 04:00:00,168.017,168.09,166.977,167.401,198.772,LTCEUR,-0.6159999999999854,167.6616211879315,167.55899655106373,0.10262463686777323,0.8489697105325718,0.9733488643416172,-0.1243791538090454,50.356636651953934,-134.74999999999966
2021-03-31 05:00:00,2021-03-31 05:00:00,167.435,167.435,163.876,165.449,724.748,LTCEUR,-1.98599999999999,166.55531059396577,166.95614039361695,-0.40082979965117715,0.6360025960757696,0.9058796106884477,-0.2698770146126781,32.68420559708906,-103.4000000000006
2021-03-31 06:00:00,2021-03-31 06:00:00,165.523,165.625,164.485,165.333,502.272,LTCEUR,-0.18999999999999773,165.9441552969829,166.49238599544069,-0.548230698457786,0.45264656513580803,0.8152330015779198,-0.36258643644211175,31.88620747389737,58.849999999999625
2021-03-31 07:00:00,2021-03-31 07:00:00,165.249,167.01,164.861,166.626,867.592,LTCEUR,1.3770000000000095,166.28507764849144,166.53056142531477,-0.24548377682333467,0.4069784888707204,0.73358209903648,-0.32660361016575956,48.654478565232424,151.90000000000055
2021-03-31 08:00:00,2021-03-31 08:00:00,166.652,170.19,166.227,168.371,1737.202,LTCEUR,1.7190000000000225,167.3280388242457,167.05640101808197,0.27163780616373856,0.505763004744324,0.6880182801780488,-0.18225527543372477,63.290182180719654,-121.60000000000082
2021-03-31 09:00:00,2021-03-31 09:00:00,168.507,168.508,162.751,164.194,1461.553,LTCEUR,-4.313000000000017,165.76101941212283,166.23857215577283,-0.4775527436499942,0.2441866225399565,0.5992519486504303,-0.3550653261104738,34.79836436626432,-284.1000000000008
2021-03-31 10:00:00,2021-03-31 10:00:00,164.652,164.679,160.0,162.689,2298.124,LTCEUR,-1.9629999999999939,164.22500970606143,165.22440868269487,-0.9993989766334437,-0.08359187203660667,0.4626831845130229,-0.5462750565496296,29.12869086348084,-73.54999999999876
2021-03-31 11:00:00,2021-03-31 11:00:00,162.771,163.357,161.896,162.723,949.873,LTCEUR,-0.0479999999999734,163.47400485303072,164.50972048763919,-1.035715634608465,-0.3367335202428876,0.30279984356184086,-0.6395333638047285,29.440349597631325,-75.90000000000003
2021-03-31 12:00:00,2021-03-31 12:00:00,162.318,163.339,160.308,161.171,1729.231,LTCEUR,-1.1470000000000198,162.32250242651537,163.5558003483137,-1.2332979217983393,-0.6550327201738355,0.1112333308147056,-0.7662660509885411,23.725357243624742,-0.5000000000009663
2021-03-31 13:00:00,2021-03-31 13:00:00,161.288,163.18,161.28,162.713,1050.957,LTCEUR,1.424999999999983,162.51775121325767,163.3150002487955,-0.7972490355378454,-0.7739391278670098,-0.0658011609216375,-0.7081379669453723,38.06082880398035,107.69999999999982
2021-03-31 14:00:00,2021-03-31 14:00:00,162.719,163.616,161.849,163.325,706.427,LTCEUR,0.6059999999999945,162.92137560662883,163.31785732056824,-0.39648171393940856,-0.8094590868532237,-0.21453274610795472,-0.594926340745269,43.14960748656852,90.85000000000036
2021-03-31 15:00:00,2021-03-31 15:00:00,163.458,165.275,163.443,164.53,1044.255,LTCEUR,1.0720000000000027,163.72568780331443,163.66418380040588,0.06150400290854918,-0.7319381534452702,-0.31801382757541785,-0.4139243258698524,52.39129736949162,32.800000000000296
2021-03-31 16:00:00,2021-03-31 16:00:00,164.604,164.998,163.883,163.981,681.671,LTCEUR,-0.6230000000000189,163.8533439016572,163.75470271457561,0.09864118708159708,-0.7066560756647107,-0.3957422771932765,-0.3109137984714342,48.1150265923733,8.70000000000033
2021-03-31 17:00:00,2021-03-31 17:00:00,163.98,165.665,163.98,164.704,1694.648,LTCEUR,0.724000000000018,164.2786719508286,164.02593051041117,0.25274144041742375,-0.6211199056011196,-0.4408178028748451,-0.1803021027262745,54.04298388709093,-23.850000000000193
2021-03-31 18:00:00,2021-03-31 18:00:00,164.698,165.28,162.654,163.504,969.62,LTCEUR,-1.1940000000000168,163.89133597541428,163.87680750743655,0.014528467977726223,-0.6427525939490124,-0.4812047610896786,-0.16154783285933383,44.02487412747521,-27.45000000000033
2021-03-31 19:00:00,2021-03-31 19:00:00,163.658,164.354,163.104,164.155,352.341,LTCEUR,0.4970000000000141,164.02316798770715,163.9562910767404,0.06687691096675508,-0.6004448415839647,-0.5050527771885358,-0.09539206439542891,50.05243710573199,79.55000000000041
2021-03-31 20:00:00,2021-03-31 20:00:00,164.155,165.229,163.704,165.095,544.668,LTCEUR,0.9399999999999977,164.55908399385356,164.281636483386,0.2774475104675673,-0.4854693109095649,-0.5011360839327417,0.01566677302317676,57.90643068936826,21.89999999999941
2021-03-31 21:00:00,2021-03-31 21:00:00,165.23,166.269,163.974,164.593,1216.055,LTCEUR,-0.6370000000000005,164.5760419969268,164.37059748813286,0.2054445087939314,-0.4299019371799204,-0.4868892545821774,0.05698731740225699,52.60536276378145,80.5499999999995
2021-03-31 22:00:00,2021-03-31 22:00:00,164.796,167.36,164.118,166.706,1208.988,LTCEUR,1.9099999999999966,165.64102099846338,165.0378553486663,0.603165649797063,-0.21290867357771504,-0.43209313838128494,0.2191844648035699,67.591094723741,89.80000000000103
2021-03-31 23:00:00,2021-03-31 23:00:00,166.736,167.707,165.997,166.389,653.317,LTCEUR,-0.34699999999998,166.0150104992317,165.4238966776188,0.5911138216128791,-0.06576114598539107,-0.3588267399021062,0.2930655939167151,63.9508063157894,-38.349999999999795
