date,date,open,high,low,close,volume,pair,close_open_diff,ema_short,ema_long,ema_sort_ema_long_diff,macd,signal,momentum,rsi,gradient
2021-11-16 00:00:00,2021-11-16 00:00:00,232.8,233.5,231.0,231.8,515.542,LTCEUR,-1.0,232.17653655532678,232.50203125332354,-0.3254946979967599,-0.7754891750774391,0.10492962211044568,-0.8804187971878847,38.73482154483153,-530.0000000000011
2021-11-16 01:00:00,2021-11-16 01:00:00,231.8,232.0,222.1,222.7,2032.601,LTCEUR,-9.100000000000023,227.43826827766338,229.70145089523112,-2.263182617567736,-1.591635817085205,-0.2343834657286845,-1.3572523513565204,17.412463673383158,-525.0
2021-11-16 02:00:00,2021-11-16 02:00:00,222.9,224.1,212.5,221.3,2828.415,LTCEUR,-1.5999999999999943,224.3691341388317,227.30103635373652,-2.9319022149048237,-2.324609558634478,-0.6524286843098432,-1.6721808743246347,15.806159061762358,-294.99999999999886
2021-11-16 03:00:00,2021-11-16 03:00:00,221.2,221.8,216.2,216.8,663.374,LTCEUR,-4.399999999999977,220.58456706941587,224.30074025266896,-3.7161731832530904,-3.2313598170148623,-1.168214910850847,-2.0631449061640152,11.65798551011963,-305.00000000000114
2021-11-16 04:00:00,2021-11-16 04:00:00,216.7,218.7,211.6,215.2,1410.881,LTCEUR,-1.5,217.89228353470793,221.7005287519064,-3.8082452171984755,-4.032587400452343,-1.7410894087711464,-2.2914979916811964,10.484039963248293,39.99999999999915
2021-11-16 05:00:00,2021-11-16 05:00:00,214.9,218.5,212.8,217.6,1056.211,LTCEUR,2.6999999999999886,217.74614176735395,220.52894910850455,-2.782807341150601,-4.422921405704443,-2.277455808157806,-2.1454655975466372,24.219799964919375,45.000000000000284
2021-11-16 06:00:00,2021-11-16 06:00:00,217.1,218.4,215.8,216.1,935.919,LTCEUR,-1.0,216.92307088367698,219.26353507750324,-2.34046419382625,-4.797993103201634,-2.7815632671665718,-2.016429836035062,21.720164933866172,10.000000000000853
2021-11-16 07:00:00,2021-11-16 07:00:00,216.2,217.8,214.1,217.8,1213.496,LTCEUR,1.6000000000000227,217.3615354418385,218.8453821982166,-1.4838467563781137,-4.901562175563242,-3.205563048845906,-1.6959991267173362,31.35518644656517,70.00000000000028
2021-11-16 08:00:00,2021-11-16 08:00:00,218.0,218.2,216.0,217.5,599.092,LTCEUR,-0.5,217.43076772091925,218.46098728444045,-1.0302195635212001,-4.950779401196257,-3.5546063193159765,-1.3961730818802809,30.5586770298342,9.999999999999432
2021-11-16 09:00:00,2021-11-16 09:00:00,217.4,218.3,215.7,218.0,1201.404,LTCEUR,0.5999999999999943,217.7153838604596,218.32927663174317,-0.6138927712835596,-4.893034727248363,-3.822292000902454,-1.0707427263459088,33.91610831848291,-309.99999999999943
2021-11-16 10:00:00,2021-11-16 10:00:00,217.7,219.6,210.9,211.3,1138.882,LTCEUR,-6.399999999999977,214.5076919302298,216.32091187981655,-1.8132199495867383,-5.3265050285456255,-4.123134606431089,-1.2033704221145367,19.081276707084285,-559.9999999999994
2021-11-16 11:00:00,2021-11-16 11:00:00,211.1,211.2,197.0,206.8,4295.731,LTCEUR,-4.299999999999983,210.6538459651149,213.6006513427261,-2.946805377611213,-5.964391959436085,-4.491386077032089,-1.4730058824039967,14.107844277795351,-110.00000000000085
2021-11-16 12:00:00,2021-11-16 12:00:00,206.7,209.7,206.3,209.1,1997.816,LTCEUR,2.4000000000000057,209.87692298255746,212.31475095909008,-2.437827976532617,-6.21271486016866,-4.835651833659403,-1.3770630265092567,25.946231112581657,-100.0
2021-11-16 13:00:00,2021-11-16 13:00:00,209.1,209.8,204.2,204.8,1336.347,LTCEUR,-4.299999999999983,207.33846149127874,210.1676792564929,-2.8292177652141675,-6.679489613048418,-5.204419389537207,-1.475070223511211,19.818155432856415,-54.999999999999716
2021-11-16 14:00:00,2021-11-16 14:00:00,204.8,208.8,204.8,208.0,919.556,LTCEUR,3.1999999999999886,207.66923074563937,209.54834232606635,-1.8791115804269793,-6.71380613324709,-5.506296738279183,-1.2075093949679063,33.78422160395982,259.99999999999943
2021-11-16 15:00:00,2021-11-16 15:00:00,207.7,213.5,207.2,210.0,1366.497,LTCEUR,2.3000000000000114,208.83461537281968,209.67738737576167,-0.8427720029419845,-6.504637525046661,-5.705964895632679,-0.7986726294139821,41.43487286957472,-40.00000000000057
2021-11-16 16:00:00,2021-11-16 16:00:00,210.2,211.0,206.6,207.2,754.999,LTCEUR,-3.0,208.01730768640982,208.96956241125832,-0.9522547248485012,-6.489993885857757,-5.862770693677695,-0.627223192180062,34.69939904640714,-50.0
2021-11-16 17:00:00,2021-11-16 17:00:00,207.0,209.6,206.6,209.0,1131.968,LTCEUR,2.0,208.5086538432049,208.9782588651845,-0.4696050219795893,-6.260971161298272,-5.942410787201811,-0.3185603740964611,41.975657096057645,15.000000000000568
2021-11-16 18:00:00,2021-11-16 18:00:00,209.0,209.9,207.1,207.5,858.793,LTCEUR,-1.5,208.00432692160246,208.5558991894175,-0.5515722678150325,-6.1298454236941495,-5.97989771450028,-0.1499477091938699,37.767349971318225,-159.99999999999943
2021-11-16 19:00:00,2021-11-16 19:00:00,207.4,209.1,205.7,205.8,858.59,LTCEUR,-1.5999999999999943,206.90216346080123,207.7684994210125,-0.8663359602112735,-6.0928683309992095,-6.002491837800066,-0.09037649319914376,33.23572474376357,-4.999999999999716
2021-11-16 20:00:00,2021-11-16 20:00:00,205.4,209.5,205.2,207.4,665.893,LTCEUR,2.0,207.15108173040062,207.6632138721518,-0.5121321417511808,-5.8668279497596245,-5.975359060191978,0.1085311104323532,41.203567525441095,-155.00000000000114
2021-11-16 21:00:00,2021-11-16 21:00:00,206.9,207.0,199.4,202.7,1483.336,LTCEUR,-4.200000000000017,204.9255408652003,206.24515276582272,-1.3196119006224194,-5.997801121725672,-5.979847472498717,-0.017953649226955193,29.002631635168456,-35.00000000000085
2021-11-16 22:00:00,2021-11-16 22:00:00,202.5,208.5,202.5,206.7,1248.549,LTCEUR,4.199999999999989,205.81277043260013,206.3751091184448,-0.5623386858446793,-5.712976101223518,-5.926473198243677,0.2134970970201593,45.487859077591786,195.00000000000028
2021-11-16 23:00:00,2021-11-16 23:00:00,207.0,208.2,206.5,206.6,482.516,LTCEUR,-0.4000000000000057,206.20638521630008,206.43936365603201,-0.23297843973193721,-5.432694662354606,-5.827717491065863,0.39502282871125693,45.173189539406906,-129.99999999999972
