date,date,open,high,low,close,volume,pair,close_open_diff,ema_short,ema_long,ema_sort_ema_long_diff,macd,signal,momentum,rsi,gradient
2021-11-25 00:00:00,2021-11-25 00:00:00,189.6,190.2,189.1,189.7,299.839,LTCEUR,0.09999999999999432,189.1280396333472,188.3606184728292,0.7674211605180119,-0.11166307816796461,-0.4244120320234249,0.3127489538554603,67.50761395933259,165.00000000000057
2021-11-25 01:00:00,2021-11-25 01:00:00,189.9,193.3,188.5,192.8,423.175,LTCEUR,2.9000000000000057,190.9640198166736,189.629013194878,1.3350066217955998,0.287620390399411,-0.28200554753885776,0.5696259379382688,79.8276000620026,275.0
2021-11-25 02:00:00,2021-11-25 02:00:00,193.2,195.7,192.6,195.2,501.992,LTCEUR,2.0,193.0820099083368,191.22072371062717,1.8612861977096316,0.7886245849704494,-0.06787952103699632,0.8565041060074458,85.08241949829184,175.0
2021-11-25 03:00:00,2021-11-25 03:00:00,195.3,199.0,195.3,196.3,1036.543,LTCEUR,1.0,194.69100495416842,192.67194550759083,2.019059446577586,1.259911351828407,0.19767865353608438,1.0622326982923227,86.9518595387733,30.000000000001137
2021-11-25 04:00:00,2021-11-25 04:00:00,196.4,196.4,195.7,195.8,343.981,LTCEUR,-0.5999999999999943,195.24550247708422,193.5656753625649,1.6798271145193269,1.5749091167247684,0.4731247461738213,1.1017843705509471,81.38852839065936,-75.0
2021-11-25 05:00:00,2021-11-25 05:00:00,195.8,195.9,192.3,194.8,843.094,LTCEUR,-1.0,195.02275123854213,193.91833954468922,1.10441169385291,1.723982475356138,0.7232962920102847,1.0006861833458531,70.55445614215037,-135.00000000000085
2021-11-25 06:00:00,2021-11-25 06:00:00,194.8,194.8,192.3,193.1,296.604,LTCEUR,-1.700000000000017,194.06137561927108,193.68452824620658,0.3768473730644928,1.6855187822569917,0.915740790059626,0.7697779921973656,55.486726945888684,-115.00000000000057
2021-11-25 07:00:00,2021-11-25 07:00:00,193.2,194.4,191.5,192.5,351.394,LTCEUR,-0.6999999999999886,193.28068780963554,193.34609160443327,-0.06540379479773151,1.5883119710566973,1.0502550262590402,0.5380569447976571,50.884262743697136,45.000000000000284
2021-11-25 08:00:00,2021-11-25 08:00:00,193.1,194.3,193.0,194.0,182.716,LTCEUR,0.9000000000000057,193.64034390481777,193.53292257459518,0.10742133022259281,1.6137104868279266,1.1629461183728176,0.45076436845510903,60.67095563826087,4.999999999999716
2021-11-25 09:00:00,2021-11-25 09:00:00,193.6,194.3,192.5,192.6,292.31,LTCEUR,-1.0,193.1201719524089,193.26637326756799,-0.14620131515908952,1.503538834092268,1.2310646615167078,0.27247417257556017,49.60146120594877,-29.999999999999716
2021-11-25 10:00:00,2021-11-25 10:00:00,192.6,193.8,191.3,193.4,562.326,LTCEUR,0.8000000000000114,193.26008597620444,193.30455233397714,-0.04446635777270558,1.463905330278351,1.2776327952690365,0.1862725350093144,55.20565722023998,279.9999999999997
2021-11-25 11:00:00,2021-11-25 11:00:00,193.4,200.1,193.1,198.2,1233.699,LTCEUR,4.799999999999983,195.7300429881022,194.70325166712655,1.0267913209756614,1.7990767409052921,1.3819215843962878,0.41715515650900437,75.12285932392464,264.99999999999915
2021-11-25 12:00:00,2021-11-25 12:00:00,198.2,199.2,197.6,198.7,714.727,LTCEUR,0.5,197.2150214940511,195.84517976223324,1.3698417318178429,2.081059165289304,1.521749100574891,0.5593100647144127,76.43271866194502,310.00000000000085
2021-11-25 13:00:00,2021-11-25 13:00:00,198.7,204.4,198.0,204.4,1716.188,LTCEUR,5.700000000000017,200.80751074702556,198.2894141158809,2.518096631144658,2.7329706468974564,1.7639934098394043,0.968977237058052,86.30044050261682,185.00000000000085
2021-11-25 14:00:00,2021-11-25 14:00:00,204.5,204.6,202.2,202.4,583.863,LTCEUR,-2.0999999999999943,201.6037553735128,199.4638672256292,2.139888147883596,3.053038381526079,2.0218024041767393,1.0312359773493398,73.36622805799166,-65.00000000000057
2021-11-25 15:00:00,2021-11-25 15:00:00,203.0,203.8,202.3,203.1,512.624,LTCEUR,0.09999999999999432,202.35187768675638,200.50276230402085,1.8491153827355333,3.3248516963316774,2.282412262607727,1.0424394337239504,74.94346616414701,-10.000000000000853
2021-11-25 16:00:00,2021-11-25 16:00:00,203.4,204.1,201.2,202.2,788.685,LTCEUR,-1.200000000000017,202.27593884337819,200.9876873600149,1.2882514833632968,3.4281259264918162,2.511554995384545,0.9165709311072714,68.66934098390405,-45.000000000000284
2021-11-25 17:00:00,2021-11-25 17:00:00,202.1,202.9,201.2,202.2,570.52,LTCEUR,0.09999999999999432,202.2379694216891,201.33406240001065,0.9039070216784353,3.469971822754104,2.7032383608584567,0.7667334618956474,68.66934098390405,-19.999999999998863
2021-11-25 18:00:00,2021-11-25 18:00:00,202.4,202.7,199.9,201.8,634.102,LTCEUR,-0.5999999999999943,202.01898471084456,201.46718742857905,0.5517972822655111,3.431304398768731,2.848851568440512,0.582452830328219,65.17717474865114,-39.99999999999915
2021-11-25 19:00:00,2021-11-25 19:00:00,201.7,201.7,200.3,201.4,589.701,LTCEUR,-0.29999999999998295,201.7094923554223,201.4479910204136,0.26150133500868833,3.329997392526394,2.9450807332576883,0.3849166592687059,61.428455864007,-125.0
2021-11-25 20:00:00,2021-11-25 20:00:00,201.3,201.4,198.8,199.3,457.953,LTCEUR,-2.0,200.50474617771116,200.83427930029544,-0.32953312258428014,3.0451557506838185,2.9650957367429145,0.080060013940904,45.090079572483134,-120.00000000000028
2021-11-25 21:00:00,2021-11-25 21:00:00,199.3,200.0,198.9,199.0,339.188,LTCEUR,-0.30000000000001137,199.75237308885556,200.31019950021104,-0.5578264113554781,2.7633549686056256,2.9247475831154572,-0.16139261450983167,43.12382486562979,-80.00000000000114
2021-11-25 22:00:00,2021-11-25 22:00:00,199.1,199.8,197.6,197.7,646.996,LTCEUR,-1.4000000000000057,198.72618654442778,199.56442821443648,-0.8382416700086992,2.4073759516656423,2.8212732568254943,-0.413897305159852,35.1526821555031,29.999999999999716
2021-11-25 23:00:00,2021-11-25 23:00:00,197.7,199.7,197.0,199.6,228.272,LTCEUR,1.9000000000000057,199.16309327221387,199.57459158174032,-0.4114983095264506,2.2526074802549374,2.707540101511383,-0.45493262125644574,51.02855811126256,55.00000000000114
