date,date,open,high,low,close,volume,pair,close_open_diff,ema_short,ema_long,ema_sort_ema_long_diff,macd,signal,momentum,rsi,gradient
2021-10-02 00:00:00,2021-10-02 00:00:00,143.8,144.2,141.9,142.8,633.836,LTCEUR,-1.0,143.15984393205878,142.97523019455488,0.18461373750389498,2.919554680475102,2.9154825750448876,0.00407210543021419,59.808282510178344,-25.0
2021-10-02 01:00:00,2021-10-02 01:00:00,142.8,143.3,142.4,143.3,142.058,LTCEUR,0.5,143.2299219660294,143.0680215675392,0.16190039849018945,2.818603143990174,2.896106688833945,-0.07750354484377109,64.57590235368295,69.99999999999886
2021-10-02 02:00:00,2021-10-02 02:00:00,143.3,144.7,141.9,144.2,724.068,LTCEUR,0.8999999999999773,143.7149609830147,143.39144397681372,0.3235170062009729,2.779184098094703,2.872722170686097,-0.0935380725913939,71.8011164277594,25.0
2021-10-02 03:00:00,2021-10-02 03:00:00,144.3,145.4,143.8,143.8,331.613,LTCEUR,-0.5,143.75748049150735,143.50817426915268,0.2493062223546758,2.6847197846655604,2.8351216934819896,-0.15040190881642923,64.75684133457655,15.000000000000568
2021-10-02 04:00:00,2021-10-02 04:00:00,143.9,144.9,143.9,144.5,293.183,LTCEUR,0.5999999999999943,144.12874024575368,143.79155304939476,0.3371871963589115,2.635954641270473,2.795288283039686,-0.15933364176921305,70.77747432739787,-35.00000000000085
2021-10-02 05:00:00,2021-10-02 05:00:00,144.4,144.9,142.7,143.1,289.668,LTCEUR,-1.3000000000000114,143.61437012287684,143.5939664638534,0.020403659023429555,2.456028051530467,2.7274362367378426,-0.27140818520737575,50.196967957302945,-70.00000000000028
2021-10-02 06:00:00,2021-10-02 06:00:00,143.3,143.5,142.6,143.1,197.302,LTCEUR,-0.20000000000001705,143.35718506143843,143.4528331884667,-0.09564812702828362,2.287071002001653,2.639363189790605,-0.35229218778895177,50.196967957302945,15.000000000000568
2021-10-02 07:00:00,2021-10-02 07:00:00,143.0,143.7,142.9,143.4,211.425,LTCEUR,0.4000000000000057,143.37859253071923,143.43773799176194,-0.05914546104270357,2.1525653819776096,2.542003628228006,-0.38943824625039625,54.29764256420518,29.999999999999716
2021-10-02 08:00:00,2021-10-02 08:00:00,143.2,144.0,143.1,143.7,176.705,LTCEUR,0.5,143.5392962653596,143.51266999411567,0.026626271243941346,2.0465844502553523,2.4429197926334756,-0.3963353423781233,58.407233365562256,14.999999999999147
2021-10-02 09:00:00,2021-10-02 09:00:00,143.5,144.2,143.2,143.7,379.976,LTCEUR,0.19999999999998863,143.6196481326798,143.56619285293976,0.053455279740035166,1.9402280570227504,2.3423814455113305,-0.4021533884885802,58.40723336556226,0.0
2021-10-02 10:00:00,2021-10-02 10:00:00,143.6,144.1,142.8,143.7,329.74,LTCEUR,0.09999999999999432,143.6598240663399,143.60442346638553,0.055400599954367635,1.8347895374584766,2.24086306390076,-0.40607352644228323,58.40723336556226,20.000000000000284
2021-10-02 11:00:00,2021-10-02 11:00:00,143.8,144.6,143.6,144.1,418.054,LTCEUR,0.29999999999998295,143.87991203316994,143.74601676170394,0.13389527146600244,1.7631805601650115,2.1453265631536103,-0.3821460029885988,65.54544061713025,-14.999999999999147
2021-10-02 12:00:00,2021-10-02 12:00:00,144.0,144.0,143.1,143.4,301.655,LTCEUR,-0.5999999999999943,143.63995601658496,143.64715482978852,-0.0071988132035585295,1.6311429789787724,2.0424898463186425,-0.41134686733987014,48.18083392170452,-9.999999999999432
2021-10-02 13:00:00,2021-10-02 13:00:00,143.3,144.1,142.7,143.9,506.211,LTCEUR,0.5999999999999943,143.76997800829247,143.7193963069918,0.050581701300671966,1.548992247519692,1.9437903265588523,-0.3947980790391603,57.77028638113437,89.99999999999915
2021-10-02 14:00:00,2021-10-02 14:00:00,144.2,146.1,144.1,145.2,873.513,LTCEUR,1.0,144.48498900414623,144.14242593356556,0.3425630705806668,1.5706805092253262,1.8691683630921472,-0.298487853866821,73.2278543286065,129.99999999999972
2021-10-02 15:00:00,2021-10-02 15:00:00,145.2,148.1,145.2,146.5,1083.572,LTCEUR,1.3000000000000114,145.4924945020731,144.8160185239754,0.6764759780976988,1.6734769477784823,1.8300300800294145,-0.15655313225093215,81.39844592564279,135.00000000000085
2021-10-02 16:00:00,2021-10-02 16:00:00,146.6,148.0,146.3,147.9,743.264,LTCEUR,1.3000000000000114,146.69624725103654,145.69715608855387,0.9990911624826708,1.8466254173254981,1.8333491474886312,0.013276269836866916,86.65980924572469,75.0
2021-10-02 17:00:00,2021-10-02 17:00:00,147.9,148.5,147.5,148.0,371.777,LTCEUR,0.09999999999999432,147.34812362551827,146.3551114918242,0.9930121336940658,1.9692160938386678,1.8605225367586387,0.10869355708002915,86.97557202255648,14.999999999999147
2021-10-02 18:00:00,2021-10-02 18:00:00,148.3,148.5,146.7,148.2,580.829,LTCEUR,-0.10000000000002274,147.77406181275913,146.88222249416015,0.8918393185989828,2.0587761270744807,1.900173254821807,0.15860287225267355,87.6756923170579,-29.999999999999716
2021-10-02 19:00:00,2021-10-02 19:00:00,148.2,148.4,146.8,147.4,491.236,LTCEUR,-0.799999999999983,147.58703090637957,147.0301589244001,0.5568719819794694,2.041664744258412,1.9284715527091283,0.11319319154928387,69.69333928811186,-59.99999999999943
2021-10-02 20:00:00,2021-10-02 20:00:00,147.5,147.8,146.6,147.0,266.316,LTCEUR,-0.5,147.2935154531898,147.02154208885722,0.271973364332581,1.9730827235989636,1.9373937868870954,0.035688936711868235,62.056622248942126,25.0
2021-10-02 21:00:00,2021-10-02 21:00:00,147.4,148.4,147.4,147.9,362.076,LTCEUR,0.5,147.5967577265949,147.27253006346945,0.32422766312544127,1.968659969821914,1.9436470234740593,0.02501294634785478,70.71943061313743,15.000000000000568
2021-10-02 22:00:00,2021-10-02 22:00:00,148.2,148.2,146.7,147.3,311.43,LTCEUR,-0.8999999999999773,147.44837886329745,147.2803786167639,0.16800024653355194,1.8948967300271136,1.9338969647846702,-0.03900023475755665,59.79757827535199,9.999999999999432
2021-10-02 23:00:00,2021-10-02 23:00:00,147.3,148.2,147.3,148.1,335.305,LTCEUR,0.799999999999983,147.77418943164872,147.51455615483135,0.25963327681736814,1.8793284170251638,1.922983255232769,-0.043654838207605184,67.76334375359903,9.999999999999432
