date,date,open,high,low,close,volume,pair,close_open_diff,ema_short,ema_long,ema_sort_ema_long_diff,macd,signal,momentum,rsi,gradient
2022-03-28 00:00:00,2022-03-28 00:00:00,117.3,117.6,116.4,117.0,2570.353,LTCEUR,-0.29999999999999716,116.53808533307563,115.78140119602082,0.7566841370548048,0.5725199749513052,0.28746970914053754,0.2850502658107677,72.01097816192797,39.99999999999986
2022-03-28 01:00:00,2022-03-28 01:00:00,117.1,118.1,117.0,118.1,298.64,LTCEUR,1.0,117.31904266653781,116.44385799715772,0.87518466938009,0.7683881970023378,0.3836534067128976,0.38473479028944024,77.90793526141584,45.000000000000284
2022-03-28 02:00:00,2022-03-28 02:00:00,118.0,119.1,117.5,117.9,509.385,LTCEUR,-0.09999999999999432,117.6095213332689,116.85989856939837,0.7496227638705335,0.8971352291277839,0.4863497711958749,0.41078545793190896,74.48402825995261,10.000000000000142
2022-03-28 03:00:00,2022-03-28 03:00:00,118.0,118.5,117.7,118.3,502.949,LTCEUR,0.29999999999999716,117.95476066663446,117.27135612099883,0.683404545635625,1.019690479606382,0.5930179128779763,0.4266725667284056,76.91855475708351,14.999999999999858
2022-03-28 04:00:00,2022-03-28 04:00:00,118.3,118.4,118.0,118.2,134.062,LTCEUR,-0.09999999999999432,118.07738033331722,117.5366829435706,0.5406973897466258,1.096111938190944,0.6936367179405699,0.4024752202503742,74.77813822767128,25.0
2022-03-28 05:00:00,2022-03-28 05:00:00,118.3,119.3,118.0,118.8,351.945,LTCEUR,0.5,118.4386901666586,117.897630673979,0.541059492679608,1.1913582440541859,0.7931810231632931,0.3981772208908928,78.98799380459116,44.999999999999574
2022-03-28 06:00:00,2022-03-28 06:00:00,118.9,119.2,118.5,119.1,248.127,LTCEUR,0.19999999999998863,118.7693450833293,118.24116476712786,0.5281803162014427,1.27633630996921,0.8898120805244765,0.3865242294447335,80.900742003385,95.00000000000028
2022-03-28 07:00:00,2022-03-28 07:00:00,118.9,121.1,118.9,120.7,1165.589,LTCEUR,1.7999999999999972,119.73467254166465,118.94368911937704,0.79098342228761,1.4560047512420056,1.0030506146679823,0.4529541365740233,87.93171892052568,40.00000000000057
2022-03-28 08:00:00,2022-03-28 08:00:00,120.8,120.8,119.5,119.9,632.668,LTCEUR,-0.8999999999999915,119.81733627083233,119.21692079955503,0.6004154712773015,1.5163603134786143,1.1057125544301087,0.4106477590485056,72.02340727422138,-25.0
2022-03-28 09:00:00,2022-03-28 09:00:00,120.0,120.4,119.9,120.2,422.567,LTCEUR,0.20000000000000284,120.00866813541617,119.49780057111073,0.5108675643054426,1.5702985994078347,1.198629763425654,0.3716688359821807,74.1295824038175,-10.000000000000142
2022-03-28 10:00:00,2022-03-28 10:00:00,120.1,120.2,119.2,119.7,490.509,LTCEUR,-0.3999999999999915,119.8543340677081,119.55557183650765,0.2987622312004419,1.554776759615521,1.2698591626636275,0.28491759695189356,64.42874302557729,-14.999999999999858
2022-03-28 11:00:00,2022-03-28 11:00:00,119.5,120.0,119.5,119.9,364.926,LTCEUR,0.4000000000000057,119.87716703385405,119.65397988321976,0.2231871506342884,1.5408519363068365,1.3240577173922694,0.21679421891456707,66.53107256484344,4.999999999999716
2022-03-28 12:00:00,2022-03-28 12:00:00,119.9,120.2,119.7,119.8,373.976,LTCEUR,-0.10000000000000853,119.83858351692703,119.69569991658554,0.1428836003414915,1.504405400252395,1.3601272539642946,0.14427814628810043,64.25260135044356,9.999999999999432
2022-03-28 13:00:00,2022-03-28 13:00:00,120.0,120.3,119.5,120.1,290.195,LTCEUR,0.09999999999999432,119.96929175846351,119.81121422613253,0.158077532330978,1.4826378247082772,1.3846293681130912,0.09800845659518598,68.17611138612898,14.999999999999858
2022-03-28 14:00:00,2022-03-28 14:00:00,120.0,120.4,119.4,120.1,534.652,LTCEUR,0.09999999999999432,120.03464587923176,119.89372444723753,0.14092143199422935,1.4486872988579478,1.3974409542620627,0.05124634459588506,68.17611138612898,35.00000000000014
2022-03-28 15:00:00,2022-03-28 15:00:00,120.2,121.0,119.8,120.8,446.883,LTCEUR,0.5999999999999943,120.41732293961587,120.15266031945538,0.26466262016049313,1.4614190828913678,1.4102365799879237,0.05118250290344406,76.75021233696087,25.0
2022-03-28 16:00:00,2022-03-28 16:00:00,120.8,120.9,119.8,120.6,716.474,LTCEUR,-0.20000000000000284,120.50866146980793,120.28047165675385,0.2281898130540867,1.4387853628845875,1.4159463365672567,0.022839026317330813,70.26003025625229,-39.99999999999986
2022-03-28 17:00:00,2022-03-28 17:00:00,120.5,121.0,119.9,120.0,822.875,LTCEUR,-0.5,120.25433073490396,120.20033689768132,0.05399383722263451,1.3567927291142325,1.4041156150766518,-0.04732288596241929,53.86285132253683,-69.99999999999957
2022-03-28 18:00:00,2022-03-28 18:00:00,119.8,120.2,118.8,119.2,493.276,LTCEUR,-0.5999999999999943,119.72716536745199,119.91452635548666,-0.18736098803466916,1.213273796911082,1.3659472514435378,-0.15267345453245573,39.218460078824485,-20.000000000000284
2022-03-28 19:00:00,2022-03-28 19:00:00,119.2,120.0,119.0,119.6,315.877,LTCEUR,0.3999999999999915,119.66358268372599,119.82466168249047,-0.16107899876448073,1.1189125389523582,1.3165403089453018,-0.19762776999294362,47.743114056263494,39.99999999999986
2022-03-28 20:00:00,2022-03-28 20:00:00,119.7,120.3,119.0,120.0,525.582,LTCEUR,0.29999999999999716,119.831791341863,119.87475834463606,-0.042967002773067975,1.06414047030718,1.2660603412176774,-0.20191987091049746,55.271036575916725,-9.999999999999432
2022-03-28 21:00:00,2022-03-28 21:00:00,119.8,120.1,118.9,119.4,2282.954,LTCEUR,-0.3999999999999915,119.61589567093151,119.73911310331148,-0.12321743237997396,0.9612376761229626,1.2050958081987344,-0.24385813207577178,43.89025218190473,-25.0
2022-03-28 22:00:00,2022-03-28 22:00:00,119.4,119.8,119.1,119.5,298.72,LTCEUR,0.09999999999999432,119.55794783546575,119.67079507379391,-0.11284723832815757,0.8776387612934826,1.139604398817684,-0.26196563752420143,46.10955395488365,-45.000000000000284
2022-03-28 23:00:00,2022-03-28 23:00:00,119.6,120.1,117.3,118.5,824.222,LTCEUR,-1.0999999999999943,119.02897391773288,119.33628219556707,-0.30730827783418135,0.7223673749023902,1.0561569940346254,-0.33378961913223515,31.26846307654182,-75.0
