date,date,open,high,low,close,volume,pair,close_open_diff,ema_short,ema_long,ema_sort_ema_long_diff,macd,signal,momentum,rsi,gradient
2022-03-24 00:00:00,2022-03-24 00:00:00,110.8,111.5,110.6,111.4,185.857,LTCEUR,0.6000000000000085,110.97441056781344,110.65911764722938,0.31529292058405645,0.36200353419425824,0.24832244148135335,0.11368109271290489,66.25649422725175,50.0
2022-03-24 01:00:00,2022-03-24 01:00:00,111.4,112.0,110.5,111.7,484.862,LTCEUR,0.29999999999999716,111.33720528390671,110.95651260516384,0.38069267874287505,0.4438164767401105,0.2874212485331048,0.1563952282070057,69.1914096883456,-55.000000000000426
2022-03-24 02:00:00,2022-03-24 02:00:00,111.6,111.8,109.9,110.3,503.846,LTCEUR,-1.2999999999999972,110.81860264195336,110.76893757511704,0.04966506683632588,0.3911762866921151,0.3081722561649069,0.08300403052720823,46.528612104982,-35.00000000000014
2022-03-24 03:00:00,2022-03-24 03:00:00,110.3,111.0,110.1,111.0,138.233,LTCEUR,0.7000000000000028,110.90930132097668,110.83495541079787,0.07434591017880621,0.4013165789714179,0.32680112072620915,0.07451545824520878,55.31101036169889,-14.999999999999858
2022-03-24 04:00:00,2022-03-24 04:00:00,111.1,111.1,109.8,110.0,234.382,LTCEUR,-1.0999999999999943,110.45465066048834,110.59639672199849,-0.14174606151014757,0.32491576433015723,0.32642404944699877,-0.0015082851168415345,43.15904107236941,-14.999999999999858
2022-03-24 05:00:00,2022-03-24 05:00:00,109.9,111.1,109.9,110.7,255.018,LTCEUR,0.7999999999999972,110.57732533024418,110.62599765857036,-0.04867232832617674,0.31719528830831223,0.3245782972192615,-0.007383008910949285,52.01472909893155,70.00000000000028
2022-03-24 06:00:00,2022-03-24 06:00:00,110.8,111.4,110.4,111.4,103.345,LTCEUR,0.6000000000000085,110.98866266512209,110.8471411846931,0.1415214804289917,0.36337217702842395,0.332337073181094,0.031035103847329937,59.57287125660342,50.0
2022-03-24 07:00:00,2022-03-24 07:00:00,111.3,112.3,111.2,111.7,451.72,LTCEUR,0.4000000000000057,111.34433133256104,111.09081513192365,0.25351620063739233,0.4193412815580899,0.3497379148564932,0.06960336670159673,62.60227236676351,4.999999999999716
2022-03-24 08:00:00,2022-03-24 08:00:00,111.7,111.7,111.0,111.5,148.184,LTCEUR,-0.20000000000000284,111.42216566628052,111.20772509423117,0.21444057204935518,0.44245848560206014,0.36828202900560664,0.0741764565964535,59.06165125530384,19.999999999999574
2022-03-24 09:00:00,2022-03-24 09:00:00,111.8,112.1,111.4,112.1,389.865,LTCEUR,0.29999999999999716,111.76108283314025,111.46266078159368,0.29842205154656654,0.5033912410712418,0.3953038714187337,0.10808736965250809,65.98693572215657,-4.999999999999716
2022-03-24 10:00:00,2022-03-24 10:00:00,112.1,112.5,111.3,111.4,417.462,LTCEUR,-0.6999999999999886,111.58054141657013,111.44475770113834,0.1357837154317849,0.489553471241436,0.4141537913832742,0.07539967985816182,53.35169422240725,-14.999999999999858
2022-03-24 11:00:00,2022-03-24 11:00:00,111.5,111.9,111.1,111.8,294.845,LTCEUR,0.29999999999999716,111.69027070828506,111.5462555008131,0.14401520747195207,0.5050417886540828,0.43233139083743594,0.07271039781664684,58.7657958103426,-20.000000000000284
2022-03-24 12:00:00,2022-03-24 12:00:00,111.7,111.9,110.8,111.0,191.707,LTCEUR,-0.7000000000000028,111.34513535414253,111.39018250058078,-0.04504714643825025,0.4476033844770342,0.4353857895653556,0.012217594911678564,45.962877447104596,-69.99999999999957
2022-03-24 13:00:00,2022-03-24 13:00:00,111.2,111.5,110.2,110.4,520.782,LTCEUR,-0.7999999999999972,110.87256767707126,111.10727321470056,-0.2347055376292957,0.34963764462919755,0.41823616057812407,-0.06859851594892652,38.42802244091125,-14.999999999999858
2022-03-24 14:00:00,2022-03-24 14:00:00,110.5,110.9,109.5,110.7,605.834,LTCEUR,0.20000000000000284,110.78628383853564,110.99090943907183,-0.20462560053618972,0.29283100919707294,0.39315513030191385,-0.1003241211048409,43.94190227294494,50.0
2022-03-24 15:00:00,2022-03-24 15:00:00,110.9,111.9,109.8,111.4,657.395,LTCEUR,0.5,111.09314191926782,111.10779245647987,-0.014650537212048675,0.3008277363178138,0.37468965150509387,-0.07386191518728008,55.180233244353325,125.0
2022-03-24 16:00:00,2022-03-24 16:00:00,111.7,113.4,111.2,113.2,3260.566,LTCEUR,1.5,112.14657095963392,111.70556604034276,0.44100491929116004,0.44725448564240367,0.38920261833255587,0.05805186730984779,72.30977286714574,150.0
2022-03-24 17:00:00,2022-03-24 17:00:00,113.3,114.6,113.0,114.4,829.64,LTCEUR,1.1000000000000085,113.27328547981696,112.47540431453054,0.7978811652864266,0.6526058763024878,0.44188326992654225,0.21072260637594553,78.79361837670054,10.000000000000142
2022-03-24 18:00:00,2022-03-24 18:00:00,114.5,115.0,113.3,113.4,2411.325,LTCEUR,-1.0999999999999943,113.33664273990848,112.73957451037896,0.5970682295295262,0.726284534212212,0.4987635227836762,0.22752101142853576,63.84410814304613,-30.000000000000426
2022-03-24 19:00:00,2022-03-24 19:00:00,113.4,113.9,113.3,113.8,385.459,LTCEUR,0.3999999999999915,113.56832136995425,113.04255322169925,0.525768148254997,0.8076420635236872,0.5605392309316783,0.24710283259200883,66.86199858531012,50.0
2022-03-24 20:00:00,2022-03-24 20:00:00,113.6,114.6,113.5,114.4,938.376,LTCEUR,0.8000000000000114,113.98416068497713,113.4303951583566,0.5537655266205235,0.9100430672460789,0.6304399981945585,0.2796030690515203,71.19045713680366,50.0
2022-03-24 21:00:00,2022-03-24 21:00:00,114.3,115.0,114.3,114.8,593.957,LTCEUR,0.5,114.39208034248855,113.82171082739757,0.570369515090988,1.0118097446098204,0.706713947477611,0.30509579713220947,73.9161029221381,75.0
2022-03-24 22:00:00,2022-03-24 22:00:00,114.9,116.1,114.8,115.9,2197.177,LTCEUR,1.0,115.14604017124428,114.4155077338554,0.7305324373888737,1.1677601642582403,0.7989231908337369,0.3688369734245034,80.12216450484176,5.000000000000426
2022-03-24 23:00:00,2022-03-24 23:00:00,115.8,115.9,114.8,114.9,560.934,LTCEUR,-0.8999999999999915,115.02302008562214,114.553934095611,0.4690859900111377,1.1968636535638666,0.8785112833797628,0.3183523701841038,63.61140197315145,-50.0
