date,date,open,high,low,close,volume,pair,close_open_diff,ema_short,ema_long,ema_sort_ema_long_diff,macd,signal,momentum,rsi,gradient
2022-04-28 00:00:00,2022-04-28 00:00:00,95.1,95.4,94.8,94.9,267.695,LTCEUR,-0.19999999999998863,94.92115476569275,94.92071639086916,0.00043837482358810576,0.034353417835845335,-0.01236305309435885,0.04671647093020419,50.095603866268775,10.000000000000142
2022-04-28 01:00:00,2022-04-28 01:00:00,94.9,95.3,94.9,95.3,237.147,LTCEUR,0.3999999999999915,95.11057738284637,95.02908313633512,0.08149424651125514,0.06485459073616084,0.0030804756717450893,0.061774115064415755,58.84254389266955,14.999999999999858
2022-04-28 02:00:00,2022-04-28 02:00:00,95.1,95.4,94.9,95.2,432.795,LTCEUR,0.10000000000000853,95.15528869142318,95.07791652595365,0.07737216546952652,0.0800352294388631,0.01847142642516869,0.06156380301369441,55.90304009983891,-25.0
2022-04-28 03:00:00,2022-04-28 03:00:00,95.3,95.9,94.7,94.8,480.388,LTCEUR,-0.5,94.97764434571158,94.99851180425262,-0.020867458541033557,0.05910797794450673,0.0265987367290363,0.03250924121547043,45.09087868263474,4.999999999999716
2022-04-28 04:00:00,2022-04-28 04:00:00,94.9,95.3,94.7,95.3,187.535,LTCEUR,0.3999999999999915,95.13882217285578,95.08465128875187,0.05417088410391102,0.08192442787976972,0.03766387495918299,0.04426055292058673,57.4385435737566,20.000000000000284
2022-04-28 05:00:00,2022-04-28 05:00:00,95.2,95.3,94.9,95.2,495.948,LTCEUR,0.0,95.16941108642789,95.1176080633942,0.05180302303368478,0.09088974417799989,0.04830904880294637,0.04258069537505352,54.49732841979483,-4.999999999999716
2022-04-28 06:00:00,2022-04-28 06:00:00,95.2,95.4,95.2,95.2,210.13,LTCEUR,0.0,95.18470554321394,95.14114861671015,0.043556926503782734,0.09687807182842789,0.058022853408042675,0.03885521842038522,54.49732841979483,-5.000000000000426
2022-04-28 07:00:00,2022-04-28 07:00:00,95.2,95.3,94.9,95.1,299.749,LTCEUR,-0.10000000000000853,95.14235277160697,95.12939186907867,0.01296090252829174,0.09248854993828104,0.06491599271409035,0.02757255722419069,50.754817002100054,0.0
2022-04-28 08:00:00,2022-04-28 08:00:00,95.2,95.4,95.1,95.2,421.857,LTCEUR,0.0,95.17117638580348,95.14956562077049,0.021610765032988866,0.09597267324441816,0.0711273288201559,0.024845344424262256,54.50404580920175,10.000000000000142
2022-04-28 09:00:00,2022-04-28 09:00:00,95.3,95.8,95.2,95.3,435.431,LTCEUR,0.0,95.23558819290173,95.19254687197892,0.043041320922810655,0.10558590178061422,0.07801904341224758,0.027566858368366642,58.31263299114325,54.999999999999716
2022-04-28 10:00:00,2022-04-28 10:00:00,95.4,96.6,95.3,96.3,833.521,LTCEUR,0.8999999999999915,95.76779409645087,95.5089620514135,0.2588320450373658,0.191686455171876,0.10075252576417326,0.09093392940770273,79.20364771554458,75.0
2022-04-28 11:00:00,2022-04-28 11:00:00,96.4,96.9,96.4,96.8,531.595,LTCEUR,0.3999999999999915,96.28389704822544,95.87783003672394,0.4060670115015057,0.2968457325562497,0.13997116712258856,0.15687456543366113,84.01118445720498,60.00000000000014
2022-04-28 12:00:00,2022-04-28 12:00:00,96.8,97.5,96.4,97.5,1214.528,LTCEUR,0.7000000000000028,96.89194852411272,96.34130716908854,0.5506413550241831,0.4316930782840984,0.19831554935489054,0.23337752892920788,88.48374331412526,45.000000000000284
2022-04-28 13:00:00,2022-04-28 13:00:00,97.5,98.3,97.4,97.7,1023.012,LTCEUR,0.20000000000000284,97.29597426205636,96.72950512077753,0.5664691412788301,0.5483775448425661,0.2683279484524257,0.2800495963901404,89.491580493982,4.999999999999716
2022-04-28 14:00:00,2022-04-28 14:00:00,97.7,98.2,97.0,97.6,1285.574,LTCEUR,-0.10000000000000853,97.44798713102819,96.97821794341253,0.469769187615654,0.625570473971365,0.33977645355621355,0.28579402041515145,85.02693662452245,-95.00000000000028
2022-04-28 15:00:00,2022-04-28 15:00:00,97.5,97.7,95.7,95.8,1525.876,LTCEUR,-1.7000000000000028,96.6239935655141,96.64158424529467,-0.017590679780568053,0.5353305127592023,0.37888726539681133,0.15644324736239096,40.92551699425208,-50.0
2022-04-28 16:00:00,2022-04-28 16:00:00,95.6,96.8,95.0,96.6,1827.437,LTCEUR,1.0,96.61199678275705,96.62970303235333,-0.017706249596287194,0.5223467196413196,0.40757915624571306,0.11476756339560656,53.72612582878969,39.99999999999986
2022-04-28 17:00:00,2022-04-28 17:00:00,96.5,98.1,95.8,96.6,1469.946,LTCEUR,0.09999999999999432,96.60599839137852,96.62121645168095,-0.015218060302430558,0.5062215629860845,0.42730763759378737,0.07891392539229708,53.726125828789684,80.00000000000043
2022-04-28 18:00:00,2022-04-28 18:00:00,96.6,98.3,96.5,98.2,2564.521,LTCEUR,1.6000000000000085,97.40299919568926,97.0722974654864,0.3307017302028612,0.6154543141765885,0.46493697291034763,0.15051734126624083,71.5072080858979,130.00000000000043
2022-04-28 19:00:00,2022-04-28 19:00:00,98.2,99.2,97.5,99.2,1572.548,LTCEUR,1.0,98.30149959784464,97.68021247534743,0.6212871224972076,0.7737938848907788,0.5267083553064339,0.24708552958434493,77.88158335833495,29.999999999999716
2022-04-28 20:00:00,2022-04-28 20:00:00,99.2,99.3,98.7,98.8,493.655,LTCEUR,-0.4000000000000057,98.55074979892231,98.00015176810531,0.5505980308169995,0.8571221082720939,0.5927911058995659,0.26433100237252805,70.3292705189189,-30.000000000000426
2022-04-28 21:00:00,2022-04-28 21:00:00,98.9,99.3,98.6,98.6,545.551,LTCEUR,-0.30000000000001137,98.57537489946115,98.17153697721807,0.4038379222430848,0.8966855641033504,0.6535699975403229,0.24311556656302757,66.46229196530768,10.000000000000142
2022-04-28 22:00:00,2022-04-28 22:00:00,98.7,99.4,98.2,99.0,876.225,LTCEUR,0.29999999999999716,98.78768744973058,98.40824069801292,0.3794467517176656,0.9493727666594225,0.7127305513641429,0.23664221529527962,70.37203898234813,10.000000000000142
2022-04-28 23:00:00,2022-04-28 23:00:00,99.0,99.4,98.3,98.8,283.539,LTCEUR,-0.20000000000000284,98.7938437248653,98.52017192715209,0.27367179771320593,0.9638784351388665,0.7629601281190876,0.20091830701977886,65.7715439653594,-35.00000000000014
