date,date,open,high,low,close,volume,pair,close_open_diff,ema_short,ema_long,ema_sort_ema_long_diff,macd,signal,momentum,rsi,gradient
2022-05-16 00:00:00,2022-05-16 00:00:00,67.5,68.8,67.5,67.9,744.449,LTCEUR,0.4000000000000057,67.66081595105956,67.24992821713506,0.41088773392449696,0.6303161365099612,0.40072684008795034,0.22958929642201087,71.37770378200176,64.99999999999986
2022-05-16 01:00:00,2022-05-16 01:00:00,67.9,69.0,67.8,68.8,446.588,LTCEUR,0.8999999999999915,68.23040797552977,67.69280586938218,0.5376021061475882,0.7518094387425833,0.47094335981887697,0.28086607892370635,78.62418801253129,-30.000000000000426
2022-05-16 02:00:00,2022-05-16 02:00:00,68.8,68.9,67.2,67.3,473.569,LTCEUR,-1.5,67.76520398776489,67.58057562098728,0.1846283667776163,0.7187707503066889,0.5205088379164393,0.1982619123902496,52.195082552452824,-104.99999999999972
2022-05-16 03:00:00,2022-05-16 03:00:00,67.4,67.6,66.3,66.7,755.258,LTCEUR,-0.7000000000000028,67.23260199388244,67.32898258641949,-0.09638059253704512,0.6368313704745105,0.5437733444280536,0.09305802604645697,44.94347666628552,-44.999999999999574
2022-05-16 04:00:00,2022-05-16 04:00:00,66.6,66.7,66.1,66.4,764.854,LTCEUR,-0.19999999999998863,66.81630099694122,67.06355899029964,-0.24725799335841714,0.541444889176077,0.5433076533776583,-0.0018627642015812684,41.485278586939415,-45.000000000000284
2022-05-16 05:00:00,2022-05-16 05:00:00,66.5,66.5,65.4,65.8,761.662,LTCEUR,-0.7000000000000028,66.30815049847061,66.70254213592831,-0.39439163745770145,0.4126783310171618,0.517181788905559,-0.10450345788839721,35.01844985023325,-60.00000000000014
2022-05-16 06:00:00,2022-05-16 06:00:00,65.7,65.7,64.9,65.2,1154.108,LTCEUR,-0.5,65.75407524923531,66.27324438280594,-0.5191691335706281,0.2592267161517299,0.46559077435479324,-0.20636405820306336,29.50017650608362,-19.999999999999574
2022-05-16 07:00:00,2022-05-16 07:00:00,65.2,65.7,65.1,65.4,302.42,LTCEUR,0.20000000000000284,65.57703762461766,66.02374598771853,-0.4467083631008677,0.1520013573124288,0.40287289094632034,-0.25087153363389153,33.68047858981136,-95.00000000000028
2022-05-16 08:00:00,2022-05-16 08:00:00,65.1,65.2,63.0,63.3,3011.924,LTCEUR,-1.7999999999999972,64.43851881230883,65.24553284837037,-0.8070140360615454,-0.10126069143419159,0.302046174470218,-0.40330686590440956,19.27771679739277,-90.00000000000021
2022-05-16 09:00:00,2022-05-16 09:00:00,63.2,63.8,62.4,63.6,1565.139,LTCEUR,0.3999999999999986,64.01925940615442,64.77538060597884,-0.7561211998244204,-0.2745997815754606,0.18671698326108227,-0.4613167648365429,24.791121147300856,39.99999999999986
2022-05-16 10:00:00,2022-05-16 10:00:00,63.7,64.3,63.7,64.1,1404.65,LTCEUR,0.3999999999999915,64.0596297030772,64.58241471855631,-0.5227850154791014,-0.36739137890465656,0.0758953108279345,-0.44328668973259105,33.830054421085535,-10.000000000000142
2022-05-16 11:00:00,2022-05-16 11:00:00,63.9,64.1,63.2,63.4,1465.402,LTCEUR,-0.5,63.729814851538606,64.24458194182594,-0.5147670902873358,-0.4917450078217769,-0.03763275290200778,-0.4541122549197691,28.146916757002245,45.000000000000284
2022-05-16 12:00:00,2022-05-16 12:00:00,63.3,65.0,62.4,65.0,1501.961,LTCEUR,1.7000000000000028,64.3649074257693,64.46041567273281,-0.09550824696350446,-0.45593380531727234,-0.1212929633850607,-0.33464084193221166,50.811661116279325,55.00000000000007
2022-05-16 13:00:00,2022-05-16 13:00:00,64.9,65.0,64.3,64.5,786.391,LTCEUR,-0.4000000000000057,64.43245371288465,64.47172548052343,-0.039271767638780375,-0.4625668084226646,-0.1895477323925815,-0.27301907603008313,45.43705260014914,-20.000000000000284
2022-05-16 14:00:00,2022-05-16 14:00:00,64.4,65.4,63.8,64.6,1343.698,LTCEUR,0.19999999999998863,64.51622685644233,64.50837534323102,0.007851513211306838,-0.4545149811300604,-0.24254118214007728,-0.21197379898998311,46.78789633592688,-35.00000000000014
2022-05-16 15:00:00,2022-05-16 15:00:00,64.4,65.1,63.6,63.8,1414.053,LTCEUR,-0.6000000000000085,64.15811342822116,64.30598238802216,-0.14786895980100212,-0.5068445753466051,-0.29540186078138286,-0.21144271456522223,37.80313841087955,-54.999999999999716
2022-05-16 16:00:00,2022-05-16 16:00:00,63.7,64.6,63.5,63.5,1184.189,LTCEUR,-0.20000000000000284,63.82905671411058,64.07570170573011,-0.24664499161953302,-0.5659991625493603,-0.34952132113497836,-0.21647784141438198,34.79624677233993,0.0
2022-05-16 17:00:00,2022-05-16 17:00:00,63.6,64.2,63.1,63.8,1100.693,LTCEUR,0.19999999999999574,63.81452835705529,63.996929789807226,-0.18240143275193788,-0.5819635922660638,-0.39600977536119547,-0.18595381690486829,40.47759772556979,-5.000000000000071
2022-05-16 18:00:00,2022-05-16 18:00:00,63.8,64.0,63.2,63.4,993.193,LTCEUR,-0.3999999999999986,63.60726417852764,63.826378421290876,-0.21911424276323288,-0.6197481045253994,-0.44075744119403626,-0.17899066333136315,35.524999619784964,39.99999999999986
2022-05-16 19:00:00,2022-05-16 19:00:00,63.4,64.6,63.2,64.6,1050.415,LTCEUR,1.1999999999999957,64.10363208926381,64.04741315806491,0.05621893119889876,-0.5465622026827077,-0.46191839349177055,-0.08464380919093717,55.240445810037066,75.00000000000036
2022-05-16 20:00:00,2022-05-16 20:00:00,64.6,65.2,64.4,64.9,1139.812,LTCEUR,0.30000000000001137,64.50181604463191,64.2910093986178,0.21080664601410604,-0.45906256787510813,-0.4613472283684381,0.002284660493329982,59.00145945228903,-4.999999999999716
2022-05-16 21:00:00,2022-05-16 21:00:00,64.9,65.1,64.4,64.5,2355.654,LTCEUR,-0.4000000000000057,64.50090802231595,64.35072099901272,0.15018702330323208,-0.41718607259420537,-0.45251499721359156,0.03532892461938619,52.00917476639586,14.999999999999858
2022-05-16 22:00:00,2022-05-16 22:00:00,64.6,65.3,64.5,65.2,751.056,LTCEUR,0.6000000000000085,64.85045401115798,64.59337214215195,0.25708186900602925,-0.3237821395667879,-0.4267684256842309,0.10298628611744298,61.572656008296704,50.0
2022-05-16 23:00:00,2022-05-16 23:00:00,65.2,65.8,65.1,65.5,878.098,LTCEUR,0.29999999999999716,65.17522700557899,64.85240867296568,0.32281833261330917,-0.22298097107446324,-0.3860109347622774,0.16302996368781414,65.14480653106128,-14.999999999999858
