date,date,open,high,low,close,volume,pair,close_open_diff,ema_short,ema_long,ema_sort_ema_long_diff,macd,signal,momentum,rsi,gradient
2022-11-09 00:00:00,2022-11-09 00:00:00,56.09,58.08,55.87,57.58,368.719,LTCEUR,1.4899999999999949,57.34015995464011,58.40578572223481,-1.0656257675947032,-2.6161695779753913,-1.9320997643139177,-0.6840698136614736,29.104014701665818,39.99999999999986
2022-11-09 01:00:00,2022-11-09 01:00:00,57.48,58.43,56.72,57.08,1358.336,LTCEUR,-0.3999999999999986,57.21007997732005,58.026989801596294,-0.8169098242762445,-2.6841000186372312,-2.0824998151785805,-0.6016002034586507,26.86766890320223,16.499999999999915
2022-11-09 02:00:00,2022-11-09 02:00:00,57.08,58.35,56.74,57.91,592.702,LTCEUR,0.8299999999999983,57.56003998866002,57.993564143997354,-0.4335241553373308,-2.640523013245364,-2.1941044547919373,-0.4464185584534266,36.57569834770551,11.500000000000199
2022-11-09 03:00:00,2022-11-09 03:00:00,57.98,59.52,57.17,57.31,1245.452,LTCEUR,-0.6699999999999946,57.43501999433001,57.79826010285525,-0.3632401085252397,-2.6241533023173105,-2.2801142242970123,-0.3440390780202982,32.798809900739144,57.500000000000284
2022-11-09 04:00:00,2022-11-09 04:00:00,57.28,59.2,57.27,59.06,750.189,LTCEUR,1.7800000000000011,58.24750999716501,58.158757216325185,0.08875278083982607,-2.441822009683449,-2.3124557813743,-0.129366228309149,50.6388203762765,82.99999999999983
2022-11-09 05:00:00,2022-11-09 05:00:00,58.97,59.27,58.54,58.97,690.403,LTCEUR,0.0,58.608754998582505,58.39054086880371,0.21821412977879362,-2.2783223130650896,-2.305629087712458,0.027306774647368304,49.822557833859214,-53.500000000000014
2022-11-09 06:00:00,2022-11-09 06:00:00,58.97,59.21,57.57,57.99,1070.424,LTCEUR,-0.9799999999999969,58.29937749929125,58.276100620574084,0.023276878717169325,-2.2024371112921344,-2.2849906924283934,0.08255358113625899,41.15439071163614,-39.00000000000006
2022-11-09 07:00:00,2022-11-09 07:00:00,58.03,58.55,57.95,58.19,522.054,LTCEUR,0.1599999999999966,58.244688749645626,58.251500443267204,-0.0068116936215787405,-2.1019294790051504,-2.248378449743745,0.14644897073859475,43.55919438198956,-29.50000000000017
2022-11-09 08:00:00,2022-11-09 08:00:00,58.2,58.22,57.25,57.4,402.216,LTCEUR,-0.8000000000000043,57.82234437482281,58.008214602333716,-0.18587022751090387,-2.0622505137773928,-2.211152862550475,0.14890234877308206,36.490711163983654,-76.99999999999996
2022-11-09 09:00:00,2022-11-09 09:00:00,57.39,57.42,55.8,56.65,854.148,LTCEUR,-0.740000000000002,57.236172187411405,57.62015328738122,-0.3839810999698159,-2.0674906348806914,-2.1824204170165182,0.11492978213582683,30.797278918756362,-83.99999999999999
2022-11-09 10:00:00,2022-11-09 10:00:00,56.4,56.71,55.04,55.72,1825.26,LTCEUR,-0.6799999999999997,56.4780860937057,57.07725234812945,-0.5991662544237499,-2.122223030219388,-2.1703809396570923,0.04815790943770448,24.994465415649884,-2.9999999999997584
2022-11-09 11:00:00,2022-11-09 11:00:00,55.68,56.87,54.56,56.59,1224.714,LTCEUR,0.9100000000000037,56.53404304685285,56.938037391521036,-0.4039943446681846,-2.071517949299924,-2.150608341585659,0.07909039228573489,38.089536797942536,80.00000000000007
2022-11-09 12:00:00,2022-11-09 12:00:00,56.72,57.5,56.01,57.32,508.56,LTCEUR,0.6000000000000014,56.927021523426426,57.04716956537217,-0.1201480419457468,-1.9499510859094542,-2.110476890450418,0.16052580454096388,47.34574084122714,17.499999999999716
2022-11-09 13:00:00,2022-11-09 13:00:00,57.22,58.0,56.45,56.94,824.971,LTCEUR,-0.28000000000000114,56.93351076171321,57.01654968955155,-0.08303892783834499,-1.8627981178866122,-2.060941135937657,0.19814301805104462,43.30169776242765,-14.999999999999858
2022-11-09 14:00:00,2022-11-09 14:00:00,57.16,58.07,56.47,57.02,835.064,LTCEUR,-0.13999999999999346,56.9767553808566,57.01753549253682,-0.04078011168022044,-1.766905643021012,-2.002134037354328,0.235228394333316,44.49932255317591,-5.999999999999872
2022-11-09 15:00:00,2022-11-09 15:00:00,57.11,57.67,56.1,56.82,863.001,LTCEUR,-0.28999999999999915,56.898377690428305,56.96109678038344,-0.06271908995513797,-1.6875949502571217,-1.9392262199348869,0.25163126967776517,41.84751702252189,-105.50000000000033
2022-11-09 16:00:00,2022-11-09 16:00:00,56.78,57.94,54.43,54.91,1862.654,LTCEUR,-1.8700000000000045,55.90418884521415,56.37506912884532,-0.47088028363116763,-1.758589764185622,-1.903098928785034,0.14450916459941188,24.865945753594403,-127.49999999999986
2022-11-09 17:00:00,2022-11-09 17:00:00,54.79,55.68,52.78,54.27,917.357,LTCEUR,-0.519999999999996,55.08709442260708,55.773620806318085,-0.6865263837110049,-1.8452257037115345,-1.8915242837703343,0.04629858005879983,21.3777695063565,-40.99999999999966
2022-11-09 18:00:00,2022-11-09 18:00:00,54.37,54.71,53.57,54.09,514.234,LTCEUR,-0.27999999999999403,54.58854721130354,55.292586290227206,-0.7040390789236639,-1.9064336255200232,-1.8945061521202722,-0.011927473399750976,20.411406815698868,-83.99999999999999
2022-11-09 19:00:00,2022-11-09 19:00:00,53.77,54.36,51.91,52.59,812.307,LTCEUR,-1.1799999999999997,53.58927360565177,54.52041877873372,-0.9311451730819513,-2.0523209303498007,-1.9260691077661778,-0.12625182258362289,14.057046416400453,-19.50000000000003
2022-11-09 20:00:00,2022-11-09 20:00:00,52.69,54.25,52.61,53.7,610.205,LTCEUR,1.0100000000000051,53.644636802825886,54.28601341338123,-0.6413766105553407,-2.054684819542942,-1.9517922501215308,-0.10289256942141112,32.67017427027548,38.9999999999997
2022-11-09 21:00:00,2022-11-09 21:00:00,53.68,54.8,52.8,53.37,1108.081,LTCEUR,-0.3100000000000023,53.507318401412945,54.02429529527231,-0.5169768938593648,-2.059446444186648,-1.9733230889345543,-0.08612335525209347,30.326969177240997,-201.50000000000006
2022-11-09 22:00:00,2022-11-09 22:00:00,53.35,53.35,48.13,49.67,1338.971,LTCEUR,-3.6799999999999997,51.58865920070647,52.78021092519451,-1.1915517244880363,-2.3348642817942604,-2.0456313275064955,-0.28923295428776497,15.433562180410334,-180.9999999999999
2022-11-09 23:00:00,2022-11-09 23:00:00,49.47,50.64,48.94,49.75,714.029,LTCEUR,0.28000000000000114,50.66932960035324,51.91443637513894,-1.2451067747857039,-2.517657581551859,-2.140036578315568,-0.3776210032362908,16.497543029893322,51.50000000000006
