date,date,open,high,low,close,volume,pair,close_open_diff,ema_short,ema_long,ema_sort_ema_long_diff,macd,signal,momentum,rsi,gradient
2022-03-15 00:00:00,2022-03-15 00:00:00,96.1,97.0,96.0,96.6,909.469,LTCEUR,0.5,95.87715614690525,95.31057294048833,0.5665832064169223,-0.09900765491515529,-0.2813064520281352,0.18229879711297992,75.02841512833545,54.999999999999716
2022-03-15 01:00:00,2022-03-15 01:00:00,96.6,97.2,95.8,97.1,726.551,LTCEUR,0.5,96.48857807345263,95.8218378146345,0.6667402588181233,0.07067413156718771,-0.21091033530907063,0.2815844668762584,78.55519887231519,-25.0
2022-03-15 02:00:00,2022-03-15 02:00:00,97.4,97.4,95.8,96.1,439.256,LTCEUR,-1.3000000000000114,96.29428903672631,95.90131272473893,0.3929763119873826,0.12303821919219615,-0.1441206244088173,0.26715884360101344,58.6689701450383,-39.99999999999986
2022-03-15 03:00:00,2022-03-15 03:00:00,96.1,96.8,96.1,96.3,565.704,LTCEUR,0.20000000000000284,96.29714451836315,96.01522337481353,0.2819211435496243,0.17861648477654057,-0.07957320257174572,0.2581896873482863,61.03624941081488,-14.999999999999858
2022-03-15 04:00:00,2022-03-15 04:00:00,96.3,96.4,95.6,95.8,242.245,LTCEUR,-0.5,96.04857225918158,95.95373098200966,0.09484127717192337,0.18023915456738848,-0.027610731143918876,0.20784988571130736,52.08634485044641,-35.00000000000014
2022-03-15 05:00:00,2022-03-15 05:00:00,95.7,95.7,95.2,95.6,368.978,LTCEUR,-0.10000000000000853,95.82428612959079,95.85266498714975,-0.028378857558962522,0.16350205363923465,0.010611825812711827,0.1528902278265228,48.661379228293654,-25.0
2022-03-15 06:00:00,2022-03-15 06:00:00,95.5,95.6,95.2,95.3,298.082,LTCEUR,-0.20000000000000284,95.56214306479539,95.69476070510697,-0.13261764031157952,0.12459404517827011,0.033408269685823486,0.09118577549244662,43.51137434474391,0.0
2022-03-15 07:00:00,2022-03-15 07:00:00,95.4,96.0,95.3,95.6,266.223,LTCEUR,0.19999999999998863,95.58107153239769,95.66768621793355,-0.0866146855358636,0.11662231153873392,0.050051078056405574,0.06657123348232835,49.877005647159066,-69.99999999999957
2022-03-15 08:00:00,2022-03-15 08:00:00,95.6,95.6,93.5,93.9,598.286,LTCEUR,-1.6999999999999886,94.74053576619885,95.16263301280969,-0.42209724661084635,-0.02656491352402668,0.03472787974031913,-0.06129279326434581,28.238394406482612,-100.0
2022-03-15 09:00:00,2022-03-15 09:00:00,94.0,94.0,91.0,93.6,4252.518,LTCEUR,-0.4000000000000057,94.17026788309943,94.7161664377212,-0.5458985546217718,-0.16237752673816885,-0.0046932015553784664,-0.15768432518279038,25.8623699285872,0.0
2022-03-15 10:00:00,2022-03-15 10:00:00,93.6,94.2,93.2,93.9,694.602,LTCEUR,0.30000000000001137,94.03513394154972,94.4829760269437,-0.4478420853939866,-0.24300134020521114,-0.052354829285345,-0.19064651091986612,32.66153192667073,45.000000000000284
2022-03-15 11:00:00,2022-03-15 11:00:00,94.1,94.6,94.0,94.5,499.38,LTCEUR,0.4000000000000057,94.26756697077485,94.48784001924551,-0.2202730484706592,-0.2555356517226386,-0.09299099377280373,-0.16254465794983486,44.80923907063369,39.99999999999986
2022-03-15 12:00:00,2022-03-15 12:00:00,94.5,94.9,94.4,94.7,379.172,LTCEUR,0.20000000000000284,94.48378348538742,94.54845715660394,-0.06467367121652501,-0.2464894781055591,-0.12369069063935481,-0.12279878746620429,48.52372075139857,35.00000000000014
2022-03-15 13:00:00,2022-03-15 13:00:00,94.7,95.4,94.7,95.2,741.529,LTCEUR,0.5,94.84189174269372,94.7346122547171,0.10727948797661213,-0.19670698335592363,-0.13829394918266857,-0.05841303417325505,57.17119124397758,-5.000000000000426
2022-03-15 14:00:00,2022-03-15 14:00:00,95.1,95.3,94.2,94.6,352.959,LTCEUR,-0.5,94.72094587134686,94.69615161051222,0.024794260834639203,-0.20332517711783282,-0.15130019476970144,-0.05202498234813138,46.03508466158246,4.999999999999716
2022-03-15 15:00:00,2022-03-15 15:00:00,94.6,95.5,94.4,95.3,771.543,LTCEUR,0.7000000000000028,95.01047293567342,94.86867972179444,0.1417932138789837,-0.15035281978464354,-0.15111071977268986,0.0007578999880463178,57.59806629416472,50.0
2022-03-15 16:00:00,2022-03-15 16:00:00,95.2,96.1,95.1,95.6,1223.643,LTCEUR,0.3999999999999915,95.3052364678367,95.07762837271031,0.22760809512639923,-0.08320521424114702,-0.1375296186663813,0.054324404425234285,61.80677726531274,130.00000000000043
2022-03-15 17:00:00,2022-03-15 17:00:00,95.6,98.1,95.3,97.9,1912.441,LTCEUR,2.3000000000000114,96.60261823391835,95.88402026622165,0.7185979676966952,0.15382729966603392,-0.07925823499989826,0.23308553466593218,80.0366730561654,110.00000000000014
2022-03-15 18:00:00,2022-03-15 18:00:00,97.9,98.0,97.1,97.8,540.037,LTCEUR,-0.10000000000000853,97.20130911695918,96.43144304730117,0.7698660696580077,0.3298063085714773,0.0025546737143768566,0.32725163485710046,78.09195089593351,25.0
2022-03-15 19:00:00,2022-03-15 19:00:00,97.8,98.5,97.7,98.4,581.912,LTCEUR,0.6000000000000085,97.8006545584796,96.99388789092941,0.8067666675501783,0.5117863718612483,0.10440101334375115,0.40738535851749713,81.35397581890984,55.000000000000426
2022-03-15 20:00:00,2022-03-15 20:00:00,98.4,99.0,98.2,98.9,747.912,LTCEUR,0.5,98.35032727923979,97.53849135066386,0.8118359285759311,0.6884170610841664,0.22120422289183422,0.4672128381923322,83.77048820293324,-5.000000000000426
2022-03-15 21:00:00,2022-03-15 21:00:00,99.0,99.3,98.1,98.3,874.548,LTCEUR,-0.7000000000000028,98.32516363961989,97.7560652504742,0.5690983891456938,0.7710944721723934,0.3311822727479461,0.43991219942444726,70.59570304838478,-25.0
2022-03-15 22:00:00,2022-03-15 22:00:00,98.2,98.5,97.9,98.4,465.684,LTCEUR,0.20000000000000284,98.36258181980995,97.94004660748156,0.4225352123283841,0.8350600281854241,0.43195782383544173,0.4031022043499824,71.49239490364847,-25.0
2022-03-15 23:00:00,2022-03-15 23:00:00,98.5,98.8,97.6,97.8,358.539,LTCEUR,-0.7000000000000028,98.08129090990496,97.90003329105825,0.18125761884671476,0.8277958908373932,0.511125437235832,0.3166704536015612,58.62118155215284,-45.000000000000284
