date,date,open,high,low,close,volume,pair,close_open_diff,ema_short,ema_long,ema_sort_ema_long_diff,macd,signal,momentum,rsi,gradient
2022-02-07 00:00:00,2022-02-07 00:00:00,108.5,111.8,108.5,111.5,938.674,LTCEUR,3.0,110.02358115954888,109.29862085806903,0.7249603014798538,0.6910584365931243,0.5995980196598357,0.09146041693328855,73.57081108112699,89.99999999999986
2022-02-07 01:00:00,2022-02-07 01:00:00,111.6,111.9,109.3,110.3,1351.373,LTCEUR,-1.2999999999999972,110.16179057977445,109.58472918433503,0.577061395439415,0.7600016962744292,0.6316787549827545,0.12832294129167465,60.62683671356959,-60.00000000000014
2022-02-07 02:00:00,2022-02-07 02:00:00,110.3,110.7,109.9,110.3,309.038,LTCEUR,0.0,110.23089528988723,109.78909227452502,0.4418030153622112,0.8053560826768944,0.6664142205215825,0.1389418621553119,60.62683671356959,20.000000000000284
2022-02-07 03:00:00,2022-02-07 03:00:00,110.3,111.4,110.0,110.7,313.227,LTCEUR,0.4000000000000057,110.46544764494362,110.04935162466072,0.4160960202829074,0.8636211309103885,0.7058556025993438,0.15776552831104473,63.69298973783597,50.0
2022-02-07 04:00:00,2022-02-07 04:00:00,110.7,111.8,110.7,111.3,434.748,LTCEUR,0.5999999999999943,110.8827238224718,110.40667973190051,0.4760440905712926,0.947291796837959,0.7541428414470669,0.19314895539089216,68.1565926776672,14.999999999999858
2022-02-07 05:00:00,2022-02-07 05:00:00,111.4,111.6,110.9,111.0,161.888,LTCEUR,-0.4000000000000057,110.9413619112359,110.57619980850036,0.36516210273553895,0.9781187653357506,0.7989380262248036,0.179180739110947,63.47444377385015,14.999999999999858
2022-02-07 06:00:00,2022-02-07 06:00:00,111.2,111.8,110.8,111.6,534.205,LTCEUR,0.3999999999999915,111.27068095561795,110.86871414892883,0.4019668066891171,1.0389875438985854,0.8469479297595599,0.19203961413902548,68.64416334330357,60.00000000000014
2022-02-07 07:00:00,2022-02-07 07:00:00,111.8,112.8,111.7,112.2,416.695,LTCEUR,0.4000000000000057,111.73534047780898,111.24908153494917,0.48625894285980564,1.1226996918449714,0.9020982821766423,0.22060140966832908,73.19657642688803,45.000000000000284
2022-02-07 08:00:00,2022-02-07 08:00:00,112.2,113.1,112.1,112.5,479.188,LTCEUR,0.29999999999999716,112.11767023890448,111.60648681067798,0.5111834282265022,1.199423457992765,0.9615633173398669,0.23786014065289807,75.34436129020698,4.999999999999716
2022-02-07 09:00:00,2022-02-07 09:00:00,112.5,112.9,111.7,112.3,674.655,LTCEUR,-0.20000000000000284,112.20883511945223,111.80463343619854,0.40420168325368877,1.229911611436279,1.0152329761591492,0.21467863527712971,70.80539610662021,-39.99999999999986
2022-02-07 10:00:00,2022-02-07 10:00:00,112.2,112.6,111.0,111.7,485.345,LTCEUR,-0.5,111.95441755972612,111.77473816871324,0.17967939101288266,1.1919190067388996,1.0505701822750995,0.14134882446380015,58.186273961949446,-25.0
2022-02-07 11:00:00,2022-02-07 11:00:00,111.9,112.0,111.4,111.8,408.043,LTCEUR,-0.10000000000000853,111.87720877986305,111.78195583479517,0.09525294506788384,1.1565468064006268,1.071765507100205,0.08478129930042178,59.625406990622785,4.999999999999716
2022-02-07 12:00:00,2022-02-07 12:00:00,111.7,112.2,111.5,111.8,440.215,LTCEUR,0.09999999999999432,111.83860438993153,111.78711131056798,0.05149307936355285,1.1156535234415799,1.0805431103684802,0.0351104130730997,59.625406990622785,14.999999999999858
2022-02-07 13:00:00,2022-02-07 13:00:00,111.9,112.8,111.5,112.1,506.016,LTCEUR,0.19999999999998863,111.96930219496576,111.87650807897712,0.09279411598863874,1.0948322502008239,1.083400938334949,0.011431311865874871,64.85145263896479,64.99999999999986
2022-02-07 14:00:00,2022-02-07 14:00:00,112.1,113.1,112.1,113.1,389.203,LTCEUR,1.0,112.53465109748288,112.22607719926938,0.30857389821349557,1.1458146458076328,1.0958836798294858,0.04993096597814706,76.84176485880965,155.00000000000043
2022-02-07 15:00:00,2022-02-07 15:00:00,112.9,115.6,112.8,115.2,994.333,LTCEUR,2.299999999999997,113.86732554874143,113.07576942804955,0.7915561206918795,1.3402217689091742,1.1447512976454235,0.19547047126375072,87.54701893966264,165.00000000000057
2022-02-07 16:00:00,2022-02-07 16:00:00,115.1,116.7,115.0,116.4,714.529,LTCEUR,1.3000000000000114,115.13366277437072,114.02554959146397,1.1081131829067488,1.5729883551692438,1.2303987091501876,0.3425896460190563,90.54430488916778,139.99999999999986
2022-02-07 17:00:00,2022-02-07 17:00:00,116.3,118.4,115.7,118.0,1202.425,LTCEUR,1.7000000000000028,116.56683138718536,115.1611068510457,1.4057245361396582,1.8650648731203603,1.3573319419442222,0.507732931176138,93.17328196167581,179.99999999999972
2022-02-07 18:00:00,2022-02-07 18:00:00,118.1,120.3,117.4,120.0,1358.937,LTCEUR,1.9000000000000057,118.28341569359267,116.54364775074694,1.7397679428457309,2.2321896108527852,1.5323034757259348,0.6998861351268504,95.18243226356593,125.0
2022-02-07 19:00:00,2022-02-07 19:00:00,120.2,121.1,118.8,120.5,1369.708,LTCEUR,0.29999999999999716,119.39170784679634,117.67403410767639,1.7176737391199453,2.5342709340237235,1.7326969673854926,0.8015739666382309,95.57327683082917,20.000000000000284
2022-02-07 20:00:00,2022-02-07 20:00:00,120.2,122.5,120.1,120.4,1425.714,LTCEUR,0.20000000000000284,119.89585392339816,118.45288150548313,1.4429724179150298,2.734086546946557,1.9329748832977056,0.8011116636488513,93.74791440520056,-39.99999999999986
2022-02-07 21:00:00,2022-02-07 21:00:00,120.4,121.0,118.8,119.7,852.571,LTCEUR,-0.7000000000000028,119.79792696169909,118.8092010753451,0.9887258863539898,2.8036391035448105,2.1071077273471266,0.6965313761976839,80.78705774678124,-45.000000000000284
2022-02-07 22:00:00,2022-02-07 22:00:00,119.9,120.0,118.7,119.5,657.059,LTCEUR,-0.4000000000000057,119.64896348084955,119.00657219667507,0.6423912841744794,2.8102271281896805,2.2477316075156377,0.5624955206740427,77.13099027722069,14.999999999999858
2022-02-07 23:00:00,2022-02-07 23:00:00,119.6,120.4,119.6,120.0,368.992,LTCEUR,0.4000000000000057,119.82448174042477,119.29040871191077,0.5340730285140012,2.823249345467687,2.3628351551060476,0.46041419036163944,79.8646965203348,25.0
