date,date,open,high,low,close,volume,pair,close_open_diff,ema_short,ema_long,ema_sort_ema_long_diff,macd,signal,momentum,rsi,gradient
2022-01-21 00:00:00,2022-01-21 00:00:00,118.2,118.4,114.2,114.9,918.041,LTCEUR,-3.299999999999997,117.33654338790153,119.51509037431484,-2.178546986413309,-0.7081116090739812,0.133931180078908,-0.8420427891528892,12.258655209242804,-150.0
2022-01-21 01:00:00,2022-01-21 01:00:00,115.0,115.9,112.7,115.2,701.009,LTCEUR,0.20000000000000284,116.26827169395077,118.28220741022488,-2.013935716274119,-1.1267595766460374,-0.1182069712660811,-1.0085526053799563,15.417396440959706,-250.0
2022-01-21 02:00:00,2022-01-21 02:00:00,115.1,115.1,109.7,109.9,958.028,LTCEUR,-5.199999999999989,113.08413584697539,115.8872910073035,-2.8031551603281173,-1.8647115788560882,-0.46750789278408256,-1.3972036860720056,8.743922895709602,-205.00000000000043
2022-01-21 03:00:00,2022-01-21 03:00:00,110.1,112.7,109.9,111.1,875.283,LTCEUR,1.0,112.09206792348769,114.51949357664535,-2.4274256531576555,-2.3259023318257164,-0.8391867805924094,-1.486715551233307,18.346787423424303,-90.00000000000057
2022-01-21 04:00:00,2022-01-21 04:00:00,111.1,111.3,107.8,108.1,1284.39,LTCEUR,-3.0,110.09603396174384,112.68535255474667,-2.5893185930028295,-2.9000443481771327,-1.251358294109354,-1.6486860540677788,13.94461699800631,-79.99999999999972
2022-01-21 05:00:00,2022-01-21 05:00:00,108.1,110.3,108.1,109.5,444.706,LTCEUR,1.4000000000000057,109.79801698087192,111.77525182481907,-1.9772348439471443,-3.205140864142763,-1.6421148081160357,-1.563026056026727,24.138016457435242,100.0
2022-01-21 06:00:00,2022-01-21 06:00:00,109.3,110.8,109.0,110.1,379.573,LTCEUR,0.7999999999999972,109.94900849043596,111.29660844629933,-1.3475999558633731,-3.3597875263478016,-1.985649351762389,-1.3741381745854127,28.494016231897632,39.99999999999986
2022-01-21 07:00:00,2022-01-21 07:00:00,110.3,110.7,109.7,110.3,592.899,LTCEUR,0.0,110.12450424521798,111.01186317592808,-0.8873589307101071,-3.4267068482879637,-2.273860851067504,-1.1528459972204597,30.099492805822493,45.000000000000284
2022-01-21 08:00:00,2022-01-21 08:00:00,110.0,111.3,109.7,111.0,430.901,LTCEUR,1.0,110.56225212260898,111.00847369709149,-0.4462215744825073,-3.384245270340358,-2.495937734922075,-0.8883075354182832,36.12307547981578,20.000000000000284
2022-01-21 09:00:00,2022-01-21 09:00:00,110.8,111.3,110.3,110.7,711.83,LTCEUR,-0.09999999999999432,110.63112606130449,110.92033835506535,-0.289212293760869,-3.3363423785541926,-2.6640186636484984,-0.6723237149056942,34.59011480953525,-25.0
2022-01-21 10:00:00,2022-01-21 10:00:00,110.8,110.8,109.9,110.5,529.262,LTCEUR,-0.29999999999999716,110.56556303065224,110.80024168218954,-0.23467865153729406,-3.276745043068672,-2.7865639395325332,-0.490181103536139,33.45434881396682,-10.000000000000142
2022-01-21 11:00:00,2022-01-21 11:00:00,110.3,110.9,109.9,110.5,1191.392,LTCEUR,0.20000000000000284,110.53278151532612,110.7144583444211,-0.1816768290949824,-3.1927101501034656,-2.8677931816467197,-0.3249169684567459,33.45434881396682,-14.999999999999858
2022-01-21 12:00:00,2022-01-21 12:00:00,110.2,110.4,109.5,110.2,1124.149,LTCEUR,0.0,110.36639075766305,110.56747024601508,-0.20107948835202194,-3.1144183091751216,-2.9171182071524004,-0.1973001020227212,31.238782711921928,-189.99999999999986
2022-01-21 13:00:00,2022-01-21 13:00:00,110.3,110.4,103.5,106.7,2127.3385,LTCEUR,-3.5999999999999943,108.53319537883152,109.46247874715363,-0.9292833683221033,-3.2967888804230085,-2.9930523418065222,-0.3037365386164863,16.20965206587819,-145.00000000000028
2022-01-21 14:00:00,2022-01-21 14:00:00,106.9,108.1,106.0,107.3,946.432,LTCEUR,0.3999999999999915,107.91659768941577,108.84462767653831,-0.9280299871225424,-3.3542383150995647,-3.065289536465131,-0.2889487786344338,23.755574012852435,35.00000000000014
2022-01-21 15:00:00,2022-01-21 15:00:00,107.2,108.9,106.6,107.4,977.684,LTCEUR,0.20000000000000284,107.65829884470789,108.43187691181308,-0.7735780671051913,-3.3530464099020065,-3.1228409111525064,-0.23020549874950014,25.104548554023054,100.0
2022-01-21 16:00:00,2022-01-21 16:00:00,107.6,109.8,106.7,109.3,778.085,LTCEUR,1.7000000000000028,108.47914942235394,108.67991207986648,-0.2007626575125414,-3.1623342743779688,-3.1307395837975993,-0.031594690580369456,46.63266441477856,64.99999999999986
2022-01-21 17:00:00,2022-01-21 17:00:00,109.1,109.9,108.1,108.7,680.517,LTCEUR,-0.3999999999999915,108.58957471117697,108.6856514856189,-0.09607677444193996,-3.0247411850143777,-3.109539904040955,0.0847987190265771,42.05211742162805,-75.0
2022-01-21 18:00:00,2022-01-21 18:00:00,108.8,109.0,107.5,107.8,710.27,LTCEUR,-1.0,108.19478735558849,108.4326082040135,-0.2378208484250166,-2.9542652183048403,-3.078484966893732,0.12421974858889184,35.73407963533768,-70.00000000000028
2022-01-21 19:00:00,2022-01-21 19:00:00,107.8,108.7,106.4,107.3,651.237,LTCEUR,-0.5,107.74739367779424,108.10900586000965,-0.3616121822154099,-2.905268204862267,-3.0438416144874396,0.1385734096251725,32.48074270749372,-79.99999999999972
2022-01-21 20:00:00,2022-01-21 20:00:00,107.4,107.8,106.2,106.2,637.802,LTCEUR,-1.2000000000000028,106.97369683889713,107.5635756142926,-0.5898787753954764,-2.921521049545575,-3.0193775014990667,0.09785645195349169,26.186682985741285,-19.999999999999574
2022-01-21 21:00:00,2022-01-21 21:00:00,106.3,107.0,103.8,106.9,1540.223,LTCEUR,0.6000000000000085,106.93684841944857,107.37398258163758,-0.437134162189011,-2.84512061675278,-2.98452612454981,0.13940550779702976,35.70134560818792,-250.0
2022-01-21 22:00:00,2022-01-21 22:00:00,106.9,108.6,97.1,101.2,3581.5562,LTCEUR,-5.700000000000003,104.06842420972428,105.60998755831255,-1.5415633485882694,-3.2075405555418683,-3.0291290107482216,-0.17841154479364674,15.80017485058373,-315.00000000000057
2022-01-21 23:00:00,2022-01-21 23:00:00,101.2,103.4,98.0,100.6,2275.15,LTCEUR,-0.6000000000000085,102.33421210486213,104.17856254165181,-1.8443504367896821,-3.5027978801710447,-3.123862784632786,-0.37893509553825844,14.760823759119617,10.000000000000142
