date,date,open,high,low,close,volume,pair,close_open_diff,ema_short,ema_long,ema_sort_ema_long_diff,macd,signal,momentum,rsi,gradient
2022-04-12 00:00:00,2022-04-12 00:00:00,94.7,95.8,94.3,95.3,420.14,LTCEUR,0.5999999999999943,95.25395383498437,95.5362253137125,-0.2822714787281342,-1.6782015036951776,-1.674081925999312,-0.004119577695865573,38.01962164579261,-20.000000000000284
2022-04-12 01:00:00,2022-04-12 01:00:00,95.2,95.5,93.9,94.1,608.011,LTCEUR,-1.1000000000000085,94.67697691749218,95.12587522408036,-0.44889830658817687,-1.7219427037518784,-1.6836540815498255,-0.03828862220205287,27.797771700377155,-29.999999999999716
2022-04-12 02:00:00,2022-04-12 02:00:00,94.3,95.1,94.0,94.7,659.783,LTCEUR,0.4000000000000057,94.6884884587461,95.00419658862884,-0.31570812988275065,-1.6887263481979744,-1.6846685348794554,-0.004057813318518955,37.82714451298084,25.0
2022-04-12 03:00:00,2022-04-12 03:00:00,94.7,95.2,94.5,94.6,484.34,LTCEUR,-0.10000000000000853,94.64424422937304,94.8887118490206,-0.24446761964755126,-1.6514346012745875,-1.6780217481584818,0.026587146883894297,36.804661737853905,-25.0
2022-04-12 04:00:00,2022-04-12 04:00:00,94.6,94.6,93.7,94.2,339.346,LTCEUR,-0.3999999999999915,94.42212211468652,94.6919370350147,-0.2698149203281872,-1.6353064850095365,-1.6694786955286929,0.03417221051915642,32.57782248521052,-19.999999999999574
2022-04-12 05:00:00,2022-04-12 05:00:00,94.2,94.3,93.9,94.2,232.695,LTCEUR,0.0,94.31106105734327,94.55138359643907,-0.24032253909579993,-1.6040345251436463,-1.6563898614516837,0.05235533630803735,32.57782248521052,44.999999999999574
2022-04-12 06:00:00,2022-04-12 06:00:00,94.3,95.1,94.1,95.1,314.568,LTCEUR,0.7999999999999972,94.70553052867163,94.70813114031361,-0.0026006116419807768,-1.4894592343638777,-1.6230037360341225,0.1335445016702448,50.86199872334911,75.0
2022-04-12 07:00:00,2022-04-12 07:00:00,95.1,95.9,94.8,95.7,266.568,LTCEUR,0.6000000000000085,95.20276526433582,94.99152224308115,0.2112430212546741,-1.3348551263812851,-1.565374014103555,0.23051888772226992,59.6220537895993,45.000000000000284
2022-04-12 08:00:00,2022-04-12 08:00:00,95.9,96.1,95.6,96.0,478.782,LTCEUR,0.09999999999999432,95.60138263216791,95.27965874505797,0.3217238871099397,-1.174582903587165,-1.4872157920002773,0.3126328884131122,63.52372833950712,25.0
2022-04-12 09:00:00,2022-04-12 09:00:00,95.9,96.5,95.7,96.2,676.999,LTCEUR,0.29999999999999716,95.90069131608396,95.54261338932712,0.3580779267568488,-1.0196735221548892,-1.3937073380311997,0.37403381587631057,66.1411237846271,10.000000000000142
2022-04-12 10:00:00,2022-04-12 10:00:00,96.1,96.7,95.9,96.2,532.918,LTCEUR,0.10000000000000853,96.05034565804198,95.73043813523365,0.3199075228083217,-0.8866855620907899,-1.2923029828431178,0.405617420752328,66.1411237846271,0.0
2022-04-12 11:00:00,2022-04-12 11:00:00,96.2,96.3,95.8,96.2,600.259,LTCEUR,0.0,96.12517282902098,95.86459866802403,0.26057416099695274,-0.7723880371164569,-1.1883199936977857,0.41593195658132887,66.1411237846271,0.0
2022-04-12 12:00:00,2022-04-12 12:00:00,96.1,96.4,95.8,96.2,512.906,LTCEUR,0.10000000000000853,96.16258641451049,95.96042762001716,0.20215879449332874,-0.6740365513147424,-1.085463305221177,0.4114267539064347,66.1411237846271,35.00000000000014
2022-04-12 13:00:00,2022-04-12 13:00:00,96.2,97.0,96.1,96.9,466.416,LTCEUR,0.7000000000000028,96.53129320725525,96.22887687144083,0.30241633581441363,-0.5334587598596556,-0.9750623961488728,0.44160363628921717,77.73580699797574,44.999999999999574
2022-04-12 14:00:00,2022-04-12 14:00:00,97.0,97.1,96.1,97.1,1588.304,LTCEUR,0.09999999999999432,96.81564660362761,96.4777691938863,0.33787740974131,-0.4012857464989992,-0.8603070662188982,0.459021319719899,80.07515340304565,-10.000000000000142
2022-04-12 15:00:00,2022-04-12 15:00:00,97.1,97.4,96.4,96.7,960.373,LTCEUR,-0.3999999999999915,96.7578233018138,96.54126370991878,0.21655959189502028,-0.3250671662705855,-0.7532590862292358,0.42819191995865025,63.94894691010968,-64.99999999999986
2022-04-12 16:00:00,2022-04-12 16:00:00,96.7,96.7,95.5,95.8,681.38,LTCEUR,-0.9000000000000057,96.2789116509069,96.32947407851341,-0.050562427606507754,-0.333442157074316,-0.6692957003982519,0.3358535433239359,41.42445495163926,-14.999999999999858
2022-04-12 17:00:00,2022-04-12 17:00:00,95.9,96.8,95.7,96.4,533.593,LTCEUR,0.5,96.33945582545346,96.3496243417953,-0.010168516341849454,-0.28834060107067216,-0.593104680532736,0.30476407946206385,54.301438103748744,35.00000000000014
2022-04-12 18:00:00,2022-04-12 18:00:00,96.5,96.7,95.7,96.5,759.435,LTCEUR,0.0,96.41972791272673,96.39258881556808,0.027139097158652703,-0.2417414833918059,-0.5228320411045501,0.28109055771274416,56.226051512663076,-10.000000000000142
2022-04-12 19:00:00,2022-04-12 19:00:00,96.5,96.7,96.1,96.2,516.977,LTCEUR,-0.29999999999999716,96.30986395636336,96.33756343969148,-0.027699483328120778,-0.22640893839107434,-0.46354742056185494,0.2371384821707806,48.82363400908918,-50.0
2022-04-12 20:00:00,2022-04-12 20:00:00,96.1,96.3,95.3,95.5,507.083,LTCEUR,-0.5999999999999943,95.90493197818168,96.09825959977962,-0.1933276215979447,-0.26765655768235774,-0.42436924798595554,0.1567126903035978,35.67328841470774,-60.00000000000014
2022-04-12 21:00:00,2022-04-12 21:00:00,95.5,95.9,95.0,95.0,484.472,LTCEUR,-0.5,95.45246598909084,95.78447114269973,-0.3320051536088897,-0.3368088912275624,-0.40685717663427695,0.07004828540671454,28.9822643897173,4.999999999999716
2022-04-12 22:00:00,2022-04-12 22:00:00,95.0,95.7,95.0,95.6,576.623,LTCEUR,0.5999999999999943,95.52623299454541,95.73176510192837,-0.20553210738296457,-0.33928654410510717,-0.393343050128443,0.05405650602333584,44.084579608688976,54.999999999999716
2022-04-12 23:00:00,2022-04-12 23:00:00,95.7,96.1,95.5,96.1,354.039,LTCEUR,0.3999999999999915,95.8131164972727,95.83697507280598,-0.023858575533282078,-0.2974751719253561,-0.37416947448782567,0.07669430256246956,53.89010452674962,40.00000000000057
