date,date,open,high,low,close,volume,pair,close_open_diff,ema_short,ema_long,ema_sort_ema_long_diff,macd,signal,momentum,rsi,gradient
2022-02-19 00:00:00,2022-02-19 00:00:00,101.8,102.1,101.4,101.6,233.814,LTCEUR,-0.20000000000000284,101.79475045042446,102.1318836636877,-0.3371332132632432,-1.1494269353606512,-1.0904376092862864,-0.0589893260743648,33.08301756102698,25.0
2022-02-19 01:00:00,2022-02-19 01:00:00,101.6,102.3,101.2,102.3,447.03,LTCEUR,0.7000000000000028,102.04737522521222,102.17991690263408,-0.1325416774218553,-1.0987356247811277,-1.0920972123852548,-0.006638412395872928,45.44198648798236,35.00000000000014
2022-02-19 02:00:00,2022-02-19 02:00:00,102.2,102.6,102.0,102.3,213.402,LTCEUR,0.09999999999999432,102.1736876126061,102.21422635902434,-0.040538746418235405,-1.0464990068082045,-1.0829775712698448,0.03647856446164033,45.441986487982355,20.000000000000284
2022-02-19 03:00:00,2022-02-19 03:00:00,102.3,102.8,102.0,102.7,160.206,LTCEUR,0.4000000000000057,102.43684380630305,102.35301882787452,0.08382497842852388,-0.9617381350994236,-1.0587296840357605,0.09699154893633688,52.63955934451288,35.00000000000014
2022-02-19 04:00:00,2022-02-19 04:00:00,102.6,103.1,102.6,103.0,245.943,LTCEUR,0.4000000000000057,102.71842190315152,102.53787059133894,0.18055131181257877,-0.8604384420500821,-1.019071435638625,0.15863299358854288,57.665987338225555,29.999999999999716
2022-02-19 05:00:00,2022-02-19 05:00:00,102.9,103.3,102.7,103.3,198.067,LTCEUR,0.3999999999999915,103.00921095157577,102.7556218509564,0.2535891006193651,-0.7473353954495963,-0.9647242276008193,0.21738883215122307,62.44846227657358,-4.999999999999716
2022-02-19 06:00:00,2022-02-19 06:00:00,103.1,103.3,102.6,102.9,445.767,LTCEUR,-0.19999999999998863,102.95460547578789,102.79687275068315,0.15773272510473646,-0.6821140866264273,-0.908202199405941,0.2260881127795138,52.88871771747328,-4.999999999999716
2022-02-19 07:00:00,2022-02-19 07:00:00,102.9,103.6,102.7,103.2,332.743,LTCEUR,0.29999999999999716,103.07730273789394,102.91205196477368,0.16525077312026326,-0.5993097667606833,-0.8464237128768896,0.2471139461162063,58.59345954541347,25.0
2022-02-19 08:00:00,2022-02-19 08:00:00,103.2,103.5,103.0,103.4,350.687,LTCEUR,0.20000000000000284,103.23865136894698,103.05146568912406,0.18718567982291745,-0.5116504304925229,-0.7794690564000163,0.2678186259074934,62.25036562443345,-25.0
2022-02-19 09:00:00,2022-02-19 09:00:00,103.4,103.6,102.4,102.7,413.417,LTCEUR,-0.7000000000000028,102.96932568447349,102.9510469208029,0.01827876367059389,-0.49298114503466195,-0.7221714741269455,0.22919032909228354,45.40733710471582,-50.0
2022-02-19 10:00:00,2022-02-19 10:00:00,102.5,103.0,102.3,102.4,484.753,LTCEUR,-0.09999999999999432,102.68466284223675,102.79360494343064,-0.10894210119388958,-0.4966678171684151,-0.6770707427352395,0.18040292556682436,39.86072346833051,-25.0
2022-02-19 11:00:00,2022-02-19 11:00:00,102.6,102.6,101.7,102.2,359.442,LTCEUR,-0.3999999999999915,102.44233142111838,102.62400353102188,-0.18167210990350213,-0.5098506193567687,-0.6436267180595453,0.13377609870277662,36.31222420322516,-100.0
2022-02-19 12:00:00,2022-02-19 12:00:00,102.3,102.4,100.0,100.4,602.158,LTCEUR,-1.8999999999999915,101.4211657105592,101.98857395072991,-0.567408240170721,-0.6579585057509689,-0.6464930755978301,-0.011465430153138834,18.51302035506268,-80.00000000000043
2022-02-19 13:00:00,2022-02-19 13:00:00,100.4,101.1,100.1,100.6,483.121,LTCEUR,0.19999999999998863,101.0105828552796,101.59183853623566,-0.5812556809560618,-0.7505449294985738,-0.6673034463779789,-0.08324148312059487,23.511982703336557,94.99999999999957
2022-02-19 14:00:00,2022-02-19 14:00:00,100.8,102.5,100.2,102.3,527.184,LTCEUR,1.5,101.6552914276398,101.79417038302547,-0.13887895538567818,-0.6789183962011265,-0.6696264363426084,-0.00929195985851805,52.95178827570497,55.000000000000426
2022-02-19 15:00:00,2022-02-19 15:00:00,102.2,102.3,101.3,101.7,329.505,LTCEUR,-0.5,101.6776457138199,101.76726455930392,-0.08961884548402566,-0.6629270279914152,-0.6682865546723697,0.005359526680954518,45.529791363367046,14.999999999999858
2022-02-19 16:00:00,2022-02-19 16:00:00,101.8,102.9,101.5,102.6,728.951,LTCEUR,0.7999999999999972,102.13882285690994,102.00518897093139,0.1336338859785542,-0.5710485824938587,-0.6488389602366675,0.07779037774280884,56.50377300485237,19.999999999999574
2022-02-19 17:00:00,2022-02-19 17:00:00,102.6,103.5,101.7,102.1,755.667,LTCEUR,-0.5,102.11941142845497,102.03227783637955,0.08713359207541771,-0.5324424091553936,-0.6255596500204128,0.09311724086501916,49.81326710134971,15.000000000000568
2022-02-19 18:00:00,2022-02-19 18:00:00,101.7,102.9,101.4,102.9,355.257,LTCEUR,1.2000000000000028,102.5097057142275,102.28019845455682,0.22950725967066887,-0.43231002367191707,-0.5869097247507138,0.15459970107879673,59.10946797754025,10.000000000000142
2022-02-19 19:00:00,2022-02-19 19:00:00,102.6,102.8,102.1,102.3,198.654,LTCEUR,-0.29999999999999716,102.40485285711375,102.28585603896916,0.11899681814459484,-0.396795362410856,-0.5488868522827423,0.15209148987188625,50.66341927318665,-65.00000000000057
2022-02-19 20:00:00,2022-02-19 20:00:00,102.3,102.4,101.5,101.6,367.898,LTCEUR,-0.7000000000000028,102.00242642855687,102.08989717069225,-0.08747074213538042,-0.42028905672297867,-0.5231672931707896,0.10287823644781091,42.217983677837566,-25.0
2022-02-19 21:00:00,2022-02-19 21:00:00,101.6,102.1,101.5,101.8,333.313,LTCEUR,0.20000000000000284,101.90121321427844,102.00706940763732,-0.10585619335887486,-0.4179517624464637,-0.5021241870259244,0.08417242457946073,45.34187208719079,0.0
2022-02-19 22:00:00,2022-02-19 22:00:00,101.8,101.9,101.0,101.6,325.403,LTCEUR,-0.20000000000000284,101.75060660713922,101.89076386259808,-0.1401572554588597,-0.4273119818885647,-0.4871617459984525,0.05984976410988785,42.57948539263199,10.000000000000142
2022-02-19 23:00:00,2022-02-19 23:00:00,101.6,102.1,101.1,102.0,295.001,LTCEUR,0.4000000000000057,101.87530330356961,101.92197418757006,-0.04667088400044861,-0.39786700302536815,-0.4693027974038357,0.07143579437846753,49.90430118013289,40.00000000000057
