date,date,open,high,low,close,volume,pair,close_open_diff,ema_short,ema_long,ema_sort_ema_long_diff,macd,signal,momentum,rsi,gradient
2022-03-11 00:00:00,2022-03-11 00:00:00,93.8,94.0,93.1,93.3,160.104,LTCEUR,-0.5,93.49167875187769,93.45152849666428,0.04015025521340476,-0.27407962100399175,-0.500583129838988,0.22650350883499626,49.59885914887083,-44.999999999999574
2022-03-11 01:00:00,2022-03-11 01:00:00,93.4,93.4,92.6,92.9,241.718,LTCEUR,-0.5,93.19583937593885,93.29394892618878,-0.09810955024993007,-0.2863889139656237,-0.45774428666431516,0.17135537269869144,41.32826889149107,-60.00000000000014
2022-03-11 02:00:00,2022-03-11 02:00:00,92.8,92.9,91.6,92.1,1020.367,LTCEUR,-0.7000000000000028,92.64791968796942,92.95282066156341,-0.3049009735939876,-0.3565869194032132,-0.4375128132120948,0.0809258938088816,29.51599539353954,-60.00000000000014
2022-03-11 03:00:00,2022-03-11 03:00:00,92.2,92.2,90.7,91.7,630.259,LTCEUR,-0.5,92.1739598439847,92.59487190111672,-0.4209120571320142,-0.4394305200235067,-0.43789635457437714,-0.0015341654491295431,25.195271008221084,-9.999999999999432
2022-03-11 04:00:00,2022-03-11 04:00:00,91.6,92.1,91.3,91.9,261.758,LTCEUR,0.30000000000001137,92.03697992199236,92.39633707222623,-0.35935715023387615,-0.48337430375707413,-0.4469919444109166,-0.03638235934615752,31.235004806036514,10.000000000000142
2022-03-11 05:00:00,2022-03-11 05:00:00,92.0,92.0,91.3,91.9,164.236,LTCEUR,-0.09999999999999432,91.96848996099618,92.25452648016159,-0.28603651916540684,-0.5122946550724663,-0.46005248654322656,-0.05224216852923974,31.235004806036514,39.99999999999986
2022-03-11 06:00:00,2022-03-11 06:00:00,91.6,92.7,91.4,92.7,320.847,LTCEUR,1.1000000000000085,92.33424498049808,92.38180462868685,-0.047559648188766346,-0.46529727043269986,-0.46110144332112124,-0.0041958271115786205,53.063435885194096,69.99999999999957
2022-03-11 07:00:00,2022-03-11 07:00:00,92.6,93.6,92.6,93.3,614.064,LTCEUR,0.7000000000000028,92.81712249024903,92.64414616334776,0.17297632690127784,-0.37531017682111667,-0.44394319002112037,0.0686330132000037,63.493141994724034,69.99999999999957
2022-03-11 08:00:00,2022-03-11 08:00:00,93.4,94.6,93.4,94.1,765.233,LTCEUR,0.6999999999999886,93.45856124512451,93.06010440239126,0.3984568427332533,-0.23671276528132523,-0.4024971050731614,0.16578433979183615,73.06827686448804,50.0
2022-03-11 09:00:00,2022-03-11 09:00:00,94.2,95.0,93.9,94.3,755.234,LTCEUR,0.09999999999999432,93.87928062256225,93.41436028742233,0.46492033513992226,-0.10947305236231841,-0.3438922945309928,0.23441924216867438,75.03281841165499,5.000000000000426
2022-03-11 10:00:00,2022-03-11 10:00:00,94.2,94.6,93.9,94.2,452.306,LTCEUR,0.0,94.03964031128112,93.63882877673024,0.4008115345508827,-0.01651347041880058,-0.27841652970855435,0.26190305928975377,71.88654862251248,-4.999999999999716
2022-03-11 11:00:00,2022-03-11 11:00:00,94.2,94.5,93.9,94.2,461.292,LTCEUR,0.0,94.11982015564055,93.79916341195016,0.32065674369039243,0.0565062985730691,-0.21143196405222967,0.26793826262529874,71.88654862251248,104.99999999999972
2022-03-11 12:00:00,2022-03-11 12:00:00,94.1,96.9,93.2,96.3,1417.519,LTCEUR,2.200000000000003,95.20991007782027,94.51368815139298,0.6962219264272846,0.2805929403920544,-0.11302698316337287,0.3936199235554273,87.60441376311505,119.99999999999957
2022-03-11 13:00:00,2022-03-11 13:00:00,96.4,97.1,96.2,96.6,566.15,LTCEUR,0.19999999999998863,95.90495503891013,95.10977725099498,0.7951777879151507,0.476893381242931,0.0049570897178879,0.47193629152504313,88.68854320721523,-35.00000000000014
2022-03-11 14:00:00,2022-03-11 14:00:00,96.7,96.7,95.3,95.6,473.689,LTCEUR,-1.1000000000000085,95.75247751945506,95.24984089356784,0.5026366258872201,0.545483260755816,0.11306232392547352,0.43242093683034244,65.70282402475053,-59.99999999999943
2022-03-11 15:00:00,2022-03-11 15:00:00,95.6,96.2,95.1,95.4,707.523,LTCEUR,-0.19999999999998863,95.57623875972753,95.29274349540559,0.2834952643219424,0.5770510209353574,0.20586006332745033,0.3711909576079071,61.85532173269021,-44.999999999999574
2022-03-11 16:00:00,2022-03-11 16:00:00,95.3,95.4,94.4,94.7,839.746,LTCEUR,-0.5999999999999943,95.13811937986377,95.123388211004,0.014731168859768218,0.5393670607234782,0.27256146280665594,0.26680559791682223,49.64516814415943,-90.00000000000057
2022-03-11 17:00:00,2022-03-11 17:00:00,94.7,94.8,93.5,93.6,708.77,LTCEUR,-1.1000000000000085,94.36905968993187,94.68813443643143,-0.3190747464995525,0.4159466695520848,0.3012385041557417,0.1147081653963431,36.178266201384226,-14.999999999999858
2022-03-11 18:00:00,2022-03-11 18:00:00,93.8,94.6,93.8,94.4,640.681,LTCEUR,0.6000000000000085,94.38452984496594,94.60581031173673,-0.22128046677079283,0.37832731271350895,0.3166562658672952,0.06167104684621377,48.3951349138779,25.0
2022-03-11 19:00:00,2022-03-11 19:00:00,94.5,94.9,94.1,94.1,641.858,LTCEUR,-0.4000000000000057,94.24226492248297,94.46129307981195,-0.21902815732897807,0.32061041134180357,0.3174470949621969,0.003163316379606651,44.557003838850456,9.999999999999432
2022-03-11 20:00:00,2022-03-11 20:00:00,94.0,94.8,94.0,94.6,431.894,LTCEUR,0.5999999999999943,94.42113246124148,94.5009236284371,-0.07979116719562285,0.3116229768045429,0.3162822713306661,-0.004659294526123237,52.14723692029467,0.0
2022-03-11 21:00:00,2022-03-11 21:00:00,94.5,95.1,94.0,94.1,541.424,LTCEUR,-0.4000000000000057,94.26056623062074,94.38637402031222,-0.12580778969147843,0.2611442406080329,0.30525466518613953,-0.044110424578106655,44.78918530916394,60.00000000000014
2022-03-11 22:00:00,2022-03-11 22:00:00,94.3,96.1,94.3,95.8,737.798,LTCEUR,1.5,95.03028311531037,94.79026715736586,0.24001595794450736,0.3542319060881738,0.3150501133665464,0.03918179272162736,64.96095355187651,105.00000000000043
2022-03-11 23:00:00,2022-03-11 23:00:00,95.9,96.4,95.7,96.2,245.374,LTCEUR,0.29999999999999716,95.61514155765519,95.19304796954704,0.42209358810815445,0.45503583880237386,0.3430472584537119,0.11198858034866194,68.23757166944273,14.999999999999858
