date,date,open,high,low,close,volume,pair,close_open_diff,ema_short,ema_long,ema_sort_ema_long_diff,macd,signal,momentum,rsi,gradient
2022-02-15 00:00:00,2022-02-15 00:00:00,110.2,110.9,110.0,110.3,312.185,LTCEUR,0.09999999999999432,110.01084584140827,109.89893295147107,0.1119128899372015,-0.14663081699116276,-0.1668609220012456,0.02023010501008285,56.362227007853775,-10.000000000000142
2022-02-15 01:00:00,2022-02-15 01:00:00,110.3,110.7,109.7,110.0,251.318,LTCEUR,-0.29999999999999716,110.00542292070413,109.92780925105076,0.07761366965337402,-0.131249928917768,-0.15973872338455009,0.028488794466782097,51.00725293187419,130.00000000000043
2022-02-15 02:00:00,2022-02-15 02:00:00,110.0,113.9,109.7,112.9,617.215,LTCEUR,2.9000000000000057,111.45271146035208,110.77700660789341,0.6757048524586651,0.1136353814408011,-0.10506390241947987,0.21869928386028098,76.69360187436776,150.0
2022-02-15 03:00:00,2022-02-15 03:00:00,112.9,113.2,112.6,113.0,517.237,LTCEUR,0.09999999999999432,112.22635573017604,111.41214757706672,0.8142081531093197,0.31217930971102703,-0.02161525999337849,0.3337945697044055,77.18849093186026,0.0
2022-02-15 04:00:00,2022-02-15 04:00:00,112.8,113.8,112.7,112.9,283.787,LTCEUR,0.10000000000000853,112.56317786508802,111.83724826933337,0.7259295957546499,0.45619886251860464,0.07394756450901814,0.3822512980095865,75.27053364384878,-14.999999999999858
2022-02-15 05:00:00,2022-02-15 05:00:00,113.0,113.5,112.4,112.7,563.477,LTCEUR,-0.29999999999999716,112.63158893254402,112.08374876380955,0.5478401687344672,0.5478814310998246,0.16873433782717945,0.3791470932726451,71.03443050342388,-10.000000000000142
2022-02-15 06:00:00,2022-02-15 06:00:00,112.6,113.2,112.6,112.7,537.746,LTCEUR,0.10000000000000853,112.66579446627202,112.25982054557824,0.405973920693782,0.6134688403176227,0.2576812383252681,0.3557876019923546,71.03443050342388,-10.000000000000142
2022-02-15 07:00:00,2022-02-15 07:00:00,112.6,112.8,112.5,112.5,138.301,LTCEUR,-0.09999999999999432,112.58289723313601,112.3284432468416,0.25445398629440774,0.6419094732909087,0.33452688531839625,0.3073825879725125,65.70929310454562,39.99999999999986
2022-02-15 08:00:00,2022-02-15 08:00:00,112.5,113.6,112.5,113.5,497.583,LTCEUR,1.0,113.041448616568,112.663173747744,0.3782748688240076,0.7366488925914467,0.4149512867730064,0.3216976058184403,76.34786806789123,114.99999999999986
2022-02-15 09:00:00,2022-02-15 09:00:00,113.5,115.4,113.5,114.8,518.09,LTCEUR,1.2999999999999972,113.92072430828401,113.27369553410286,0.6470287741811518,0.9061837778828448,0.5131977849949741,0.3929859928878706,84.0617412118573,95.00000000000028
2022-02-15 10:00:00,2022-02-15 10:00:00,114.9,115.5,114.5,115.4,463.728,LTCEUR,0.5,114.660362154142,113.88121109578776,0.7791510583542447,1.0765466221666173,0.6258675524293028,0.45067906973731453,86.50021549519931,64.99999999999986
2022-02-15 11:00:00,2022-02-15 11:00:00,115.6,116.1,114.6,116.1,634.665,LTCEUR,0.5,115.380181077071,114.51515078270555,0.8650302943654538,1.2535939033329129,0.7514128226100248,0.502181080722888,88.88168179718079,14.999999999999858
2022-02-15 12:00:00,2022-02-15 12:00:00,116.0,116.1,115.3,115.7,414.854,LTCEUR,-0.29999999999999716,115.54009053853551,114.85367913050396,0.686411408031546,1.3461113583397406,0.870352529755968,0.4757588285837726,79.29030622528256,-25.0
2022-02-15 13:00:00,2022-02-15 13:00:00,115.7,115.9,115.0,115.6,460.965,LTCEUR,-0.10000000000000853,115.57004526926775,115.06691366464568,0.5031316046220695,1.3952790355292706,0.9753378309106286,0.41994120461864193,76.8038940261847,14.999999999999858
2022-02-15 14:00:00,2022-02-15 14:00:00,115.5,116.5,115.3,116.0,605.556,LTCEUR,0.5,115.78502263463388,115.3335097604612,0.4515128741726784,1.4498089360563284,1.0702320519397686,0.3795768841165599,79.83858989756766,30.000000000000426
2022-02-15 15:00:00,2022-02-15 15:00:00,116.0,116.8,115.7,116.2,512.153,LTCEUR,0.20000000000000284,115.99251131731694,115.58107840032943,0.4114329169875077,1.4919641693917072,1.1545784754301562,0.33738569396155094,81.30600649675058,-10.000000000000142
2022-02-15 16:00:00,2022-02-15 16:00:00,116.2,116.2,115.4,115.8,503.191,LTCEUR,-0.4000000000000057,115.89625565865848,115.64362742880672,0.2526282298517515,1.4760805012710847,1.218878880598342,0.25720162067274277,69.21543764094133,-70.00000000000028
2022-02-15 17:00:00,2022-02-15 17:00:00,115.7,115.8,114.7,114.8,346.605,LTCEUR,-0.9000000000000057,115.34812782932923,115.40259102057622,-0.05446319124699528,1.3670425219598172,1.248511608870637,0.11853091308918029,47.86307435183795,-94.99999999999957
2022-02-15 18:00:00,2022-02-15 18:00:00,114.9,115.0,113.7,113.9,486.37,LTCEUR,-1.0,114.62406391466462,114.97327930041159,-0.3492153857469731,1.1942402017363491,1.2376573274437794,-0.04341712570743028,35.90168621705914,-19.999999999999574
2022-02-15 19:00:00,2022-02-15 19:00:00,114.0,114.6,113.7,114.4,422.957,LTCEUR,0.4000000000000057,114.51203195733231,114.80948521457971,-0.2974532572473976,1.0851302334503146,1.2071519086450866,-0.12202167519477203,45.05571474076804,14.999999999999858
2022-02-15 20:00:00,2022-02-15 20:00:00,114.5,114.6,113.9,114.2,432.19,LTCEUR,-0.29999999999999716,114.35601597866616,114.63534658184264,-0.27933060317647573,0.9713246431014255,1.1599864555363544,-0.18866181243492885,42.16528800943753,-10.000000000000142
2022-02-15 21:00:00,2022-02-15 21:00:00,114.1,114.5,113.9,114.2,450.131,LTCEUR,0.10000000000000853,114.27800798933308,114.51096184417332,-0.23295385484024678,0.8710914923368875,1.102207462896461,-0.23111597055957356,42.16528800943753,-25.0
2022-02-15 22:00:00,2022-02-15 22:00:00,114.2,114.4,113.4,113.7,555.545,LTCEUR,-0.5,113.98900399466655,114.2792584601238,-0.2902544654572523,0.7427482375517087,1.0303156178275108,-0.2875673802758021,34.25431549355616,0.0
2022-02-15 23:00:00,2022-02-15 23:00:00,113.8,115.0,113.7,114.2,511.381,LTCEUR,0.4000000000000057,114.09450199733328,114.2566131858027,-0.1621111884694244,0.6736160779615972,0.9589757098543281,-0.28535963189273095,46.3362634236223,110.00000000000014
