date,date,open,high,low,close,volume,pair,close_open_diff,ema_short,ema_long,ema_sort_ema_long_diff,macd,signal,momentum,rsi,gradient
2022-05-28 00:00:00,2022-05-28 00:00:00,57.2,58.2,57.2,57.7,361.582,LTCEUR,0.5,57.66099794526654,57.750750848368725,-0.08975290310218753,-0.5883650847057993,-0.6166496579368553,0.028284573231056043,43.956995729208415,-10.000000000000142
2022-05-28 01:00:00,2022-05-28 01:00:00,57.9,57.9,56.8,57.3,545.853,LTCEUR,-0.6000000000000014,57.48049897263327,57.621964891691945,-0.14146591905867467,-0.5994097585877043,-0.6132016780670252,0.013791919479320902,36.77872719860591,34.99999999999979
2022-05-28 02:00:00,2022-05-28 02:00:00,57.4,58.6,57.2,58.4,418.634,LTCEUR,1.0,57.94024948631663,57.84426063692282,0.09598884939381236,-0.5134828249215388,-0.593257907437928,0.0797750825163891,58.91779675857074,-4.999999999999716
2022-05-28 03:00:00,2022-05-28 03:00:00,58.4,58.4,57.2,57.2,245.376,LTCEUR,-1.1999999999999957,57.57012474315832,57.660186169230585,-0.09006142607226764,-0.5360359928478005,-0.5818135245199024,0.04577753167210197,40.39830451681316,-39.99999999999986
2022-05-28 04:00:00,2022-05-28 04:00:00,57.3,57.9,57.1,57.6,308.057,LTCEUR,0.30000000000000426,57.585062371579156,57.64299012087899,-0.057927749299835796,-0.5156883495666946,-0.5685884895292609,0.05290013996256626,47.05512024217809,50.0
2022-05-28 05:00:00,2022-05-28 05:00:00,57.5,58.2,57.3,58.2,247.424,LTCEUR,0.7000000000000028,57.89253118578958,57.80213580062785,0.0903953851617274,-0.44600642563344195,-0.5440720767500971,0.0980656511166551,55.91743689930397,39.99999999999986
2022-05-28 06:00:00,2022-05-28 06:00:00,58.0,58.5,57.9,58.4,123.418,LTCEUR,0.3999999999999986,58.14626559289479,57.97295414330561,0.17331144958918543,-0.3703752154221007,-0.5093327044844977,0.13895748906239702,58.68376702510967,9.999999999999787
2022-05-28 07:00:00,2022-05-28 07:00:00,58.3,58.8,58.2,58.4,259.095,LTCEUR,0.10000000000000142,58.2731327964474,58.09496724521829,0.1781655512291067,-0.30689919357079987,-0.4688460023017582,0.16194680873095835,58.68376702510967,-5.000000000000071
2022-05-28 08:00:00,2022-05-28 08:00:00,58.4,58.4,58.1,58.3,329.78,LTCEUR,-0.10000000000000142,58.2865663982237,58.15354803229877,0.13301836592492577,-0.26164704888877566,-0.4274062116191617,0.16575916273038604,56.14691260648507,-19.99999999999993
2022-05-28 09:00:00,2022-05-28 09:00:00,58.3,58.4,57.9,58.0,230.45,LTCEUR,-0.29999999999999716,58.14328319911185,58.10967716592769,0.03360603318415656,-0.24714298056083095,-0.3913535654074956,0.14421058484666466,48.585744048450216,-4.999999999999716
2022-05-28 10:00:00,2022-05-28 10:00:00,58.1,58.4,57.9,58.2,226.148,LTCEUR,0.10000000000000142,58.171641599555926,58.13548368994836,0.03615790960756726,-0.21700853408666632,-0.35648455914332977,0.13947602505666346,53.58610174377626,14.999999999999858
2022-05-28 11:00:00,2022-05-28 11:00:00,58.1,58.4,58.0,58.3,219.512,LTCEUR,0.19999999999999574,58.23582079977796,58.18248834996311,0.05333244981485308,-0.1829486853210227,-0.3217773843788684,0.13882869905784567,56.14519410530935,14.999999999999858
2022-05-28 12:00:00,2022-05-28 12:00:00,58.2,58.5,58.0,58.5,314.257,LTCEUR,0.29999999999999716,58.367910399888984,58.27320596425936,0.09470443562962316,-0.13822431736708296,-0.28506677097651134,0.14684245360942838,61.27020043127919,25.0
2022-05-28 13:00:00,2022-05-28 13:00:00,58.4,59.4,58.3,58.8,649.995,LTCEUR,0.3999999999999986,58.58395519994449,58.42371854589954,0.1602366540449509,-0.07767702831635859,-0.2435888224444808,0.1659117941281222,68.00124926163707,39.99999999999986
2022-05-28 14:00:00,2022-05-28 14:00:00,58.9,59.5,58.7,59.3,630.834,LTCEUR,0.3999999999999986,58.94197759997225,58.67408467564253,0.2678929243297148,0.010531554595935688,-0.1927647470363975,0.2032963016323332,76.25483516917882,35.00000000000014
2022-05-28 15:00:00,2022-05-28 15:00:00,59.5,59.7,59.1,59.5,492.446,LTCEUR,0.0,59.220988799986124,58.91006048260181,0.3109283173843167,0.09547524144065989,-0.13511674934098605,0.23059199078164594,78.87081095007579,-14.999999999999858
2022-05-28 16:00:00,2022-05-28 16:00:00,59.3,59.6,58.8,59.0,620.813,LTCEUR,-0.29999999999999716,59.11049439999306,58.935757487572715,0.17473691242034306,0.12105248621710984,-0.08388290222936687,0.2049353884464767,59.278794113108816,-19.99999999999993
2022-05-28 17:00:00,2022-05-28 17:00:00,58.9,59.5,58.8,59.1,595.066,LTCEUR,0.20000000000000284,59.105247199996526,58.9826839196948,0.12256328030172625,0.14768933057224842,-0.03756845566904382,0.18525778624129224,61.56990216131702,-5.000000000000071
2022-05-28 18:00:00,2022-05-28 18:00:00,59.1,59.3,58.8,58.9,429.947,LTCEUR,-0.20000000000000284,59.00262359999826,58.95905994263914,0.04356365735911538,0.15092116782403053,0.00012946902957105058,0.15079169879445947,54.245088153268675,-19.99999999999993
2022-05-28 19:00:00,2022-05-28 19:00:00,59.0,59.0,58.5,58.7,431.887,LTCEUR,-0.29999999999999716,58.85131179999913,58.88504281617082,-0.033731016171685724,0.13577891874410142,0.027259358972477127,0.1085195597716243,47.468448110835666,15.000000000000213
2022-05-28 20:00:00,2022-05-28 20:00:00,58.6,59.2,58.6,59.2,308.142,LTCEUR,0.6000000000000014,59.02565589999956,58.97503058297916,0.050625317020404736,0.16225403506331304,0.05425829419064432,0.10799574087266872,61.78909357495524,14.999999999999858
2022-05-28 21:00:00,2022-05-28 21:00:00,59.2,59.2,58.7,59.0,197.498,LTCEUR,-0.20000000000000284,59.01282794999978,58.982164702127974,0.030663247871807187,0.16519318277707384,0.07644527190793024,0.0887479108691436,54.63936954242539,-15.000000000000213
2022-05-28 22:00:00,2022-05-28 22:00:00,59.0,59.1,58.5,58.9,219.945,LTCEUR,-0.10000000000000142,58.95641397499989,58.958689072948545,-0.0022750979486545475,0.15763618246418076,0.09268345401918035,0.06495272844500041,51.09218959811001,-14.999999999999858
2022-05-28 23:00:00,2022-05-28 23:00:00,59.0,59.2,58.6,58.7,258.037,LTCEUR,-0.29999999999999716,58.82820698749995,58.88477790924896,-0.05657092174901379,0.13396461603711174,0.10093968642276664,0.0330249296143451,44.20475112517835,-30.00000000000007
