date,date,open,high,low,close,volume,pair,close_open_diff,ema_short,ema_long,ema_sort_ema_long_diff,macd,signal,momentum,rsi,gradient
2022-08-11 00:00:00,2022-08-11 00:00:00,60.07,60.25,59.88,60.05,274.444,LTCEUR,-0.020000000000003126,59.95903953599979,59.84468998287072,0.11434955312907391,0.39595705468104825,0.21191707802148727,0.18403997665956098,70.13870577096063,-3.500000000000014
2022-08-11 01:00:00,2022-08-11 01:00:00,59.91,60.13,59.79,59.9,158.031,LTCEUR,-0.00999999999999801,59.92951976799989,59.860492844907654,0.06902692309223823,0.3971157764005824,0.2489568176973063,0.14815895870327608,62.26112731442929,12.0000000000001
2022-08-11 02:00:00,2022-08-11 02:00:00,59.88,60.35,59.78,60.29,203.996,LTCEUR,0.4099999999999966,60.10975988399994,59.983209174934046,0.12655070906589572,0.4246091820053408,0.2840872905589132,0.14052189144642763,72.05398546823572,42.00000000000017
2022-08-11 03:00:00,2022-08-11 03:00:00,60.37,60.96,60.28,60.74,524.365,LTCEUR,0.37000000000000455,60.424879941999976,60.199435124952885,0.22544481704709085,0.4772081843224001,0.3227114693116106,0.1544967150107895,79.44078386095134,-5.499999999999972
2022-08-11 04:00:00,2022-08-11 04:00:00,60.78,60.78,60.08,60.18,275.217,LTCEUR,-0.6000000000000014,60.302439970999984,60.1938822321092,0.1085577388907808,0.468307594293627,0.3518306943080139,0.11647689998561311,56.95808274886853,-14.499999999999957
2022-08-11 05:00:00,2022-08-11 05:00:00,60.13,60.47,60.1,60.45,404.668,LTCEUR,0.3200000000000003,60.37621998549999,60.267058737220864,0.1091612482791291,0.4775358204044835,0.37697171952730785,0.10056410087717566,63.014232250216224,21.499999999999986
2022-08-11 06:00:00,2022-08-11 06:00:00,60.56,60.61,60.32,60.61,443.455,LTCEUR,0.04999999999999716,60.49310999274999,60.36504195515776,0.12806803759223584,0.49208744119898995,0.3999948638616443,0.09209257733734566,66.37828154439725,15.499999999999758
2022-08-11 07:00:00,2022-08-11 07:00:00,60.62,60.89,60.56,60.76,246.69,LTCEUR,0.14000000000000057,60.62655499637499,60.47788711082697,0.14866788554802213,0.5098462615798809,0.4219651434052917,0.08788111817458921,69.49925896166198,-10.000000000000142
2022-08-11 08:00:00,2022-08-11 08:00:00,60.8,60.8,60.35,60.41,228.992,LTCEUR,-0.39000000000000057,60.518277498187494,60.45849079344784,0.05978670473965764,0.4900294255639963,0.43557799983703266,0.054451425726963654,55.16193122403516,-44.50000000000003
2022-08-11 09:00:00,2022-08-11 09:00:00,60.37,60.55,59.8,59.87,404.986,LTCEUR,-0.5,60.194138749093746,60.29035056674846,-0.0962118176547122,0.42584211044540865,0.43363082195870783,-0.007788711513299185,39.91630335124622,-11.499999999999844
2022-08-11 10:00:00,2022-08-11 10:00:00,59.86,60.19,59.82,60.18,377.659,LTCEUR,0.3200000000000003,60.18706937454687,60.25882183339176,-0.0717524588448839,0.39542934662947005,0.4259905268928603,-0.030561180263390275,49.5262430895953,-0.4999999999999005
2022-08-11 11:00:00,2022-08-11 11:00:00,60.18,60.24,59.86,59.86,257.804,LTCEUR,-0.3200000000000003,60.02353468727344,60.14487273813697,-0.12133805086352822,0.34156829980354786,0.4091060814749979,-0.06753778167145003,41.33654763401383,-17.50000000000007
2022-08-11 12:00:00,2022-08-11 12:00:00,59.98,60.01,59.61,59.83,277.531,LTCEUR,-0.14999999999999858,59.92676734363672,60.05490909866927,-0.12814175503255143,0.2930837953125405,0.3859016242425064,-0.09281782892996593,40.58160473200675,26.999999999999957
2022-08-11 13:00:00,2022-08-11 13:00:00,59.85,60.46,59.78,60.4,398.315,LTCEUR,0.5499999999999972,60.16338367181836,60.153506499049485,0.009877172768874232,0.2972274593687274,0.36816679126775065,-0.07093933189902324,58.049821261036314,69.99999999999993
2022-08-11 14:00:00,2022-08-11 14:00:00,60.4,61.36,60.38,61.23,1199.997,LTCEUR,0.8299999999999983,60.69669183590918,60.46107607074963,0.23561576515955096,0.3632975385082631,0.3671929407158532,-0.003895402207590104,72.28638788991599,22.500000000000142
2022-08-11 15:00:00,2022-08-11 15:00:00,61.2,61.43,60.6,60.85,852.833,LTCEUR,-0.3500000000000014,60.773345917954586,60.57219719339259,0.20114872456199606,0.3806083123240498,0.3698760150374925,0.01073229728655728,60.9267119845015,-30.49999999999997
2022-08-11 16:00:00,2022-08-11 16:00:00,60.96,61.29,60.15,60.62,786.67,LTCEUR,-0.3400000000000034,60.69667295897729,60.58585513813756,0.11081782083972769,0.37148588938970306,0.3701979899079346,0.0012878994817684397,54.68500781432504,-35.00000000000014
2022-08-11 17:00:00,2022-08-11 17:00:00,60.69,60.74,60.0,60.15,643.977,LTCEUR,-0.5399999999999991,60.42333647948864,60.46132509866968,-0.03798861918104279,0.32261235701219704,0.3606808633287871,-0.03806850631659009,43.70550144119852,-2.499999999999858
2022-08-11 18:00:00,2022-08-11 18:00:00,60.11,60.72,60.1,60.57,485.322,LTCEUR,0.46000000000000085,60.496668239744324,60.492375070478346,0.004293169265977781,0.3141489073487733,0.3513744721327844,-0.03722556478401107,53.678576967011395,39.49999999999996
2022-08-11 19:00:00,2022-08-11 19:00:00,60.52,61.06,60.51,60.94,746.931,LTCEUR,0.4199999999999946,60.71833411987216,60.62026790748453,0.09806621238762858,0.3334536244802848,0.3477903026022845,-0.01433667812199968,60.98533484605636,-0.4999999999999005
2022-08-11 20:00:00,2022-08-11 20:00:00,60.79,60.86,60.33,60.56,355.503,LTCEUR,-0.22999999999999687,60.639167059936085,60.603048505346095,0.036118554589990026,0.3144649712416694,0.3411252363301615,-0.02666026508849212,51.05920425731611,-10.999999999999943
2022-08-11 21:00:00,2022-08-11 21:00:00,60.57,60.78,60.27,60.72,428.351,LTCEUR,0.14999999999999858,60.67958352996804,60.63646321810435,0.0431203118636887,0.308767707636008,0.33465373059133086,-0.02588602295532283,54.778155433577425,9.499999999999886
2022-08-11 22:00:00,2022-08-11 22:00:00,60.77,60.83,60.35,60.75,329.681,LTCEUR,-0.020000000000003126,60.71479176498402,60.668902298645975,0.04588946633804625,0.3031784816471159,0.32835868080248787,-0.025180199155371952,55.53833757979233,-1.5000000000000568
2022-08-11 23:00:00,2022-08-11 23:00:00,60.75,60.88,60.23,60.69,367.764,LTCEUR,-0.060000000000002274,60.70239588249201,60.67493021331856,0.027465669173452056,0.29055810821824934,0.3207985662856402,-0.03024045806739084,53.38458168916827,-36.499999999999844
