date,date,open,high,low,close,volume,pair,close_open_diff,ema_short,ema_long,ema_sort_ema_long_diff,macd,signal,momentum,rsi,gradient
2022-01-31 00:00:00,2022-01-31 00:00:00,97.3,98.2,97.1,97.6,927.488,LTCEUR,0.29999999999999716,97.46413488301837,97.72094160850087,-0.25680672548249106,-0.41359814006025886,-0.10506052758274284,-0.308537612477516,38.682931172934495,-89.99999999999986
2022-01-31 01:00:00,2022-01-31 01:00:00,97.6,97.8,94.8,95.3,723.768,LTCEUR,-2.299999999999997,96.38206744150918,97.02924400607205,-0.6471765645628693,-0.6178158290269096,-0.2076115878715762,-0.4102042411553334,20.310106162294858,-144.99999999999957
2022-01-31 02:00:00,2022-01-31 02:00:00,95.0,95.4,94.6,94.7,738.011,LTCEUR,-0.29999999999999716,95.5410337207546,96.36374571862288,-0.8227119978682822,-0.8186380545246976,-0.3298168812022005,-0.48882117332249714,17.681211191253794,-19.999999999999574
2022-01-31 03:00:00,2022-01-31 03:00:00,94.4,94.9,93.7,94.9,667.142,LTCEUR,0.5,95.2205168603773,95.9455326561592,-0.7250157957818999,-0.9506937804329141,-0.4539922610483432,-0.49670151938457086,21.733469449687362,4.999999999999716
2022-01-31 04:00:00,2022-01-31 04:00:00,94.5,95.0,94.5,94.8,159.658,LTCEUR,0.29999999999999716,95.01025843018866,95.6182376115423,-0.6079791813536417,-1.0512993345726187,-0.5734536757531983,-0.4778456588194204,21.1099686945215,-45.000000000000284
2022-01-31 05:00:00,2022-01-31 05:00:00,94.8,94.8,93.7,94.0,515.494,LTCEUR,-0.7999999999999972,94.50512921509433,95.1558840082445,-0.6507547931501705,-1.1819583945444805,-0.6951546195114547,-0.48680377503302574,16.55152026467644,-35.00000000000014
2022-01-31 06:00:00,2022-01-31 06:00:00,94.1,94.3,93.8,94.1,497.198,LTCEUR,0.0,94.30256460754717,94.85420286303179,-0.5516382554846189,-1.2628797846131192,-0.8086996525317878,-0.45418013208133146,19.16967342670027,-4.999999999999716
2022-01-31 07:00:00,2022-01-31 07:00:00,93.9,94.3,93.9,93.9,147.242,LTCEUR,0.0,94.10128230377359,94.58157347359415,-0.4802911698205605,-1.3278423576342675,-0.9125281935522838,-0.41531416408198374,17.82729974611523,15.000000000000568
2022-01-31 08:00:00,2022-01-31 08:00:00,93.8,94.6,93.7,94.4,511.978,LTCEUR,0.6000000000000085,94.2506411518868,94.52969533828154,-0.27905418639474533,-1.3237208139028382,-0.9947667176223948,-0.3289540962804435,32.09303851878383,4.999999999999716
2022-01-31 09:00:00,2022-01-31 09:00:00,94.4,94.7,93.8,94.0,439.498,LTCEUR,-0.4000000000000057,94.12532057594339,94.37835381305825,-0.25303323711486314,-1.3373153786271956,-1.0632764498233551,-0.2740389288038405,27.508416525469045,-5.000000000000426
2022-01-31 10:00:00,2022-01-31 10:00:00,94.0,94.3,93.6,94.3,341.009,LTCEUR,0.29999999999999716,94.21266028797169,94.35596700932732,-0.1433067213556285,-1.308794705649106,-1.1123801009885055,-0.19641460466060057,35.76679526018974,25.0
2022-01-31 11:00:00,2022-01-31 11:00:00,94.1,94.5,93.9,94.5,426.613,LTCEUR,0.4000000000000057,94.35633014398584,94.39711929237666,-0.04078914839081449,-1.2555799937073147,-1.1410200795322674,-0.1145599141750473,41.13188879949415,20.000000000000284
2022-01-31 12:00:00,2022-01-31 12:00:00,94.5,95.2,93.6,94.7,614.965,LTCEUR,0.20000000000000284,94.52816507199293,94.48365663741191,0.04450843458101872,-1.1836245357049648,-1.149540970766807,-0.034083564938157895,46.49473647017381,25.0
2022-01-31 13:00:00,2022-01-31 13:00:00,94.9,95.1,93.7,95.0,1270.965,LTCEUR,0.09999999999999432,94.76408253599647,94.63118331243707,0.13289922355939154,-1.0898289542421082,-1.1375985674618672,0.04776961321975892,54.032443942439414,25.0
2022-01-31 14:00:00,2022-01-31 14:00:00,94.9,95.5,94.3,95.2,596.643,LTCEUR,0.29999999999999716,94.98204126799823,94.79370236602648,0.18833890197174696,-0.9879682684322546,-1.1076725076559446,0.11970423922369,58.6883605103367,50.0
2022-01-31 15:00:00,2022-01-31 15:00:00,95.0,96.0,94.8,96.0,980.581,LTCEUR,1.0,95.49102063399911,95.13835883287607,0.35266180112304824,-0.8330863263483792,-1.0527552713944315,0.21966894504605228,72.2027586695955,64.99999999999986
2022-01-31 16:00:00,2022-01-31 16:00:00,96.2,97.2,96.2,96.5,1178.415,LTCEUR,0.29999999999999716,95.99551031699956,95.52739916634005,0.46811115065951014,-0.6623601742730187,-0.9746762519701491,0.3123160776971303,77.6791681985511,95.00000000000028
2022-01-31 17:00:00,2022-01-31 17:00:00,96.6,98.2,96.3,97.9,1183.02,LTCEUR,1.3000000000000114,96.94775515849977,96.20528511881433,0.7424700396854433,-0.40937119274077816,-0.8616152401242749,0.45224404738349677,86.56959494978422,64.99999999999986
2022-01-31 18:00:00,2022-01-31 18:00:00,97.9,98.1,97.2,97.8,1005.646,LTCEUR,-0.10000000000000853,97.37387757924989,96.66091794201023,0.7129596372396634,-0.21447246142358267,-0.7321866843841365,0.5177142229605538,83.71166599283528,19.999999999999574
2022-01-31 19:00:00,2022-01-31 19:00:00,98.0,98.6,97.8,98.3,834.822,LTCEUR,0.29999999999999716,97.83693878962495,97.12922710143587,0.7077116881890788,-0.0194438547058553,-0.5896381184484802,0.5701942637426249,86.40461849087356,0.0
2022-01-31 20:00:00,2022-01-31 20:00:00,98.2,99.1,97.8,97.8,985.911,LTCEUR,-0.4000000000000057,97.81846939481247,97.32087650102562,0.49759289378684457,0.09369187824627545,-0.45297211910952917,0.5466639973558046,72.10021279304884,-25.0
2022-01-31 21:00:00,2022-01-31 21:00:00,97.8,98.1,97.2,97.8,743.122,LTCEUR,0.0,97.80923469740623,97.45776892930401,0.35146576810221575,0.1812632715478486,-0.32612504097805367,0.5073883125259022,72.10021279304884,-25.0
2022-01-31 22:00:00,2022-01-31 22:00:00,97.8,97.8,96.7,97.3,637.591,LTCEUR,-0.5,97.55461734870312,97.41269209236,0.14192525634311437,0.20792161933057685,-0.21931570891632757,0.4272373282469044,58.22073728190461,-4.999999999999716
2022-01-31 23:00:00,2022-01-31 23:00:00,97.3,98.0,97.2,97.7,449.523,LTCEUR,0.4000000000000057,97.62730867435155,97.49478006597143,0.13252860838012737,0.2583471440112959,-0.12378313833080289,0.3821302823420988,64.73735983304645,10.000000000000142
