date,date,open,high,low,close,volume,pair,close_open_diff,ema_short,ema_long,ema_sort_ema_long_diff,macd,signal,momentum,rsi,gradient
2022-12-02 00:00:00,2022-12-02 00:00:00,74.06,74.24,73.55,73.67,259.654,LTCEUR,-0.39000000000000057,73.80909760980484,73.83381832455933,-0.02472071475449411,-0.21040297409275865,-0.23242312161830367,0.022020147525545014,42.924310098664186,-13.000000000000256
2022-12-02 01:00:00,2022-12-02 01:00:00,73.7,73.9,73.39,73.77,258.283,LTCEUR,0.06999999999999318,73.78954880490241,73.81558451754238,-0.026035712639966846,-0.20438263553646152,-0.22681502440193527,0.022432388865473746,46.58108919135545,-27.499999999999858
2022-12-02 02:00:00,2022-12-02 02:00:00,73.83,73.83,72.72,73.12,308.901,LTCEUR,-0.7099999999999937,73.4547744024512,73.61684608395885,-0.16207168150764062,-0.24918855107740967,-0.23128972973703016,-0.01789882134037951,31.059489668892738,-71.49999999999963
2022-12-02 03:00:00,2022-12-02 03:00:00,73.01,73.08,71.77,72.34,841.41,LTCEUR,-0.6700000000000017,72.8973872012256,73.25203291711347,-0.35464571588786953,-0.3436753675146065,-0.25376685729254544,-0.08990851022206103,20.988522284808724,-45.000000000000284
2022-12-02 04:00:00,2022-12-02 04:00:00,72.26,72.54,72.07,72.22,152.302,LTCEUR,-0.04000000000000625,72.5586936006128,72.95716636936676,-0.39847276875396176,-0.4233596212187791,-0.2876854100777922,-0.13567421114098693,19.80308749279078,9.499999999999886
2022-12-02 05:00:00,2022-12-02 05:00:00,72.19,72.57,71.84,72.53,209.547,LTCEUR,0.3400000000000034,72.5443468003064,72.83511883526197,-0.290772034955566,-0.4562363485229781,-0.32139559776682936,-0.13484075075614876,31.752446005092807,23.499999999999943
2022-12-02 06:00:00,2022-12-02 06:00:00,72.51,72.74,72.51,72.69,88.17,LTCEUR,0.1799999999999926,72.6171734001532,72.79365631090141,-0.17648291074820577,-0.46403166081518066,-0.34992281037649964,-0.11410885043868102,37.518490514799424,1.5000000000000568
2022-12-02 07:00:00,2022-12-02 07:00:00,72.73,72.78,72.56,72.56,157.428,LTCEUR,-0.1700000000000017,72.5885867000766,72.72689736492958,-0.13831066485298038,-0.47522135949635924,-0.37498252020047157,-0.10023883929588767,34.66311577549395,-1.999999999999602
2022-12-02 08:00:00,2022-12-02 08:00:00,72.62,73.02,72.58,72.65,447.624,LTCEUR,0.030000000000001137,72.6192933500383,72.70492668923542,-0.08563333919711624,-0.471393102229527,-0.3942646366062827,-0.07712846562324432,38.54847202217406,3.0000000000001137
2022-12-02 09:00:00,2022-12-02 09:00:00,72.7,72.78,72.47,72.62,478.301,LTCEUR,-0.0799999999999983,72.61964667501915,72.68066192088244,-0.061015245863288214,-0.4654149165961883,-0.4084946926042638,-0.05692022399192448,37.652838907190464,9.999999999999432
2022-12-02 10:00:00,2022-12-02 10:00:00,72.68,72.99,72.6,72.85,289.362,LTCEUR,0.1699999999999875,72.73482333750957,72.72904422920175,0.0057791083078200245,-0.43707970088236436,-0.4142116942598839,-0.022868006622480452,48.63271446950666,21.000000000000085
2022-12-02 11:00:00,2022-12-02 11:00:00,72.91,73.15,72.84,73.04,649.3,LTCEUR,0.13000000000000966,72.8874116687548,72.81788873514411,0.06952293361068485,-0.39474208514211284,-0.4103177724363297,0.015575687294216878,56.267428294963196,4.5000000000001705
2022-12-02 12:00:00,2022-12-02 12:00:00,73.09,73.21,72.78,72.94,542.871,LTCEUR,-0.15000000000000568,72.9137058343774,72.85277766796008,0.06092816641731247,-0.36505031115596864,-0.4012642801802575,0.03621396902428886,51.43879140902024,-5.499999999999972
2022-12-02 13:00:00,2022-12-02 13:00:00,72.96,73.25,72.75,72.93,432.624,LTCEUR,-0.029999999999986926,72.9218529171887,72.87484119140007,0.04701172578863577,-0.338425128561056,-0.3886964498564172,0.050271321295361215,50.91447912523785,-2.499999999999858
2022-12-02 14:00:00,2022-12-02 14:00:00,72.94,73.12,71.9,72.89,1479.173,LTCEUR,-0.04999999999999716,72.90592645859435,72.87917227957148,0.02675417902287336,-0.31689912933642006,-0.3743369857524178,0.057437856415997746,48.53962503917886,-4.5000000000001705
2022-12-02 15:00:00,2022-12-02 15:00:00,72.88,73.02,72.53,72.84,708.942,LTCEUR,-0.03999999999999204,72.87296322929717,72.8679801996939,0.0049830296032666865,-0.30041124812809983,-0.3595518382275542,0.05914059009945438,45.365578170701006,-3.0000000000001137
2022-12-02 16:00:00,2022-12-02 16:00:00,72.84,73.25,72.74,72.83,443.613,LTCEUR,-0.010000000000005116,72.85148161464858,72.85712871406707,-0.005647099418496282,-0.28486762327111137,-0.34461499523626565,0.05974737196515428,44.664620475355605,0.0
2022-12-02 17:00:00,2022-12-02 17:00:00,72.88,73.09,72.72,72.84,582.503,LTCEUR,-0.03999999999999204,72.84574080732429,72.8522347957622,-0.006493988437910048,-0.268645494129359,-0.3294210950148843,0.060775600885525305,45.671948081898805,-5.499999999999972
2022-12-02 18:00:00,2022-12-02 18:00:00,72.83,73.2,72.6,72.72,457.991,LTCEUR,-0.10999999999999943,72.78287040366214,72.81445342554443,-0.0315830218822839,-0.2624470112504582,-0.3160262782619991,0.053579267011540865,36.186170097612326,7.499999999999574
2022-12-02 19:00:00,2022-12-02 19:00:00,72.67,73.06,72.65,72.99,253.151,LTCEUR,0.3199999999999932,72.88643520183106,72.86460958967459,0.02182561215647638,-0.2330613393510248,-0.2994332904798042,0.06637195112877942,59.11396132998967,23.000000000000398
2022-12-02 20:00:00,2022-12-02 20:00:00,73.04,73.27,72.94,73.18,326.752,LTCEUR,0.14000000000000057,73.03321760091553,72.95472113548185,0.07849646543368749,-0.19222571220072382,-0.2779917748239882,0.08576606262326436,68.63129139380739,17.500000000000426
2022-12-02 21:00:00,2022-12-02 21:00:00,73.22,73.34,72.98,73.34,404.674,LTCEUR,0.12000000000000455,73.18660880045778,73.06480081105846,0.12180798939931492,-0.14527784805505917,-0.2514489894702024,0.10617114141514322,74.60490987750883,13.499999999999801
2022-12-02 22:00:00,2022-12-02 22:00:00,73.16,73.53,73.16,73.45,295.4,LTCEUR,0.29000000000000625,73.3183044002289,73.17485772218461,0.14344667804428468,-0.09806481662405986,-0.22077215490097388,0.12270733827691402,78.05294062063896,14.999999999999858
2022-12-02 23:00:00,2022-12-02 23:00:00,73.43,73.7,73.39,73.64,218.838,LTCEUR,0.20999999999999375,73.47915220011444,73.30775551584615,0.1713966842682879,-0.044800306908896914,-0.1855777853025585,0.1407774783936616,82.87293454086375,30.49999999999997
