date,date,open,high,low,close,volume,pair,close_open_diff,ema_short,ema_long,ema_sort_ema_long_diff,macd,signal,momentum,rsi,gradient
2022-12-07 00:00:00,2022-12-07 00:00:00,75.06,76.56,75.03,76.38,368.053,LTCEUR,1.3199999999999932,75.72117074710536,75.47151462857045,0.2496561185349151,-0.29801963431242484,-0.31802580513111034,0.020006170818685498,68.00646485258883,55.49999999999997
2022-12-07 01:00:00,2022-12-07 01:00:00,76.37,76.66,76.02,76.17,165.47,LTCEUR,-0.20000000000000284,75.94558537355269,75.67108187755032,0.27450349600236734,-0.22304970280468694,-0.29903058466582566,0.07598088186113872,62.710995006208535,-15.500000000000114
2022-12-07 02:00:00,2022-12-07 02:00:00,76.2,76.44,75.76,76.07,289.926,LTCEUR,-0.13000000000000966,76.00779268677634,75.78505848396452,0.22273420281182155,-0.16974790800171036,-0.2731740493330026,0.10342614133129224,60.03950617693153,-4.5000000000001705
2022-12-07 03:00:00,2022-12-07 03:00:00,76.04,76.34,75.97,76.08,106.743,LTCEUR,0.03999999999999204,76.04389634338817,75.86932748854608,0.17456885484209295,-0.12525507266602176,-0.24359025399960643,0.11833518133358467,60.24274529660243,-15.999999999999659
2022-12-07 04:00:00,2022-12-07 04:00:00,76.1,76.1,75.61,75.75,114.215,LTCEUR,-0.3499999999999943,75.89694817169408,75.83523392039005,0.06171425130402497,-0.1152933917316119,-0.21793088154600754,0.10263748981439563,50.143550943261175,5.000000000000426
2022-12-07 05:00:00,2022-12-07 05:00:00,75.62,76.3,75.18,76.18,145.3,LTCEUR,0.5600000000000023,76.03847408584704,75.93373851456433,0.10473557128271693,-0.07187277684874971,-0.18871926060655597,0.11684648375780626,60.498185618134954,36.5000000000002
2022-12-07 06:00:00,2022-12-07 06:00:00,76.25,76.79,76.11,76.48,590.143,LTCEUR,0.23000000000000398,76.25923704292353,76.08981322468881,0.1694238182347192,-0.013103089668732082,-0.1535960264189912,0.14049293675025912,66.34933440341672,-38.000000000000256
2022-12-07 07:00:00,2022-12-07 07:00:00,76.58,76.67,75.42,75.42,213.602,LTCEUR,-1.1599999999999966,75.83961852146177,75.89843801763487,-0.05881949617310056,-0.05146754455995506,-0.13317033004718398,0.08170278548722892,40.754022174248874,-159.4999999999999
2022-12-07 08:00:00,2022-12-07 08:00:00,75.18,75.25,72.66,73.29,949.538,LTCEUR,-1.8900000000000006,74.5648092607309,75.15317001259633,-0.5883607518654372,-0.250853171103671,-0.1567068982584814,-0.09414627284518962,21.113826884163828,-98.49999999999994
2022-12-07 09:00:00,2022-12-07 09:00:00,73.28,73.71,73.03,73.45,312.464,LTCEUR,0.1700000000000017,74.00740463036544,74.66655000899738,-0.6591453786319335,-0.3914447227136719,-0.2036544631495195,-0.18779025956415243,24.398030385396765,12.999999999999545
2022-12-07 10:00:00,2022-12-07 10:00:00,73.47,73.73,73.12,73.55,347.065,LTCEUR,0.0799999999999983,73.77870231518273,74.34753572071241,-0.5688334055296878,-0.4891566822632427,-0.2607549069722641,-0.2284017752909786,26.687160483074834,-10.500000000000398
2022-12-07 11:00:00,2022-12-07 11:00:00,73.39,73.39,72.84,73.24,382.316,LTCEUR,-0.15000000000000568,73.50935115759137,74.03109694336601,-0.521745785774641,-0.5848665459301259,-0.3255772347638365,-0.2592893111662894,23.985509442825077,-44.999999999999574
2022-12-07 12:00:00,2022-12-07 12:00:00,73.27,73.28,72.1,72.65,377.656,LTCEUR,-0.6199999999999903,73.07967557879569,73.63649781669001,-0.5568222378943233,-0.7002532875958565,-0.40051244533024055,-0.2997408422656159,19.481318476226804,-32.99999999999983
2022-12-07 13:00:00,2022-12-07 13:00:00,72.54,72.9,72.33,72.58,554.828,LTCEUR,0.03999999999999204,72.82983778939784,73.33464129763573,-0.5048035082378846,-0.7882599565636212,-0.47806194757691667,-0.3101980089867046,18.974030331492116,18.999999999999773
2022-12-07 14:00:00,2022-12-07 14:00:00,72.57,73.13,72.44,73.03,537.273,LTCEUR,0.46000000000000796,72.92991889469891,73.24760092688267,-0.3176820321837539,-0.8123305951388033,-0.544915677089294,-0.26741491804950934,32.52771831071911,27.000000000000313
2022-12-07 15:00:00,2022-12-07 15:00:00,72.99,73.41,72.85,73.12,464.099,LTCEUR,0.13000000000000966,73.02495944734946,73.21114351920191,-0.1861840718524519,-0.8147525416562331,-0.5988830500026818,-0.2158694916535513,35.13192527754234,4.999999999999716
2022-12-07 16:00:00,2022-12-07 16:00:00,73.1,73.32,72.97,73.13,474.893,LTCEUR,0.030000000000001137,73.07747972367473,73.18795965657279,-0.11047993289805902,-0.8065674280541515,-0.6404199256129758,-0.1661475024411757,35.46404188901654,-9.000000000000341
2022-12-07 17:00:00,2022-12-07 17:00:00,73.16,73.16,72.67,72.94,353.799,LTCEUR,-0.21999999999999886,73.00873986183737,73.11711404040913,-0.1083741785717649,-0.8061196333168539,-0.6735598671537515,-0.1325597661631024,31.756950985847155,-5.499999999999972
2022-12-07 18:00:00,2022-12-07 18:00:00,72.91,73.19,72.8,73.02,232.786,LTCEUR,0.10999999999999943,73.01436993091869,73.08936717172081,-0.07499724080211934,-0.7902004820746242,-0.6968879901379261,-0.0933124919366981,35.18043832741414,2.0000000000003126
2022-12-07 19:00:00,2022-12-07 19:00:00,73.02,73.25,72.9,72.98,580.949,LTCEUR,-0.03999999999999204,72.99718496545935,73.05811940837201,-0.06093444291265371,-0.7719139620748763,-0.7118931845253162,-0.060020777549560034,34.15246094864739,13.500000000000512
2022-12-07 20:00:00,2022-12-07 20:00:00,72.9,73.55,72.9,73.29,252.492,LTCEUR,0.39000000000000057,73.14359248272967,73.12437100598001,0.01922147674966368,-0.7240608314531443,-0.7143267139108819,-0.009734117542262388,48.22278111072309,15.500000000000114
2022-12-07 21:00:00,2022-12-07 21:00:00,73.29,73.56,73.15,73.29,265.269,LTCEUR,0.0,73.21679624136485,73.1716935757,0.045102665664842334,-0.6783176569608713,-0.7071249025208798,0.028807245560008465,48.22278111072308,-4.000000000000625
2022-12-07 22:00:00,2022-12-07 22:00:00,73.33,73.36,72.98,73.21,241.064,LTCEUR,-0.12000000000000455,73.21339812068243,73.18263826835714,0.030759852325289216,-0.6411306381197761,-0.6939260496406591,0.05279541152088296,44.67528030728275,4.49999999999946
2022-12-07 23:00:00,2022-12-07 23:00:00,73.22,73.46,72.94,73.38,368.891,LTCEUR,0.1599999999999966,73.29669906034121,73.23902733454082,0.057671725800389595,-0.5911279237785436,-0.673366424468236,0.0822385006896924,53.41430571150672,-2.499999999999858
