date,date,open,high,low,close,volume,pair,close_open_diff,ema_short,ema_long,ema_sort_ema_long_diff,macd,signal,momentum,rsi,gradient
2022-08-02 00:00:00,2022-08-02 00:00:00,57.34,57.64,56.93,57.55,491.852,LTCEUR,0.20999999999999375,57.4646541348296,57.499291254199704,-0.034637119370103164,-0.5464896192280335,-0.5529326065108574,0.0064429872828238866,45.89831331356722,37.9999999999999
2022-08-02 01:00:00,2022-08-02 01:00:00,57.6,58.2,57.58,58.12,513.441,LTCEUR,0.519999999999996,57.7923270674148,57.676636610142644,0.11569045727215865,-0.47319997826896554,-0.5369860808624791,0.06378610259351358,61.12073709866956,-1.4999999999997016
2022-08-02 02:00:00,2022-08-02 02:00:00,57.98,58.38,57.43,57.52,493.978,LTCEUR,-0.45999999999999375,57.6561635337074,57.63188329295903,0.024280240748367987,-0.4582499749162068,-0.5212388596732247,0.06298888475701792,45.09388315064477,-50.9999999999998
2022-08-02 03:00:00,2022-08-02 03:00:00,57.53,57.72,56.92,57.1,569.596,LTCEUR,-0.4299999999999997,57.3780817668537,57.479916637827884,-0.1018348709741872,-0.47481906089434034,-0.5119548999174479,0.037135839023107575,36.954272379981916,-71.00000000000009
2022-08-02 04:00:00,2022-08-02 04:00:00,57.05,57.25,55.94,56.1,961.025,LTCEUR,-0.9499999999999957,56.73904088342685,57.08565474130563,-0.3466138578787792,-0.5621615748556223,-0.5219962349050828,-0.0401653399505395,24.380596038112515,-71.00000000000009
2022-08-02 05:00:00,2022-08-02 05:00:00,56.15,56.16,55.45,55.68,462.034,LTCEUR,-0.46999999999999886,56.20952044171342,56.684039100932594,-0.47451865921917147,-0.6576901932030026,-0.5491350265646668,-0.10855516663833575,20.81168724935152,-26.000000000000156
2022-08-02 06:00:00,2022-08-02 06:00:00,55.69,55.84,55.17,55.58,256.003,LTCEUR,-0.10999999999999943,55.89476022085671,56.36859935780899,-0.47383913695227875,-0.7330167153474889,-0.5859113643212313,-0.14710535102625766,19.976207133541863,8.999999999999986
2022-08-02 07:00:00,2022-08-02 07:00:00,55.61,55.97,55.59,55.86,292.479,LTCEUR,0.25,55.877380110428355,56.22328525557785,-0.34590514514949433,-0.7613435721234012,-0.6209978058816653,-0.1403457662417359,29.487397011469028,28.000000000000114
2022-08-02 08:00:00,2022-08-02 08:00:00,55.91,56.34,55.91,56.14,332.158,LTCEUR,0.23000000000000398,56.008690055214174,56.199489468269896,-0.19079941305572135,-0.752524516068938,-0.6473031479191199,-0.10522136814981808,38.288960539276495,24.5000000000001
2022-08-02 09:00:00,2022-08-02 09:00:00,56.09,56.37,55.57,56.35,269.125,LTCEUR,0.259999999999998,56.179345027607084,56.242492477335645,-0.0631474497285609,-0.7202870845041147,-0.6618999352361189,-0.05838714926799582,44.52143889583588,-8.999999999999986
2022-08-02 10:00:00,2022-08-02 10:00:00,56.35,56.35,55.87,55.96,345.913,LTCEUR,-0.39000000000000057,56.06967251380354,56.16178034095403,-0.09210782715049248,-0.7179325488393147,-0.673106457956758,-0.044826090882556624,36.341849531922726,-33.500000000000085
2022-08-02 11:00:00,2022-08-02 11:00:00,55.92,56.03,55.41,55.68,347.206,LTCEUR,-0.240000000000002,55.87483625690177,56.02412881496716,-0.14929255806539032,-0.7302424419926581,-0.684533654763938,-0.04570878722872007,31.375595236625728,11.499999999999844
2022-08-02 12:00:00,2022-08-02 12:00:00,55.64,56.4,55.64,56.19,491.554,LTCEUR,0.5499999999999972,56.032418128450885,56.0715205821194,-0.03910245366851228,-0.690881333300915,-0.6858031904713334,-0.005078142829581522,47.15859850111452,48.49999999999994
2022-08-02 13:00:00,2022-08-02 13:00:00,56.24,56.86,56.17,56.65,667.991,LTCEUR,0.4099999999999966,56.34120906422544,56.23680041579957,0.10440864842586706,-0.6154744095874349,-0.6717374342945537,0.05626302470711875,57.690714791657044,-11.499999999999844
2022-08-02 14:00:00,2022-08-02 14:00:00,56.72,56.76,55.72,55.96,471.734,LTCEUR,-0.759999999999998,56.15060453211272,56.15771458271398,-0.00711005060125558,-0.6044236926086342,-0.6582746859573698,0.053850993348735665,42.458102090105776,-16.499999999999915
2022-08-02 15:00:00,2022-08-02 15:00:00,55.99,56.6,55.98,56.32,435.057,LTCEUR,0.3299999999999983,56.235302266056365,56.204081844795695,0.03122042126067015,-0.5601597554587698,-0.6386516998576499,0.07849194439888008,50.6210171253623,67.50000000000007
2022-08-02 16:00:00,2022-08-02 16:00:00,56.35,57.42,56.07,57.31,1360.106,LTCEUR,0.9600000000000009,56.772651133028184,56.52005846056835,0.2525926724598335,-0.44012208668939934,-0.5989457772239999,0.15882369053460055,66.36628055333958,74.5000000000001
2022-08-02 17:00:00,2022-08-02 17:00:00,57.37,57.87,57.01,57.81,966.63,LTCEUR,0.44000000000000483,57.29132556651409,56.88861318612025,0.4027123803938366,-0.3011738039021239,-0.5393913825596247,0.23821757865750082,71.81339622146879,57.49999999999993
2022-08-02 18:00:00,2022-08-02 18:00:00,57.81,58.57,57.67,58.46,697.927,LTCEUR,0.6499999999999986,57.87566278325704,57.33758084722875,0.5380819360282914,-0.13702715722943992,-0.45891853749358774,0.3218913802641478,77.49838893484969,2.499999999999858
2022-08-02 19:00:00,2022-08-02 19:00:00,58.47,58.5,57.81,57.86,223.987,LTCEUR,-0.6099999999999994,57.86783139162852,57.48684346230625,0.38098792932227354,-0.05472391944054067,-0.3780796138829784,0.3233556944424377,63.346113398238394,-49.5000000000001
2022-08-02 20:00:00,2022-08-02 20:00:00,57.89,58.19,57.43,57.47,748.573,LTCEUR,-0.4200000000000017,57.66891569581426,57.48203104450447,0.18688465130979637,-0.020728802432820714,-0.30660945159294684,0.2858806491601261,55.448147647648966,-19.50000000000003
2022-08-02 21:00:00,2022-08-02 21:00:00,57.5,57.82,57.2,57.47,728.916,LTCEUR,-0.030000000000001137,57.56945784790713,57.478593603217476,0.09086424468965504,0.006141774167900849,-0.2440592064407773,0.2502009806086781,55.448147647648966,10.999999999999943
2022-08-02 22:00:00,2022-08-02 22:00:00,57.59,57.85,57.48,57.69,324.106,LTCEUR,0.09999999999999432,57.629728923953564,57.538995430869626,0.0907334930839383,0.044674086044054206,-0.18631254794381102,0.23098663398786523,59.54532321127037,12.0000000000001
2022-08-02 23:00:00,2022-08-02 23:00:00,57.73,57.78,57.29,57.71,464.251,LTCEUR,-0.01999999999999602,57.669864461976786,57.58785387919259,0.08201058278419282,0.07594955448212204,-0.1338601274586244,0.20980968194074645,59.947151746588105,5.000000000000071
