date,date,open,high,low,close,volume,pair,close_open_diff,ema_short,ema_long,ema_sort_ema_long_diff,macd,signal,momentum,rsi,gradient
2022-03-22 00:00:00,2022-03-22 00:00:00,105.5,105.6,104.9,105.5,341.637,LTCEUR,0.0,105.53139961064696,105.42154065874453,0.10985895190242445,0.4969424782607348,0.3803960256234784,0.11654645263725638,60.591416601075004,64.99999999999986
2022-03-22 01:00:00,2022-03-22 01:00:00,105.4,106.8,105.0,106.8,622.116,LTCEUR,1.3999999999999915,106.16569980532347,105.81538618481753,0.3503136205059434,0.5966911939562749,0.4236550592900377,0.17303613466623718,77.63591077002192,70.00000000000028
2022-03-22 02:00:00,2022-03-22 02:00:00,106.9,107.0,106.2,106.9,348.728,LTCEUR,0.0,106.53284990266174,106.12527584629824,0.40757405636350086,0.6760192054675116,0.47412788852553256,0.20189131694197904,78.49449105542791,120.00000000000028
2022-03-22 03:00:00,2022-03-22 03:00:00,106.8,109.7,106.7,109.2,1127.93,LTCEUR,2.4000000000000057,107.86642495133087,107.0037684616416,0.8626564896892717,0.9139426423442103,0.5620908392892682,0.3518518030549421,89.55836582339506,75.0
2022-03-22 04:00:00,2022-03-22 04:00:00,109.5,110.0,108.4,108.4,5053.834,LTCEUR,-1.0999999999999943,108.13321247566543,107.40269175831543,0.7305207173500037,1.0261169288733214,0.6548960572060788,0.3712208716672426,73.72672686931203,4.999999999999716
2022-03-22 05:00:00,2022-03-22 05:00:00,108.7,110.8,108.3,109.3,865.926,LTCEUR,0.5999999999999943,108.7166062378327,107.94477982736817,0.7718264104645414,1.1741039974773315,0.7587376452603294,0.41536635221700213,78.78870880809745,59.99999999999943
2022-03-22 06:00:00,2022-03-22 06:00:00,109.5,109.9,109.3,109.6,286.818,LTCEUR,0.09999999999999432,109.15830311891635,108.41769987669156,0.7406032422247932,1.30059980339243,0.8671100768867497,0.4334897265056803,80.30642628416278,-35.00000000000014
2022-03-22 07:00:00,2022-03-22 07:00:00,109.6,109.6,107.6,108.6,1371.128,LTCEUR,-1.0,108.87915155945817,108.46978562620825,0.40936593324991577,1.3051124740849644,0.9547105563263927,0.35040191775857177,62.43651250684622,-34.99999999999943
2022-03-22 08:00:00,2022-03-22 08:00:00,108.7,109.0,108.6,108.9,268.163,LTCEUR,0.20000000000000284,108.88957577972909,108.59270401872018,0.29687176100890156,1.3177065895952467,1.0273097629801635,0.29039682661508315,65.22246350286268,90.00000000000057
2022-03-22 09:00:00,2022-03-22 09:00:00,108.8,111.3,108.5,110.4,977.726,LTCEUR,1.6000000000000085,109.64478788986455,109.10907429908585,0.5357135907786983,1.4322152944583308,1.1082908692757971,0.3239244251825337,75.93248031599902,100.0
2022-03-22 10:00:00,2022-03-22 10:00:00,110.5,111.1,110.4,110.9,585.11,LTCEUR,0.4000000000000057,110.27239394493228,109.62076735648989,0.6516265884423831,1.5454945897845818,1.195731613377554,0.3497629764070278,78.57204362253401,29.999999999999716
2022-03-22 11:00:00,2022-03-22 11:00:00,110.8,111.3,110.5,111.0,542.059,LTCEUR,0.20000000000000284,110.63619697246614,110.0148338260642,0.6213631464019329,1.6246109084614488,1.281507472394333,0.3431034360671159,79.12159623971995,19.999999999999574
2022-03-22 12:00:00,2022-03-22 12:00:00,110.9,112.5,110.8,111.3,864.298,LTCEUR,0.3999999999999915,110.96809848623306,110.38202416147443,0.5860743247586271,1.692014167727251,1.3636088114609166,0.3284053562663345,80.88631481215218,-10.000000000000142
2022-03-22 13:00:00,2022-03-22 13:00:00,111.4,111.4,110.2,110.8,607.871,LTCEUR,-0.6000000000000085,110.88404924311652,110.5014458296246,0.3826034134919212,1.6856547364656649,1.4280179964618662,0.25763674000379866,69.18994375177542,-35.00000000000014
2022-03-22 14:00:00,2022-03-22 14:00:00,110.8,111.2,110.1,110.6,287.211,LTCEUR,-0.20000000000000284,110.74202462155826,110.52960416401757,0.21242045754068783,1.6455081195346253,1.4715160210764182,0.17399209845820707,64.69921970625367,-50.0
2022-03-22 15:00:00,2022-03-22 15:00:00,110.4,111.3,109.6,109.8,1196.104,LTCEUR,-0.6000000000000085,110.27101231077913,110.32114583144111,-0.05013352066198706,1.5314843242805836,1.4835096817172513,0.04797464256333228,49.33070355716192,-39.99999999999986
2022-03-22 16:00:00,2022-03-22 16:00:00,109.8,110.1,109.4,109.8,556.315,LTCEUR,0.0,110.03550615538956,110.17224702245794,-0.13674086706838295,1.4246966291467231,1.4717470712031457,-0.047050442056422614,49.33070355716191,0.0
2022-03-22 17:00:00,2022-03-22 17:00:00,109.6,110.1,109.4,109.8,606.016,LTCEUR,0.20000000000000284,109.91775307769478,110.0658907303271,-0.1481376526323146,1.3247951970145238,1.4423566963654215,-0.11756149935089777,49.33070355716191,105.00000000000043
2022-03-22 18:00:00,2022-03-22 18:00:00,109.8,111.9,109.8,111.9,1017.504,LTCEUR,2.1000000000000085,110.9088765388474,110.58992195023365,0.3189545886137495,1.3989488305631994,1.4336751232049771,-0.034726292641777734,75.61011671369509,75.0
2022-03-22 19:00:00,2022-03-22 19:00:00,111.8,111.9,110.6,111.3,599.362,LTCEUR,-0.5,111.1044382694237,110.79280139302404,0.3116368763996604,1.3932407220265475,1.4255882429692912,-0.032347520942743735,64.19489204854965,-100.0
2022-03-22 20:00:00,2022-03-22 20:00:00,111.3,111.6,109.9,109.9,407.419,LTCEUR,-1.3999999999999915,110.50221913471185,110.53771528073145,-0.03549614601959661,1.2612102583920972,1.3927126460538524,-0.13150238766175515,45.12093881396685,-54.999999999999716
2022-03-22 21:00:00,2022-03-22 21:00:00,110.0,110.9,110.0,110.2,356.299,LTCEUR,0.20000000000000284,110.35110956735593,110.44122520052245,-0.09011563316651916,1.1673264449076584,1.3476354058246136,-0.18030896091695525,49.01628602711877,54.999999999999716
2022-03-22 22:00:00,2022-03-22 22:00:00,110.4,111.3,110.2,111.0,227.653,LTCEUR,0.5999999999999943,110.67555478367797,110.60087514323033,0.0746796404476413,1.144285548930867,1.3069654344458643,-0.16267988551499735,58.45314799520518,39.99999999999986
2022-03-22 23:00:00,2022-03-22 23:00:00,110.9,111.1,110.1,111.0,423.917,LTCEUR,0.09999999999999432,110.83777739183898,110.71491081659309,0.12286657524589373,1.1131932737475552,1.2682110023062028,-0.1550177285586476,58.45314799520518,25.0
