date,date,open,high,low,close,volume,pair,close_open_diff,ema_short,ema_long,ema_sort_ema_long_diff,macd,signal,momentum,rsi,gradient
2022-02-01 00:00:00,2022-02-01 00:00:00,97.7,97.8,97.3,97.5,232.538,LTCEUR,-0.20000000000000284,97.56365433717578,97.49627147569387,0.06738286148190298,0.27895577851599285,-0.04323535496144374,0.3221911334774366,59.197294290795135,-20.000000000000284
2022-02-01 01:00:00,2022-02-01 01:00:00,97.5,97.7,97.0,97.3,479.387,LTCEUR,-0.20000000000000284,97.43182716858789,97.4401939112099,-0.008366742622015977,0.2759687453955735,0.020605465109959704,0.2553632802856138,53.684289443965895,-35.00000000000014
2022-02-01 02:00:00,2022-02-01 02:00:00,97.1,97.3,96.6,96.8,293.742,LTCEUR,-0.29999999999999716,97.11591358429393,97.25728136514994,-0.141367780856001,0.23059749442778354,0.06260387097352448,0.16799362345425906,41.96091320064475,14.999999999999858
2022-02-01 03:00:00,2022-02-01 03:00:00,96.8,97.7,96.7,97.6,240.156,LTCEUR,0.7999999999999972,97.35795679214696,97.3552009751071,0.0027558170398691573,0.25623999017177823,0.10133109481317523,0.154908895358603,59.106740670867666,125.0
2022-02-01 04:00:00,2022-02-01 04:00:00,97.6,99.4,97.5,99.3,481.89,LTCEUR,1.7000000000000028,98.32897839607348,97.91085783936221,0.4181205567112727,0.409022686379501,0.16286941312644038,0.24615327325306063,76.67663773562052,50.0
2022-02-01 05:00:00,2022-02-01 05:00:00,99.3,99.8,98.4,98.6,844.832,LTCEUR,-0.7000000000000028,98.46448919803674,98.10775559954443,0.3567335984923119,0.46822254595672064,0.22394003969249643,0.2442825062642242,63.248951472479945,-50.0
2022-02-01 06:00:00,2022-02-01 06:00:00,98.4,98.8,98.3,98.3,287.697,LTCEUR,-0.10000000000000853,98.38224459901838,98.16268257110318,0.2195620279152024,0.4853367089194336,0.2762193735378839,0.2091173353815497,58.02324955895477,-14.999999999999858
2022-02-01 07:00:00,2022-02-01 07:00:00,98.2,98.6,97.8,98.3,303.63,LTCEUR,0.09999999999999432,98.34112229950918,98.20191612221655,0.1392061772926354,0.4932143384894232,0.31961836652819176,0.17359597196123144,58.02324955895478,5.000000000000426
2022-02-01 08:00:00,2022-02-01 08:00:00,98.4,98.8,98.3,98.4,421.878,LTCEUR,0.0,98.3705611497546,98.25851151586896,0.11204963388563272,0.5017428022438111,0.3560432536713156,0.14569954857249545,59.62446876105417,39.99999999999986
2022-02-01 09:00:00,2022-02-01 09:00:00,98.3,99.1,98.2,99.1,307.483,LTCEUR,0.7999999999999972,98.7352805748773,98.49893679704925,0.23634377782803995,0.5585472362138404,0.3965440501798206,0.1620031860340198,69.42223372445551,-45.000000000000284
2022-02-01 10:00:00,2022-02-01 10:00:00,99.0,100.1,97.4,97.5,926.65,LTCEUR,-1.5,98.11764028743865,98.2135262836066,-0.0958859961679508,0.46905159631896254,0.41104555940764903,0.05800603691131351,41.68006749312903,-89.99999999999986
2022-02-01 11:00:00,2022-02-01 11:00:00,97.4,97.8,96.5,97.3,641.601,LTCEUR,-0.10000000000000853,97.70882014371932,97.95251877400472,-0.24369863028539385,0.3776341964432959,0.4043632868147784,-0.026729090371482522,39.32296072499205,29.999999999999716
2022-02-01 12:00:00,2022-02-01 12:00:00,97.2,98.1,97.0,98.1,460.991,LTCEUR,0.8999999999999915,97.90441007185966,97.99465626714623,-0.09024619528656785,0.3655250176638418,0.3965956329845911,-0.031070615320749284,52.27734265892716,70.00000000000028
2022-02-01 13:00:00,2022-02-01 13:00:00,97.7,98.8,97.6,98.7,706.174,LTCEUR,1.0,98.30220503592983,98.1961830479616,0.10602198796823359,0.39973548992877284,0.39722360437342746,0.0025118855553453723,59.96916841277248,70.00000000000028
2022-02-01 14:00:00,2022-02-01 14:00:00,98.8,99.6,98.3,99.5,1006.993,LTCEUR,0.7000000000000028,98.90110251796492,98.56870217711543,0.3324003408494889,0.48580084010868063,0.41493905152047816,0.07086178858820247,68.17606078289282,4.999999999999716
2022-02-01 15:00:00,2022-02-01 15:00:00,99.4,99.9,98.5,98.8,1010.695,LTCEUR,-0.6000000000000085,98.85055125898245,98.63478726936816,0.21576398961428822,0.49185431002047153,0.4303221032204768,0.061532206799994715,56.09974840471174,-20.000000000000284
2022-02-01 16:00:00,2022-02-01 16:00:00,98.6,99.1,97.9,99.1,618.53,LTCEUR,0.5,98.97527562949122,98.76770519240583,0.20757043708539413,0.5149235037118132,0.4472423833187441,0.06768112039306906,59.765054990439864,135.00000000000014
2022-02-01 17:00:00,2022-02-01 17:00:00,99.0,102.0,98.8,101.5,1109.164,LTCEUR,2.5,100.23763781474561,99.54836085171846,0.6892769630271545,0.7185825756499042,0.5015104217849762,0.21707215386492806,77.6661163301996,110.00000000000014
2022-02-01 18:00:00,2022-02-01 18:00:00,101.6,102.1,100.3,101.3,934.049,LTCEUR,-0.29999999999999716,100.7688189073728,100.04882917979889,0.7199897275739175,0.8540011354230614,0.5720085645125932,0.28199257091046825,74.35783739985574,-4.999999999999716
2022-02-01 19:00:00,2022-02-01 19:00:00,101.2,102.3,100.8,101.4,896.132,LTCEUR,0.20000000000000284,101.0844094536864,100.43487798557064,0.649531468115768,0.9583432989442144,0.6492755113989175,0.30906778754529696,74.99686016512312,5.000000000000426
2022-02-01 20:00:00,2022-02-01 20:00:00,101.1,101.7,100.7,101.4,838.99,LTCEUR,0.30000000000001137,101.2422047268432,100.71062713255046,0.5315775942927417,1.0291715661024483,0.7252547223396237,0.3039168437628246,74.99686016512312,4.999999999999716
2022-02-01 21:00:00,2022-02-01 21:00:00,101.5,102.6,101.5,101.5,1125.435,LTCEUR,0.0,101.3711023634216,100.93616223753604,0.43494012588556075,1.0809125552879237,0.7963862889292838,0.28452626635864,75.86303744767285,39.99999999999986
2022-02-01 22:00:00,2022-02-01 22:00:00,101.5,102.9,101.5,102.2,776.382,LTCEUR,0.7000000000000028,101.7855511817108,101.29725874109718,0.48829244061361976,1.1649727313701561,0.8701035774174584,0.29486915395269775,81.30365539403505,29.999999999999716
2022-02-01 23:00:00,2022-02-01 23:00:00,102.3,102.6,101.4,102.1,797.591,LTCEUR,-0.20000000000000284,101.9427755908554,101.52661338649798,0.4161622043574198,1.2095785931853413,0.937998580571035,0.2715800126143063,78.27887804935469,4.999999999999716
