date,date,open,high,low,close,volume,pair,close_open_diff,ema_short,ema_long,ema_sort_ema_long_diff,macd,signal,momentum,rsi,gradient
2022-07-14 00:00:00,2022-07-14 00:00:00,48.55,48.7,48.33,48.4,384.503,LTCEUR,-0.14999999999999858,48.33401049791448,48.2001522913741,0.13385820654037417,0.0022207707054491266,-0.09777587132076195,0.09999664202621107,62.09408997169529,46.999999999999886
2022-07-14 01:00:00,2022-07-14 01:00:00,48.42,49.51,48.42,49.41,1166.224,LTCEUR,0.9899999999999949,48.87200524895724,48.545823065267214,0.3261821836900225,0.10879536166929427,-0.0564616247227507,0.16525698639204497,78.63492209708025,47.50000000000014
2022-07-14 02:00:00,2022-07-14 02:00:00,49.43,49.62,49.25,49.35,1302.99,LTCEUR,-0.0799999999999983,49.111002624478616,48.7755879037623,0.3354147207163152,0.18626781485556165,-0.00791573680708823,0.1941835516626499,76.26260263549406,-5.999999999999872
2022-07-14 03:00:00,2022-07-14 03:00:00,49.38,49.73,49.21,49.29,457.227,LTCEUR,-0.09000000000000341,49.20050131223931,48.92256278840164,0.27793852383766904,0.24005657088633114,0.041678724731595646,0.1983778461547355,73.59816272832124,-7.000000000000028
2022-07-14 04:00:00,2022-07-14 04:00:00,49.3,49.43,49.18,49.21,352.194,LTCEUR,-0.0899999999999963,49.20525065611966,49.00468770600118,0.20056295011848135,0.27308130486046167,0.08795924075736886,0.18512206410309281,69.70180931924621,-7.000000000000028
2022-07-14 05:00:00,2022-07-14 05:00:00,49.3,49.39,49.09,49.15,632.659,LTCEUR,-0.14999999999999858,49.17762532805983,49.04620550428656,0.1314198237732711,0.29105702173636416,0.12857879695316793,0.16247822478319623,66.5317817983047,-17.99999999999997
2022-07-14 06:00:00,2022-07-14 06:00:00,49.15,49.32,48.85,48.85,635.743,LTCEUR,-0.29999999999999716,49.01381266402991,48.990146788776116,0.023665875253797708,0.2778920475310329,0.15844144706874091,0.119450600462292,52.26873722761252,-4.499999999999815
2022-07-14 07:00:00,2022-07-14 07:00:00,48.91,49.27,48.91,49.06,1201.147,LTCEUR,0.15000000000000568,49.03690633201496,49.010104849125796,0.026801482889162287,0.28116288486268814,0.18298573462753037,0.09817715023515777,59.552475298101555,3.500000000000014
2022-07-14 08:00:00,2022-07-14 08:00:00,49.06,49.12,48.66,48.92,643.272,LTCEUR,-0.14000000000000057,48.97845316600748,48.98436060651843,-0.005907440510945605,0.26935328009560067,0.20025924372114445,0.06909403637445621,53.073329988148636,-13.000000000000256
2022-07-14 09:00:00,2022-07-14 09:00:00,48.88,48.92,48.57,48.8,538.977,LTCEUR,-0.0800000000000054,48.88922658300374,48.93168614751316,-0.042459564509421455,0.24745853812599705,0.209699102602115,0.03775943552388206,47.731860835615564,-37.0000000000001
2022-07-14 10:00:00,2022-07-14 10:00:00,48.82,48.96,48.1,48.18,474.348,LTCEUR,-0.6400000000000006,48.53461329150187,48.71691867679512,-0.18230538529324747,0.17802580822814917,0.20336444372732182,-0.025338635499172646,29.391761293843302,-27.499999999999858
2022-07-14 11:00:00,2022-07-14 11:00:00,48.12,48.25,47.82,48.25,992.443,LTCEUR,0.13000000000000256,48.392306645750935,48.58351334056794,-0.19120669481700503,0.1271822072172597,0.18812799642530942,-0.06094578920804972,32.88555243323279,5.499999999999972
2022-07-14 12:00:00,2022-07-14 12:00:00,48.21,48.36,48.1,48.29,586.738,LTCEUR,0.0799999999999983,48.34115332287547,48.49965238611996,-0.15849906324449137,0.0890889903885963,0.16832019521796682,-0.07923120482937052,35.08802045561154,3.0000000000001137
2022-07-14 13:00:00,2022-07-14 13:00:00,48.3,48.39,47.94,48.31,1388.956,LTCEUR,0.010000000000005116,48.32557666143774,48.44546599008569,-0.11988932864795032,0.05982405993435691,0.14662096816124484,-0.08679690822688793,36.34145469052041,9.499999999999886
2022-07-14 14:00:00,2022-07-14 14:00:00,48.3,48.61,48.05,48.48,796.542,LTCEUR,0.17999999999999972,48.40278833071886,48.455332850061204,-0.052544519342340834,0.0497751935108397,0.12725181323116383,-0.07747661972032413,46.81645718488451,4.999999999999716
2022-07-14 15:00:00,2022-07-14 15:00:00,48.44,48.56,48.22,48.41,1001.897,LTCEUR,-0.030000000000001137,48.40639416535943,48.44238060718657,-0.03598644182714139,0.03575086576009312,0.1089516237369497,-0.07320075797685657,43.29617618361299,7.500000000000284
2022-07-14 16:00:00,2022-07-14 16:00:00,48.36,48.75,48.3,48.63,664.187,LTCEUR,0.2700000000000031,48.51819708267972,48.49598614799041,0.022210934689312012,0.04190558486409657,0.09554241596237908,-0.05363683109828252,55.82389719136432,70.50000000000018
2022-07-14 17:00:00,2022-07-14 17:00:00,48.67,49.93,48.67,49.82,1467.351,LTCEUR,1.1499999999999986,49.169098541339864,48.874275819993144,0.29482272134671916,0.141178876642293,0.10466970809836187,0.03650916854393113,81.85080614068065,52.49999999999986
2022-07-14 18:00:00,2022-07-14 18:00:00,49.89,50.03,49.46,49.68,1220.578,LTCEUR,-0.21000000000000085,49.42454927066993,49.10448272856653,0.32006654210339747,0.20618012944125752,0.12497179236694102,0.0812083370743165,75.56557164795136,62.9999999999999
2022-07-14 19:00:00,2022-07-14 19:00:00,49.63,51.12,49.52,51.08,1456.344,LTCEUR,1.4499999999999957,50.25227463533496,49.66891623469038,0.5833584006445847,0.3664383174809984,0.1732650973897525,0.19317322009124593,87.28345123916894,83.50000000000009
2022-07-14 20:00:00,2022-07-14 20:00:00,51.1,51.38,51.04,51.35,1119.368,LTCEUR,0.25,50.80113731766748,50.1492258819217,0.6519114357457809,0.5093592532103486,0.2404839285538717,0.2688753246564769,88.55380575096021,-7.9999999999998295
2022-07-14 21:00:00,2022-07-14 21:00:00,51.33,51.56,50.9,50.92,824.132,LTCEUR,-0.4099999999999966,50.86056865883374,50.369447058515505,0.4911216003182375,0.5812276871497559,0.3086326802730486,0.27259500687670735,74.35774575559542,-17.99999999999997
2022-07-14 22:00:00,2022-07-14 22:00:00,50.95,51.18,50.84,50.99,693.149,LTCEUR,0.03999999999999915,50.92528432941687,50.54674789893964,0.37853643047722585,0.6364952329752143,0.3742051908134817,0.2622900421617326,75.13638397349928,-5.000000000000071
2022-07-14 23:00:00,2022-07-14 23:00:00,50.99,51.25,50.63,50.82,1526.554,LTCEUR,-0.1700000000000017,50.87264216470844,50.62481992781403,0.2478222368944074,0.658981256251856,0.43116040390115656,0.22782085235069943,69.0278629871264,-6.000000000000227
