date,date,open,high,low,close,volume,pair,close_open_diff,ema_short,ema_long,ema_sort_ema_long_diff,macd,signal,momentum,rsi,gradient
2022-06-27 00:00:00,2022-06-27 00:00:00,55.27,55.28,53.81,54.34,991.261,LTCEUR,-0.9299999999999997,54.90631061061245,55.125916375646526,-0.2196057650340748,0.015672774032125858,0.1915396885553738,-0.17586691452324793,31.764245378778284,-90.50000000000011
2022-06-27 01:00:00,2022-06-27 01:00:00,54.31,54.55,53.56,53.62,542.409,LTCEUR,-0.6900000000000048,54.26315530530623,54.69565455403323,-0.4324992487270052,-0.12083001628961654,0.12906574758637573,-0.24989576387599227,24.91327721420255,-5.500000000000327
2022-06-27 02:00:00,2022-06-27 02:00:00,53.57,54.34,53.48,54.23,974.513,LTCEUR,0.6599999999999966,54.246577652653116,54.56261039573802,-0.3160327430849037,-0.17773869797998998,0.06770485847310259,-0.24544355645309257,38.416982646910306,39.49999999999996
2022-06-27 03:00:00,2022-06-27 03:00:00,54.2,54.41,54.1,54.41,788.313,LTCEUR,0.20999999999999375,54.328288826326556,54.51900742552716,-0.19071859920060064,-0.20594078536726812,0.01297572970502845,-0.21891651507229656,42.10389704338394,31.500000000000128
2022-06-27 04:00:00,2022-06-27 04:00:00,54.41,55.04,54.41,54.86,351.065,LTCEUR,0.45000000000000284,54.59414441316328,54.61643387537654,-0.022289462213265665,-0.18979209844427913,-0.027577835924833066,-0.16221426251944607,50.919161034248845,19.50000000000003
2022-06-27 05:00:00,2022-06-27 05:00:00,54.83,54.93,54.68,54.8,240.341,LTCEUR,-0.030000000000001137,54.69707220658164,54.66888133955467,0.028190867026964384,-0.17976344517476406,-0.05801495777481927,-0.12174848739994479,49.70818954303622,2.499999999999858
2022-06-27 06:00:00,2022-06-27 06:00:00,54.73,55.03,54.73,54.91,246.397,LTCEUR,0.17999999999999972,54.80353610329082,54.7377723853962,0.06576371789461888,-0.1610827231525036,-0.07862851085035613,-0.08245421230214747,52.2086755408041,-13.499999999999801
2022-06-27 07:00:00,2022-06-27 07:00:00,54.91,55.02,54.18,54.53,396.965,LTCEUR,-0.37999999999999545,54.666768051645406,54.67840884671157,-0.01164079506616389,-0.17492451959486033,-0.09788771259925697,-0.07703680699560336,43.28682324448387,-5.999999999999872
2022-06-27 08:00:00,2022-06-27 08:00:00,54.6,54.82,54.35,54.79,303.283,LTCEUR,0.18999999999999773,54.728384025822706,54.710292033365405,0.01809199245730042,-0.16303504934776214,-0.110917179948958,-0.05211786939880414,50.2650494170892,25.9999999999998
2022-06-27 09:00:00,2022-06-27 09:00:00,54.82,55.37,54.75,55.05,395.203,LTCEUR,0.22999999999999687,54.88919201291135,54.807351452403864,0.08184056050748723,-0.13112124730974273,-0.11495799342111496,-0.01616325388862777,56.663773777431615,21.999999999999886
2022-06-27 10:00:00,2022-06-27 10:00:00,55.25,55.38,55.01,55.23,237.758,LTCEUR,-0.020000000000003126,55.05959600645568,54.928108180288476,0.13148782616720212,-0.09026432266674789,-0.11001925927024155,0.01975493660349366,60.8484431558782,-0.4999999999999005
2022-06-27 11:00:00,2022-06-27 11:00:00,55.3,55.3,55.0,55.04,216.164,LTCEUR,-0.259999999999998,55.049798003227835,54.960077271634624,0.0897207315932107,-0.07238195352859123,-0.10249179812191148,0.03010984459332025,54.217002244726714,-20.49999999999983
2022-06-27 12:00:00,2022-06-27 12:00:00,55.09,55.15,54.76,54.82,551.983,LTCEUR,-0.2700000000000031,54.934899001613914,54.920055194024734,0.014843807589180358,-0.07509654234025476,-0.09701274696558014,0.021916204625325383,47.086713199161345,-14.499999999999957
2022-06-27 13:00:00,2022-06-27 13:00:00,54.86,55.07,54.6,54.75,960.953,LTCEUR,-0.10999999999999943,54.84244950080696,54.87146799573195,-0.029018494924990534,-0.08195160146801328,-0.09400051786606678,0.0120489163980535,44.83533400058837,-21.999999999999886
2022-06-27 14:00:00,2022-06-27 14:00:00,54.78,54.82,54.1,54.38,980.621,LTCEUR,-0.3999999999999986,54.61122475040348,54.73104856837996,-0.11982381797648145,-0.1159041224203321,-0.09838123877691984,-0.017522883643412257,34.402077718438846,-100.4999999999999
2022-06-27 15:00:00,2022-06-27 15:00:00,54.36,54.63,52.61,52.74,2276.798,LTCEUR,-1.6199999999999974,53.67561237520174,54.162177548842834,-0.48656517364109675,-0.2720104665006957,-0.13310708432167503,-0.13890338217902068,15.373710288880105,-76.99999999999996
2022-06-27 16:00:00,2022-06-27 16:00:00,52.72,53.01,52.41,52.84,1462.516,LTCEUR,0.12000000000000455,53.25780618760087,53.784412534887736,-0.5266063472868652,-0.383238964381313,-0.18313346033360264,-0.20010550404771035,18.66547794152369,1.5000000000000568
2022-06-27 17:00:00,2022-06-27 17:00:00,52.84,52.94,52.3,52.77,744.826,LTCEUR,-0.07000000000000028,53.01390309380044,53.494580382062665,-0.48067728826222833,-0.47160044888172337,-0.2408268580432268,-0.23077359083849658,18.07489757658894,-17.50000000000007
2022-06-27 18:00:00,2022-06-27 18:00:00,52.79,52.79,52.35,52.49,819.935,LTCEUR,-0.29999999999999716,52.751951546900216,53.20755741575905,-0.45560586885883225,-0.5577913504261218,-0.3042197565198058,-0.253571593906316,15.691742521170113,-14.500000000000313
2022-06-27 19:00:00,2022-06-27 19:00:00,52.5,52.72,52.36,52.48,554.068,LTCEUR,-0.020000000000003126,52.6159757734501,52.999683868399316,-0.3837080949492133,-0.6197609587537798,-0.3673279969666006,-0.25243296178717917,15.603571941273202,20.49999999999983
2022-06-27 20:00:00,2022-06-27 20:00:00,52.39,53.24,51.77,52.9,1375.163,LTCEUR,0.509999999999998,52.75798788672505,52.97120276314237,-0.21321487641732517,-0.6277455697369447,-0.41941151152066947,-0.20833405821627526,34.22937575153166,11.000000000000298
2022-06-27 21:00:00,2022-06-27 21:00:00,52.85,52.85,52.4,52.7,444.652,LTCEUR,-0.14999999999999858,52.728993943362525,52.89371625938741,-0.16472231602488563,-0.6428019393706208,-0.4640895970906598,-0.17871234227996102,30.396094419726907,-0.999999999999801
2022-06-27 22:00:00,2022-06-27 22:00:00,52.71,52.95,52.53,52.88,556.147,LTCEUR,0.1700000000000017,52.80449697168126,52.88979732813387,-0.08530035645260625,-0.6329138877802407,-0.49785445522857597,-0.13505943255166475,37.90616400428341,13.499999999999801
2022-06-27 23:00:00,2022-06-27 23:00:00,52.87,53.12,52.8,52.97,255.93,LTCEUR,0.10000000000000142,52.88724848584063,52.91271237723848,-0.025463891397848215,-0.6107746577561031,-0.5204384957340814,-0.09033616202202166,41.68160073763064,12.9999999999999
