date,date,open,high,low,close,volume,pair,close_open_diff,ema_short,ema_long,ema_sort_ema_long_diff,macd,signal,momentum,rsi,gradient
2022-10-06 00:00:00,2022-10-06 00:00:00,54.96,55.18,54.78,55.17,547.479,LTCEUR,0.21000000000000085,55.0836164587746,55.0306535901716,0.05296286860299659,0.019975516230729795,-0.02205441245453435,0.042029928685264145,60.408284172410404,6.499999999999773
2022-10-06 01:00:00,2022-10-06 01:00:00,55.09,55.19,54.96,55.15,267.658,LTCEUR,0.05999999999999517,55.1168082293873,55.064752564408295,0.05205566497900804,0.03316643537709041,-0.011010242888209398,0.04417667826529981,59.16326480792687,3.9999999999999147
2022-10-06 02:00:00,2022-10-06 02:00:00,55.13,55.4,55.04,55.25,459.359,LTCEUR,0.11999999999999744,55.18340411469365,55.11768040314878,0.06572371154486945,0.05110044399172864,0.0014118944877782088,0.04968854950395043,63.65740661096977,15.500000000000114
2022-10-06 03:00:00,2022-10-06 03:00:00,55.33,55.49,55.2,55.46,259.772,LTCEUR,0.13000000000000256,55.321702057346826,55.21548600224913,0.10621605509769694,0.08132110095201739,0.017393735780626043,0.06392736517139135,71.54799195133758,1.5000000000000568
2022-10-06 04:00:00,2022-10-06 04:00:00,55.47,55.5,55.22,55.28,133.776,LTCEUR,-0.18999999999999773,55.300851028673414,55.23391857303509,0.06693245563832306,0.08971254328896805,0.03185749728229445,0.0578550460066736,58.48673089469503,-15.500000000000114
2022-10-06 05:00:00,2022-10-06 05:00:00,55.34,55.4,55.15,55.15,130.933,LTCEUR,-0.19000000000000483,55.225425514336706,55.20994183788221,0.015483676454493889,0.08489429961234407,0.04246485774830438,0.04242944186403969,50.49742600544466,-5.499999999999972
2022-10-06 06:00:00,2022-10-06 06:00:00,55.25,55.38,55.17,55.17,165.446,LTCEUR,-0.0799999999999983,55.197712757168354,55.198529884201584,-0.0008171270332297809,0.08174730756242354,0.050321347711128214,0.03142595985129533,51.71509956930377,1.9999999999999574
2022-10-06 07:00:00,2022-10-06 07:00:00,55.1,55.37,55.09,55.19,269.997,LTCEUR,0.0899999999999963,55.19385637858417,55.1960927744297,-0.0022363958455287047,0.07994556384738871,0.05624619093838032,0.023699372909008393,53.09950027508693,-18.500000000000227
2022-10-06 08:00:00,2022-10-06 08:00:00,55.15,55.15,54.79,54.8,502.3,LTCEUR,-0.3500000000000014,54.996928189292085,55.08292341030693,-0.0859952210148478,0.04651176961085213,0.05429930667287468,-0.007787537062022551,31.778730716426878,-12.9999999999999
2022-10-06 09:00:00,2022-10-06 09:00:00,54.82,54.95,54.74,54.93,145.147,LTCEUR,0.10999999999999943,54.96346409464604,55.03923100736209,-0.0757669127160483,0.03015752319065257,0.049470949976430256,-0.019313426785777688,41.21946863180685,8.500000000000085
2022-10-06 10:00:00,2022-10-06 10:00:00,54.93,55.01,54.74,54.97,298.867,LTCEUR,0.03999999999999915,54.96673204732302,55.01945071954435,-0.05271867222133153,0.02019157487635681,0.043615074956415575,-0.023423500080058765,44.07689662483697,3.9999999999999147
2022-10-06 11:00:00,2022-10-06 11:00:00,55.0,55.21,54.9,55.01,289.689,LTCEUR,0.00999999999999801,54.98836602366151,55.01675051396025,-0.028384490298734022,0.015344275486221193,0.0379609150623767,-0.022616639576155506,47.15931424443463,6.500000000000128
2022-10-06 12:00:00,2022-10-06 12:00:00,55.0,55.23,54.97,55.1,359.911,LTCEUR,0.10000000000000142,55.044183011830754,55.04053608140018,0.0036469304305768446,0.018551157439979704,0.0340789635378973,-0.015527806097917596,54.0044188481672,15.500000000000114
2022-10-06 13:00:00,2022-10-06 13:00:00,55.07,55.37,55.0,55.32,762.42,LTCEUR,0.25,55.18209150591538,55.120382915285845,0.06170859062953582,0.03840212013948019,0.03494359485821388,0.003458525281266306,66.6696460946448,9.999999999999787
2022-10-06 14:00:00,2022-10-06 14:00:00,55.34,55.63,55.26,55.3,839.438,LTCEUR,-0.04000000000000625,55.24104575295769,55.17170208234703,0.06934367061065672,0.05192179609903036,0.038339235106377184,0.013582560992653175,64.72536112390463,7.9999999999998295
2022-10-06 15:00:00,2022-10-06 15:00:00,55.31,55.77,55.03,55.48,1084.394,LTCEUR,0.1699999999999946,55.36052287647884,55.25978720167645,0.10073567480238665,0.07628140779270609,0.04592766964364297,0.03035373814906312,73.17436539361962,1.5000000000000568
2022-10-06 16:00:00,2022-10-06 16:00:00,55.32,55.37,54.83,55.33,1140.539,LTCEUR,0.00999999999999801,55.34526143823942,55.279848001197465,0.06541343704195413,0.08253145789125682,0.05324842729316574,0.029283030598091078,59.03440629683024,-4.499999999999815
2022-10-06 17:00:00,2022-10-06 17:00:00,55.33,55.7,55.17,55.39,682.629,LTCEUR,0.060000000000002274,55.36763071911971,55.31132000085533,0.05631071826437761,0.09127401614065178,0.06085354506266295,0.030420471077988828,62.511588617901786,2.500000000000213
2022-10-06 18:00:00,2022-10-06 18:00:00,55.39,55.44,55.03,55.38,331.967,LTCEUR,-0.00999999999999801,55.373815359559856,55.33094285775381,0.04287250180604474,0.09628571828885413,0.0679399797079012,0.028345738580952934,61.46809934300437,3.500000000000014
2022-10-06 19:00:00,2022-10-06 19:00:00,55.43,55.65,55.17,55.46,758.07,LTCEUR,0.030000000000001137,55.416907679779925,55.36781632696701,0.049091352812915545,0.10549675879484255,0.07545133552528947,0.030045423269553076,66.79000843979068,-10.500000000000043
2022-10-06 20:00:00,2022-10-06 20:00:00,55.46,55.46,54.98,55.17,543.509,LTCEUR,-0.28999999999999915,55.29345383988996,55.31129737640501,-0.01784353651504489,0.08837724057251961,0.0780365165347355,0.010340724037784105,41.72266475506928,-20.500000000000185
2022-10-06 21:00:00,2022-10-06 21:00:00,55.22,55.31,55.04,55.05,658.247,LTCEUR,-0.1700000000000017,55.17172691994498,55.23664098314644,-0.06491406320145643,0.06438471500720766,0.07530615622922994,-0.01092144122202228,35.168527956238904,-7.499999999999929
2022-10-06 22:00:00,2022-10-06 22:00:00,55.0,55.05,54.77,55.02,313.266,LTCEUR,0.020000000000003126,55.09586345997249,55.174743559390315,-0.07888009941782315,0.04246026090324051,0.06873697716403206,-0.026276716260791547,33.58575077943108,-19.99999999999993
2022-10-06 23:00:00,2022-10-06 23:00:00,55.02,55.02,54.6,54.65,758.118,LTCEUR,-0.37000000000000455,54.87293172998625,55.02481682813594,-0.1518850981496911,-0.004716565085949753,0.05404626871403569,-0.058762833799985446,20.15852937819811,-19.50000000000003
