date,date,open,high,low,close,volume,pair,close_open_diff,ema_short,ema_long,ema_sort_ema_long_diff,macd,signal,momentum,rsi,gradient
2022-08-18 00:00:00,2022-08-18 00:00:00,59.28,59.37,59.08,59.11,428.932,LTCEUR,-0.1700000000000017,59.319597495378375,59.46549754437304,-0.1459000489946618,-0.4147841138691817,-0.26293006613826164,-0.15185404773092004,33.41932758647343,-0.999999999999801
2022-08-18 01:00:00,2022-08-18 01:00:00,59.14,59.46,59.0,59.35,428.953,LTCEUR,0.21000000000000085,59.33479874768919,59.43249824598074,-0.09769949829154712,-0.41855415758600856,-0.294054884427811,-0.12449927315819753,40.97327949511675,31.500000000000128
2022-08-18 02:00:00,2022-08-18 02:00:00,59.52,59.89,58.9,59.74,345.0,LTCEUR,0.21999999999999886,59.53739937384459,59.52035588998625,0.017043483858344644,-0.3856269364799729,-0.31236929483824344,-0.07325764164172949,51.66650751366573,31.499999999999773
2022-08-18 03:00:00,2022-08-18 03:00:00,59.68,60.02,59.56,59.98,116.573,LTCEUR,0.29999999999999716,59.7586996869223,59.65168277856161,0.10701690836069133,-0.3362893480182123,-0.31715330547423726,-0.01913604254397505,57.369565794890356,0.0
2022-08-18 04:00:00,2022-08-18 04:00:00,59.78,59.95,59.56,59.74,155.339,LTCEUR,-0.03999999999999915,59.74934984346115,59.67691627040115,0.07243357305999609,-0.3129474841462496,-0.3163121412086397,0.0033646570623900862,50.253970220392404,-6.999999999999673
2022-08-18 05:00:00,2022-08-18 05:00:00,59.78,59.96,59.69,59.84,224.997,LTCEUR,0.060000000000002274,59.794674921730575,59.723511621715105,0.07116330001547055,-0.2831161379884932,-0.3096729405646104,0.0265568025761172,53.15884422557912,-0.5000000000002558
2022-08-18 06:00:00,2022-08-18 06:00:00,59.86,59.93,59.62,59.73,114.199,LTCEUR,-0.13000000000000256,59.76233746086528,59.725365444082215,0.03697201678306783,-0.26529253472542536,-0.3007968593967734,0.035504324671348064,49.354583309097706,-0.5000000000002558
2022-08-18 07:00:00,2022-08-18 07:00:00,59.7,59.97,59.7,59.83,39.434,LTCEUR,0.12999999999999545,59.79616873043264,59.755261031487294,0.04090769894534674,-0.24032768846831232,-0.2887030252110812,0.04837533674276889,53.02213780747136,1.5000000000000568
2022-08-18 08:00:00,2022-08-18 08:00:00,60.07,60.07,59.67,59.76,135.27,LTCEUR,-0.3100000000000023,59.778084365216316,59.75661502249092,0.021469342725396245,-0.22361360449515644,-0.27568514106789627,0.05207153657273983,49.98176195116242,7.000000000000028
2022-08-18 09:00:00,2022-08-18 09:00:00,59.72,60.08,59.64,59.97,192.558,LTCEUR,0.25,59.87404218260816,59.81758215892208,0.05646002368607839,-0.19121808452193534,-0.2587917297587041,0.06757364523676879,58.54028548242839,16.50000000000027
2022-08-18 10:00:00,2022-08-18 10:00:00,60.03,60.1,59.69,60.09,364.54,LTCEUR,0.060000000000002274,59.98202109130408,59.895415827801486,0.0866052635025909,-0.15408520608683318,-0.23785042502432996,0.08376521893749678,62.89398070586679,28.000000000000114
2022-08-18 11:00:00,2022-08-18 11:00:00,60.16,60.65,59.95,60.53,431.777,LTCEUR,0.37000000000000455,60.25601054565204,60.076725591286774,0.17928495436526504,-0.08813682319794225,-0.20790770465905242,0.11977088146111017,74.62046919364401,4.499999999999815
2022-08-18 12:00:00,2022-08-18 12:00:00,60.6,60.65,60.17,60.18,390.16,LTCEUR,-0.4200000000000017,60.21800527282602,60.106232565204834,0.11177270762118496,-0.0633836819237672,-0.1790029001119954,0.1156192181882282,57.32708198661171,-9.499999999999886
2022-08-18 13:00:00,2022-08-18 13:00:00,60.17,60.36,60.08,60.34,235.126,LTCEUR,0.1700000000000017,60.27900263641301,60.17302326086059,0.10597937555242254,-0.030504341245432443,-0.1493031883386828,0.11879884709325036,62.140269611668785,19.50000000000003
2022-08-18 14:00:00,2022-08-18 14:00:00,60.34,60.63,60.24,60.57,445.0,LTCEUR,0.22999999999999687,60.42450131820651,60.28644518632899,0.1380561318775193,0.013951032120736784,-0.11665234424679889,0.13060337636753566,68.30673777281984,-8.500000000000085
2022-08-18 15:00:00,2022-08-18 15:00:00,60.57,60.62,60.08,60.17,307.397,LTCEUR,-0.3999999999999986,60.297250659103256,60.25317513309214,0.0440755260111132,0.016712922568636657,-0.08997929088371179,0.10669221345234844,50.97835015899842,-10.999999999999943
2022-08-18 16:00:00,2022-08-18 16:00:00,60.1,60.5,59.98,60.35,507.785,LTCEUR,0.25,60.32362532955163,60.28083938078011,0.04278594877152386,0.03304531055410109,-0.06537437059614921,0.09841968115025031,56.88470734804056,16.999999999999815
2022-08-18 17:00:00,2022-08-18 17:00:00,60.37,60.63,59.68,60.51,471.614,LTCEUR,0.14000000000000057,60.41681266477582,60.346313843414364,0.07049882136145413,0.058228289054916615,-0.04065383866593605,0.09888212772085267,61.79473285679554,-17.50000000000007
2022-08-18 18:00:00,2022-08-18 18:00:00,60.5,60.5,59.62,60.0,427.416,LTCEUR,-0.5,60.20840633238791,60.247367031010256,-0.03896069862234697,0.03661121193670169,-0.025200828545408498,0.06181204048211019,43.044654834270624,-24.499999999999744
2022-08-18 19:00:00,2022-08-18 19:00:00,60.01,60.51,59.98,60.02,478.891,LTCEUR,0.010000000000005116,60.11420316619396,60.182405022150185,-0.06820185595622519,0.020852975312031674,-0.015990067773920463,0.03684304308595214,43.84646177629626,3.9999999999999147
2022-08-18 20:00:00,2022-08-18 20:00:00,59.99,60.25,59.76,60.08,481.04,LTCEUR,0.0899999999999963,60.09710158309698,60.15314644439299,-0.05604486129600872,0.013055462568345888,-0.010180961705467194,0.023236424273813082,46.55505898604321,9.999999999999787
2022-08-18 21:00:00,2022-08-18 21:00:00,60.09,60.52,60.02,60.22,436.985,LTCEUR,0.12999999999999545,60.15855079154849,60.1722474602807,-0.01369666873220865,0.017965611130208003,-0.004551647138332154,0.022517258268540157,52.91441711198719,29.50000000000017
2022-08-18 22:00:00,2022-08-18 22:00:00,60.19,60.68,60.03,60.67,320.52,LTCEUR,0.480000000000004,60.41427539577425,60.31446247162907,0.0998129241451764,0.057505293209956676,0.007859740931325614,0.04964555227863106,67.7265546468447,26.000000000000156
2022-08-18 23:00:00,2022-08-18 23:00:00,60.62,60.96,60.55,60.74,740.209,LTCEUR,0.12000000000000455,60.577137697887125,60.43604462259219,0.14109307529493265,0.09341239121307154,0.024970270987674802,0.06844212022539674,69.51658414537921,-13.500000000000156
