date,date,open,high,low,close,volume,pair,close_open_diff,ema_short,ema_long,ema_sort_ema_long_diff,macd,signal,momentum,rsi,gradient
2022-06-16 00:00:00,2022-06-16 00:00:00,47.8,48.82,47.79,48.2,979.691,LTCEUR,0.4000000000000057,47.5383709149863,46.488135428647794,1.050235486338508,1.1757601100632584,0.5068687027703018,0.6688914072929566,87.43153812680961,27.99999999999976
2022-06-16 01:00:00,2022-06-16 01:00:00,48.22,48.5,47.82,48.4,1330.402,LTCEUR,0.17999999999999972,47.969185457493154,47.03438244903414,0.9348030084590135,1.3483532176185378,0.6751656057399491,0.6731876118785887,88.05044841927044,-7.500000000000284
2022-06-16 02:00:00,2022-06-16 02:00:00,48.41,48.92,47.73,48.05,1406.471,LTCEUR,-0.35999999999999943,48.009592728746576,47.324558892167246,0.6850338365793291,1.4402896612288671,0.8281904168377328,0.6120992443911344,79.79844677337763,-9.499999999999886
2022-06-16 03:00:00,2022-06-16 03:00:00,48.14,48.78,48.13,48.21,960.927,LTCEUR,0.07000000000000028,48.10979636437329,47.577542065833754,0.5322542985395344,1.5086696137870632,0.9642862562275989,0.5443833575594643,80.78625565343486,14.500000000000313
2022-06-16 04:00:00,2022-06-16 04:00:00,48.27,48.36,47.75,48.34,643.889,LTCEUR,0.07000000000000028,48.22489818218665,47.795387189881254,0.4295109923053957,1.5554212049504628,1.0825132459721716,0.4729079589782912,81.66059115341693,-26.000000000000156
2022-06-16 05:00:00,2022-06-16 05:00:00,48.33,48.39,47.62,47.69,824.658,LTCEUR,-0.6400000000000006,47.95744909109332,47.76527656420089,0.1921725268924348,1.522472494836883,1.170505095745114,0.3519673990917691,64.14641402149357,-72.50000000000014
2022-06-16 06:00:00,2022-06-16 06:00:00,47.67,47.84,46.89,46.89,705.16,LTCEUR,-0.7800000000000011,47.42372454554666,47.515197545857774,-0.09147300031111172,1.4154902006471843,1.2195021167255282,0.19598808392165612,48.715213768792836,-31.499999999999773
2022-06-16 07:00:00,2022-06-16 07:00:00,47.0,47.26,46.62,47.06,803.332,LTCEUR,0.060000000000002274,47.24186227277333,47.38514110418413,-0.14327883141079667,1.3291024749926237,1.2414221883789474,0.08768028661367633,51.67936358450919,-34.499999999999886
2022-06-16 08:00:00,2022-06-16 08:00:00,47.02,47.08,46.04,46.2,956.615,LTCEUR,-0.8200000000000003,46.72093113638667,47.046529360131515,-0.3255982237448478,1.1776693283972506,1.228671616382608,-0.05100228798535733,38.25644428995636,-76.99999999999996
2022-06-16 09:00:00,2022-06-16 09:00:00,46.24,46.55,45.37,45.52,1393.87,LTCEUR,-0.7199999999999989,46.12046556819334,46.61037811437965,-0.48991254618631075,0.9913593778920742,1.1812091686845012,-0.18984979079242703,30.692423529469707,-14.000000000000057
2022-06-16 10:00:00,2022-06-16 10:00:00,45.57,46.15,45.26,45.92,1623.256,LTCEUR,0.3500000000000014,46.02023278409667,46.41312722455689,-0.3928944404602177,0.866001332591523,1.1181676014659057,-0.25216626887438265,39.18074005185755,-72.00000000000024
2022-06-16 11:00:00,2022-06-16 11:00:00,45.85,45.95,43.52,44.08,2361.124,LTCEUR,-1.7700000000000031,45.05011639204834,45.74651944611206,-0.6964030540637225,0.6111367519988775,1.0167614315725002,-0.4056246795736227,23.376808289063007,-88.00000000000026
2022-06-16 12:00:00,2022-06-16 12:00:00,44.04,44.27,43.26,44.16,2087.093,LTCEUR,0.11999999999999744,44.60505819602417,45.293228175794326,-0.6881699797701586,0.41087377003029246,0.8955838992640588,-0.48471012923376633,24.95609630043998,-33.999999999999986
2022-06-16 13:00:00,2022-06-16 13:00:00,44.11,44.31,43.13,43.4,1330.924,LTCEUR,-0.7100000000000009,44.00252909801208,44.752305839853086,-0.7497767418410035,0.18866347053889143,0.7541998135190253,-0.5655363429801339,20.20791354233525,-25.0
2022-06-16 14:00:00,2022-06-16 14:00:00,43.36,44.44,43.13,43.66,1720.095,LTCEUR,0.29999999999999716,43.831264549006036,44.440218457037915,-0.6089539080318787,0.03315781172894816,0.6099914131610099,-0.5768336014320617,25.988735574495294,-14.499999999999957
2022-06-16 15:00:00,2022-06-16 15:00:00,43.68,44.21,42.69,43.11,2367.691,LTCEUR,-0.5700000000000003,43.47063227450302,44.06015604074137,-0.5895237662383508,-0.13292961681706572,0.4614072071653948,-0.5943368239824605,21.951653298530815,-47.99999999999969
2022-06-16 16:00:00,2022-06-16 16:00:00,43.07,43.48,42.53,42.7,2088.694,LTCEUR,-0.36999999999999744,43.08531613725151,43.67154002910098,-0.5862238918494711,-0.29424678030106577,0.3102764096721027,-0.6045231899731685,19.273445753601962,12.5
2022-06-16 17:00:00,2022-06-16 17:00:00,42.84,43.9,42.84,43.36,1640.345,LTCEUR,0.519999999999996,43.222658068625755,43.582528592214985,-0.35987052358922966,-0.36463205903866225,0.17529471592994972,-0.539926774968612,34.67021348235532,44.50000000000003
2022-06-16 18:00:00,2022-06-16 18:00:00,43.31,43.83,42.82,43.59,1073.02,LTCEUR,0.28000000000000114,43.406329034312876,43.58466328015356,-0.1783342458406878,-0.3972742909950284,0.0607809145449541,-0.4580552055399825,39.49594104336056,-10.999999999999943
2022-06-16 19:00:00,2022-06-16 19:00:00,43.61,43.9,43.06,43.14,759.35,LTCEUR,-0.46999999999999886,43.27316451715644,43.457616628681116,-0.18445211152467778,-0.4542187828013624,-0.042219024924309206,-0.41199975787705323,33.658617580488595,22.499999999999787
2022-06-16 20:00:00,2022-06-16 20:00:00,43.16,44.04,42.97,44.04,1449.647,LTCEUR,0.8800000000000026,43.65658225857822,43.62401187762937,0.032570380948847344,-0.42186225891398976,-0.11814767172224533,-0.30371458719174443,51.029062826774485,-0.4999999999999005
2022-06-16 21:00:00,2022-06-16 21:00:00,44.1,44.2,42.7,43.13,1458.595,LTCEUR,-0.9699999999999989,43.39329112928911,43.48286562687812,-0.08957449758901248,-0.46429675149323657,-0.18737748767644358,-0.276919263816793,38.726086816595306,-30.00000000000007
2022-06-16 22:00:00,2022-06-16 22:00:00,43.1,43.5,42.78,43.44,1765.82,LTCEUR,0.3399999999999963,43.416645564644554,43.470618304912946,-0.05397274026839227,-0.4675226730126667,-0.24340652474368824,-0.22411614826897847,44.22335033932257,-5.000000000000071
2022-06-16 23:00:00,2022-06-16 23:00:00,43.39,43.7,42.99,43.03,577.585,LTCEUR,-0.35999999999999943,43.22332278232228,43.3447273606521,-0.12140457832982321,-0.49742876339954734,-0.29421097247486006,-0.20321779092468728,38.71131189707561,-53.999999999999915
