date,date,open,high,low,close,volume,pair,close_open_diff,ema_short,ema_long,ema_sort_ema_long_diff,macd,signal,momentum,rsi,gradient
2022-11-12 00:00:00,2022-11-12 00:00:00,59.32,59.71,58.81,59.7,533.788,LTCEUR,0.38000000000000256,59.280839360208276,59.08704167913498,0.1937976810732991,0.10573816143553927,0.31984177097852995,-0.21410360954299068,58.247840378819426,-15.000000000000213
2022-11-12 01:00:00,2022-11-12 01:00:00,59.76,60.0,58.9,59.01,1205.036,LTCEUR,-0.75,59.14541968010414,59.065029770810696,0.08038990929344436,0.08229123249221715,0.2723316632812674,-0.19004043078905025,47.737665228177185,-37.0000000000001
2022-11-12 02:00:00,2022-11-12 02:00:00,59.02,59.2,58.5,58.96,1079.103,LTCEUR,-0.060000000000002274,59.052709840052074,59.03502126486478,0.017688575187293054,0.05899473565636981,0.2296642777562879,-0.17066954209991808,47.000215977101874,1.5000000000000568
2022-11-12 03:00:00,2022-11-12 03:00:00,58.94,59.87,58.75,59.04,807.306,LTCEUR,0.10000000000000142,59.04635492002603,59.0364437606177,0.009911159408332537,0.04645195624758003,0.19302181345454633,-0.1465698572069663,48.526911461489334,-23.499999999999943
2022-11-12 04:00:00,2022-11-12 04:00:00,59.0,59.14,58.03,58.49,764.88,LTCEUR,-0.509999999999998,58.76817746001302,58.88031697186979,-0.11213951185676763,-0.007779018574083807,0.15286164704882033,-0.16064066562290413,39.209009424690734,-96.00000000000009
2022-11-12 05:00:00,2022-11-12 05:00:00,58.41,58.51,56.93,57.12,920.7,LTCEUR,-1.2899999999999991,57.94408873000651,58.37736926562127,-0.433280535614756,-0.1594667735645814,0.09039596292613998,-0.24986273649072138,24.91120507852014,-75.50000000000026
2022-11-12 06:00:00,2022-11-12 06:00:00,57.18,57.55,56.45,56.98,1090.672,LTCEUR,-0.20000000000000284,57.46204436500325,57.978120904015185,-0.5160765390119337,-0.28766126224869737,0.014784517891172508,-0.3024457801398699,23.84493238067688,17.00000000000017
2022-11-12 07:00:00,2022-11-12 07:00:00,56.97,57.6,56.75,57.46,514.402,LTCEUR,0.490000000000002,57.46102218250162,57.830086360010846,-0.36906417750922316,-0.3465297503943958,-0.05747833576594116,-0.28905141462845463,35.24798855277123,49.5000000000001
2022-11-12 08:00:00,2022-11-12 08:00:00,57.41,58.63,57.37,57.97,833.39,LTCEUR,0.5600000000000023,57.71551109125081,57.87006168572203,-0.15455059447121755,-0.3480189675980725,-0.11558646213236744,-0.23243250546570504,45.62820302716076,0.4999999999999005
2022-11-12 09:00:00,2022-11-12 09:00:00,57.9,58.26,57.09,57.47,1451.178,LTCEUR,-0.4299999999999997,57.59275554562541,57.755758346944305,-0.16300280131889622,-0.3851057449787447,-0.1694903187016429,-0.2156154262771018,38.38829623705951,-20.49999999999983
2022-11-12 10:00:00,2022-11-12 10:00:00,57.49,57.78,57.13,57.56,958.485,LTCEUR,0.07000000000000028,57.576377772812705,57.6998273906745,-0.12344961786179454,-0.40259418030572647,-0.21611109102245962,-0.18648308928326685,40.42994650876227,12.5
2022-11-12 11:00:00,2022-11-12 11:00:00,57.63,58.37,57.25,57.72,1217.073,LTCEUR,0.0899999999999963,57.64818888640635,57.70559099333893,-0.05740210693257808,-0.3989444452450357,-0.2526777618669749,-0.1462666833780608,44.3630905283362,26.500000000000057
2022-11-12 12:00:00,2022-11-12 12:00:00,57.77,58.45,57.58,58.09,893.929,LTCEUR,0.3200000000000003,57.86909444320318,57.81542213809924,0.053672305103944495,-0.3620229212488226,-0.27454679374334445,-0.08747612750547817,52.97842291758128,54.50000000000017
2022-11-12 13:00:00,2022-11-12 13:00:00,58.06,58.97,58.01,58.81,1565.069,LTCEUR,0.75,58.33954722160159,58.09958724149946,0.23995998010213526,-0.2715342865367134,-0.2739442923020183,0.002410005765304868,65.46578377880803,12.5
2022-11-12 14:00:00,2022-11-12 14:00:00,58.79,58.84,58.14,58.34,1239.042,LTCEUR,-0.44999999999999574,58.3397736108008,58.16827660107104,0.17149700972975523,-0.2350371022290787,-0.26616285428743036,0.031125752058351663,54.1923103595909,-5.000000000000071
2022-11-12 15:00:00,2022-11-12 15:00:00,58.37,59.18,57.92,58.71,1597.529,LTCEUR,0.3400000000000034,58.5248868054004,58.323054715050745,0.20183209034965444,-0.17424828714782592,-0.2477799408595095,0.07353165371168358,60.60156411217579,-10.000000000000142
2022-11-12 16:00:00,2022-11-12 16:00:00,58.68,58.94,58.05,58.14,768.074,LTCEUR,-0.5399999999999991,58.3324434027002,58.27075336789339,0.06169003480680857,-0.17010607262949407,-0.23224516721350644,0.06213909458401237,48.147816673319376,-26.999999999999957
2022-11-12 17:00:00,2022-11-12 17:00:00,58.13,59.13,57.84,58.17,2556.523,LTCEUR,0.03999999999999915,58.251221701350104,58.24196669135243,0.009255009997673369,-0.162529054729049,-0.21830194471661496,0.055772889987565966,48.8121873224305,13.499999999999801
2022-11-12 18:00:00,2022-11-12 18:00:00,58.12,58.41,57.89,58.41,885.066,LTCEUR,0.28999999999999915,58.33061085067505,58.28997620810888,0.04063464256616811,-0.1355951625879115,-0.2017605882908743,0.0661654257029628,54.41879796224252,37.9999999999999
2022-11-12 19:00:00,2022-11-12 19:00:00,58.41,58.96,58.05,58.93,500.408,LTCEUR,0.5200000000000031,58.630305425337525,58.4728401486492,0.15746527668832755,-0.07146638484100265,-0.1757017476009,0.10423536275989734,64.5221315376515,40.500000000000114
2022-11-12 20:00:00,2022-11-12 20:00:00,58.99,59.3,58.56,59.22,1398.026,LTCEUR,0.22999999999999687,58.92515271266876,58.68631439189228,0.23883832077648037,0.0027252944175728544,-0.1400163391972054,0.14274163361477826,69.10505169666442,13.500000000000156
2022-11-12 21:00:00,2022-11-12 21:00:00,59.19,59.31,58.82,59.2,530.171,LTCEUR,0.010000000000005116,59.06257635633438,58.83308170849449,0.2294946478398927,0.05922617937039831,-0.10016783548368467,0.159394014854083,68.37409840099659,-21.499999999999986
2022-11-12 22:00:00,2022-11-12 22:00:00,59.11,59.14,58.54,58.79,448.176,LTCEUR,-0.3200000000000003,58.92628817816719,58.82077264892463,0.10551552924255958,0.07011175955428683,-0.06611191647609038,0.13622367603037722,54.25634804956402,-37.5
2022-11-12 23:00:00,2022-11-12 23:00:00,58.77,58.85,58.42,58.45,340.393,LTCEUR,-0.3200000000000003,58.68814408908359,58.71483760637474,-0.026693517291150215,0.05071884648406666,-0.04274576388405897,0.09346461036812563,45.00842853432377,-25.9999999999998
