date,date,open,high,low,close,volume,pair,close_open_diff,ema_short,ema_long,ema_sort_ema_long_diff,macd,signal,momentum,rsi,gradient
2022-04-09 00:00:00,2022-04-09 00:00:00,103.8,104.0,102.4,102.6,523.009,LTCEUR,-1.2000000000000028,103.25052772606603,103.6225222345152,-0.3719945084491769,-0.3864465024203696,-0.2706230432581052,-0.11582345916226439,30.17648618972467,-80.00000000000043
2022-04-09 01:00:00,2022-04-09 01:00:00,102.3,102.5,100.9,102.1,628.309,LTCEUR,-0.20000000000000284,102.67526386303301,103.18751588179657,-0.5122520187635615,-0.5056079751617659,-0.3176200296388374,-0.18798794552292852,26.21493722958151,0.0
2022-04-09 02:00:00,2022-04-09 02:00:00,101.9,102.6,101.5,102.6,299.199,LTCEUR,0.6999999999999886,102.6376319315165,103.01965420128326,-0.38202226976676457,-0.5533201492450672,-0.3647600535600834,-0.18856009568498383,36.25674377383878,30.000000000000426
2022-04-09 03:00:00,2022-04-09 03:00:00,102.6,102.7,102.1,102.7,161.803,LTCEUR,0.10000000000000853,102.66881596575826,102.92832442948804,-0.2595084637297873,-0.5764186315126665,-0.4070917691506,-0.16932686236206645,38.27292847315597,-44.999999999999574
2022-04-09 04:00:00,2022-04-09 04:00:00,102.7,102.7,101.6,101.7,181.457,LTCEUR,-1.0,102.18440798287912,102.57737459249145,-0.3929666096123299,-0.6677189394828531,-0.4592172032170507,-0.20850173626580243,27.742906562583045,-25.0
2022-04-09 05:00:00,2022-04-09 05:00:00,101.9,102.4,101.4,102.2,350.273,LTCEUR,0.29999999999999716,102.19220399143956,102.46955328035104,-0.2773492889114806,-0.6917551472716497,-0.5057247920279705,-0.18603035524367917,37.98088875523877,25.0
2022-04-09 06:00:00,2022-04-09 06:00:00,102.4,102.7,102.0,102.2,136.969,LTCEUR,-0.20000000000000284,102.19610199571977,102.39253805739361,-0.1964360616738361,-0.7027036844592089,-0.5451205705142183,-0.1575831139449907,37.98088875523877,14.999999999999858
2022-04-09 07:00:00,2022-04-09 07:00:00,102.2,102.6,101.8,102.5,198.023,LTCEUR,0.29999999999999716,102.34805099785989,102.42324146956688,-0.07519047170698911,-0.6793419550824211,-0.5719648474278589,-0.10737710765456221,44.74511747816911,4.999999999999716
2022-04-09 08:00:00,2022-04-09 08:00:00,102.5,102.5,101.9,102.3,144.745,LTCEUR,-0.20000000000000284,102.32402549892994,102.3880296211192,-0.06400412218926022,-0.6692512331481026,-0.5914221245719077,-0.07782910857619496,41.15426485466253,0.0
2022-04-09 09:00:00,2022-04-09 09:00:00,102.3,102.8,102.0,102.5,316.367,LTCEUR,0.20000000000000284,102.41201274946496,102.4200211579423,-0.008008408477337525,-0.6377641862406023,-0.6006905369056467,-0.037073649334955605,46.323403110408954,5.000000000000426
2022-04-09 10:00:00,2022-04-09 10:00:00,102.5,102.7,102.1,102.4,174.155,LTCEUR,-0.09999999999999432,102.40600637473248,102.41430082710164,-0.008294452369156602,-0.6138040875382558,-0.6033132470321685,-0.010490840506087284,44.004150535361774,4.999999999999716
2022-04-09 11:00:00,2022-04-09 11:00:00,102.4,102.7,102.3,102.6,280.724,LTCEUR,0.19999999999998863,102.50300318736623,102.46735773364404,0.03564545372219641,-0.5720825961043658,-0.597067116846608,0.02498452074224211,50.010833715527674,0.0
2022-04-09 12:00:00,2022-04-09 12:00:00,102.6,102.6,101.9,102.4,218.728,LTCEUR,-0.19999999999998863,102.45150159368312,102.44811266688859,0.003388926794528402,-0.5488297740851635,-0.587419648294319,0.038589874209155495,44.30739997724777,20.000000000000284
2022-04-09 13:00:00,2022-04-09 13:00:00,102.6,103.1,102.6,103.0,262.241,LTCEUR,0.4000000000000057,102.72575079684157,102.60579476206328,0.11995603477828354,-0.47649403291246983,-0.5652345252179493,0.08874049230547942,60.517334775105155,29.999999999999716
2022-04-09 14:00:00,2022-04-09 14:00:00,102.9,103.3,102.7,103.0,313.023,LTCEUR,0.09999999999999432,102.86287539842078,102.71842483004521,0.14445056837557502,-0.4143905999946895,-0.5350657401732973,0.12067514017860781,60.51733477510517,-35.00000000000014
2022-04-09 15:00:00,2022-04-09 15:00:00,103.1,103.1,102.3,102.3,257.682,LTCEUR,-0.7999999999999972,102.5814376992104,102.59887487860372,-0.01743717939332612,-0.41685212007340056,-0.511423016153318,0.09457089607991742,40.64342374245461,-20.000000000000284
2022-04-09 16:00:00,2022-04-09 16:00:00,102.4,102.8,102.0,102.6,376.856,LTCEUR,0.19999999999998863,102.5907188496052,102.5991963418598,-0.008477492254598928,-0.3900985860031767,-0.48715813012328973,0.09705954412011303,49.21977618043365,-14.999999999999858
2022-04-09 17:00:00,2022-04-09 17:00:00,102.6,102.7,101.9,102.0,467.352,LTCEUR,-0.5999999999999943,102.2953594248026,102.42799738704271,-0.1326379622401106,-0.4125555198683486,-0.47223760807230153,0.05968208820395293,36.546458588071474,-14.999999999999858
2022-04-09 18:00:00,2022-04-09 18:00:00,102.2,102.9,102.0,102.3,488.08,LTCEUR,0.09999999999999432,102.2976797124013,102.39142670503051,-0.09374699262920672,-0.40151687238530087,-0.45809346093490144,0.05657658854960057,45.03762623359239,60.00000000000014
2022-04-09 19:00:00,2022-04-09 19:00:00,102.3,103.4,102.2,103.2,247.45,LTCEUR,0.9000000000000057,102.74883985620065,102.62244764645037,0.12639220975027854,-0.31649779675173306,-0.42977432809826777,0.1132765313465347,62.90690773431342,35.00000000000014
2022-04-09 20:00:00,2022-04-09 20:00:00,103.2,103.4,103.0,103.0,312.108,LTCEUR,-0.20000000000000284,102.87441992810032,102.73031974746455,0.14410018063577468,-0.26223501331516275,-0.39626646514164676,0.13403145182648402,57.88810980068501,4.999999999999716
2022-04-09 21:00:00,2022-04-09 21:00:00,103.0,103.5,103.0,103.3,165.488,LTCEUR,0.29999999999999716,103.08720996405016,102.89308553390325,0.19412443014691405,-0.19280137941680664,-0.3555734479966788,0.16277206857987214,63.17623861744854,-4.999999999999716
2022-04-09 22:00:00,2022-04-09 22:00:00,103.3,103.7,102.8,102.9,303.257,LTCEUR,-0.3999999999999915,102.99360498202509,102.89506109564519,0.09854388637990041,-0.16811347389057119,-0.3180814531754573,0.1499679792848861,52.60665332985673,-10.000000000000142
2022-04-09 23:00:00,2022-04-09 23:00:00,103.0,103.6,103.0,103.1,91.052,LTCEUR,0.09999999999999432,103.04680249101254,102.95361506831799,0.09318742269455527,-0.13090085874732438,-0.2806453342898307,0.1497444755425063,56.93009266871834,29.999999999999716
