date,date,open,high,low,close,volume,pair,close_open_diff,ema_short,ema_long,ema_sort_ema_long_diff,macd,signal,momentum,rsi,gradient
2022-03-03 00:00:00,2022-03-03 00:00:00,99.4,99.9,98.9,99.3,204.058,LTCEUR,-0.10000000000000853,99.47522094046974,99.56795632098894,-0.09273538051920127,-0.3258575632220584,-0.1608602520721498,-0.1649973111499086,40.260224960014284,25.0
2022-03-03 01:00:00,2022-03-03 01:00:00,99.3,100.4,99.0,100.1,331.818,LTCEUR,0.7999999999999972,99.78761047023487,99.71996880070638,0.06764166952848427,-0.2817869148380794,-0.18504558462533574,-0.09674133021274364,54.3871103030859,25.0
2022-03-03 02:00:00,2022-03-03 02:00:00,100.2,100.3,99.3,99.8,177.891,LTCEUR,-0.4000000000000057,99.79380523511743,99.74283485764741,0.050970377470022754,-0.26797900610603165,-0.20163226892147493,-0.06634673718455672,49.15623939937046,0.0
2022-03-03 03:00:00,2022-03-03 03:00:00,99.8,100.1,99.2,100.1,199.504,LTCEUR,0.29999999999999716,99.94690261755872,99.84488204117672,0.10202057638200301,-0.23017532825492992,-0.20734088078816593,-0.022834447466763996,54.41714801195613,-29.999999999999716
2022-03-03 04:00:00,2022-03-03 04:00:00,100.0,100.0,98.6,99.2,272.203,LTCEUR,-0.7999999999999972,99.57345130877937,99.66063002941195,-0.08717872063257914,-0.269728853263274,-0.21981847528318754,-0.04991037798008646,39.64821221457931,-14.999999999999858
2022-03-03 05:00:00,2022-03-03 05:00:00,99.4,101.0,99.4,99.8,390.874,LTCEUR,0.3999999999999915,99.68672565438968,99.70045002100852,-0.013724366618845352,-0.24978100130954317,-0.22581098048845868,-0.023970020821084487,50.41433960734525,50.0
2022-03-03 06:00:00,2022-03-03 06:00:00,99.8,100.3,99.6,100.2,154.044,LTCEUR,0.4000000000000057,99.94336282719485,99.84317858643465,0.10018424076019983,-0.19939700332517418,-0.2205281850558018,0.021131181730627613,56.60702214058774,75.0
2022-03-03 07:00:00,2022-03-03 07:00:00,100.1,101.3,99.6,101.3,245.716,LTCEUR,1.2000000000000028,100.62168141359743,100.25941327602474,0.36226813757268417,-0.06990074275820746,-0.19040269659628292,0.12050195383807547,69.2713085023938,10.000000000000142
2022-03-03 08:00:00,2022-03-03 08:00:00,101.1,101.6,100.3,100.4,513.23,LTCEUR,-0.6999999999999886,100.51084070679872,100.29958091144624,0.21125979535247552,-0.03944184068713241,-0.16021052541445285,0.12076868472732044,53.84290962263678,-54.999999999999716
2022-03-03 09:00:00,2022-03-03 09:00:00,100.7,101.0,99.9,100.2,425.943,LTCEUR,-0.5,100.35542035339935,100.27112922246161,0.08429113093774276,-0.031082964811645297,-0.13438501329389135,0.10330204848224606,50.82429571535229,-5.000000000000426
2022-03-03 10:00:00,2022-03-03 10:00:00,100.3,100.3,99.5,100.3,294.17,LTCEUR,0.0,100.32771017669967,100.279378016044,0.04833216065566148,-0.016202558187700333,-0.11074852227265315,0.09454596408495282,52.42463628635738,35.00000000000014
2022-03-03 11:00:00,2022-03-03 11:00:00,100.5,101.0,100.0,100.9,382.363,LTCEUR,0.4000000000000057,100.61385508834984,100.45669858288858,0.15715650546125914,0.043503772451444434,-0.07989806332783364,0.12340183577927807,61.45596248496183,0.0
2022-03-03 12:00:00,2022-03-03 12:00:00,100.9,101.3,100.3,100.3,461.246,LTCEUR,-0.6000000000000085,100.45692754417492,100.41192755920613,0.04499998496878277,0.041923219277521184,-0.055533806806762676,0.09745702608428386,50.05378960861444,-20.000000000000284
2022-03-03 13:00:00,2022-03-03 13:00:00,100.4,100.9,99.9,100.5,178.231,LTCEUR,0.09999999999999432,100.47846377208745,100.43709111371867,0.04137265836878612,0.056161552611030174,-0.03319473492320411,0.08935628753423427,53.50439643897767,20.000000000000284
2022-03-03 14:00:00,2022-03-03 14:00:00,100.4,100.7,100.0,100.7,297.172,LTCEUR,0.29999999999999716,100.58923188604373,100.51220793837048,0.07702394767325416,0.0826313402357357,-0.010029519891416146,0.09266086012715186,57.06395558028171,10.000000000000142
2022-03-03 15:00:00,2022-03-03 15:00:00,100.8,102.0,100.0,100.7,1320.738,LTCEUR,-0.09999999999999432,100.64461594302188,100.56586281312177,0.07875312990010741,0.10242811013844744,0.01246200611455657,0.08996610402389087,57.063955580281714,-70.00000000000028
2022-03-03 16:00:00,2022-03-03 16:00:00,101.1,101.6,98.3,99.3,1646.909,LTCEUR,-1.7999999999999972,99.97230797151093,100.2041877236584,-0.2318797521474778,0.005090216356947508,0.010987648163034758,-0.005897431806087251,32.208705862418185,-70.00000000000028
2022-03-03 17:00:00,2022-03-03 17:00:00,99.5,100.7,98.3,99.3,1262.797,LTCEUR,-0.20000000000000284,99.63615398575547,99.94584837404172,-0.3096943882862462,-0.07122967439900663,-0.0054558163493735184,-0.06577385804963311,32.208705862418185,-10.000000000000142
2022-03-03 18:00:00,2022-03-03 18:00:00,99.3,99.9,97.9,99.1,741.632,LTCEUR,-0.20000000000000284,99.36807699287773,99.70417741002979,-0.3361004171520534,-0.14616714237705253,-0.03359808155490932,-0.11256906082214321,29.56004809804591,5.000000000000426
2022-03-03 19:00:00,2022-03-03 19:00:00,98.9,100.9,98.9,99.4,1041.615,LTCEUR,0.5,99.38403849643888,99.6172695785927,-0.2332310821538215,-0.17928148746095474,-0.06273476273611842,-0.11654672472483632,38.64231101348528,30.000000000000426
2022-03-03 20:00:00,2022-03-03 20:00:00,99.4,100.3,99.3,99.7,422.551,LTCEUR,0.29999999999999716,99.54201924821945,99.64090684185193,-0.09888759363248312,-0.17925105711402978,-0.08603802161170068,-0.0932130355023291,46.863738992119195,-5.000000000000426
2022-03-03 21:00:00,2022-03-03 21:00:00,99.5,99.9,98.9,99.3,631.449,LTCEUR,-0.20000000000000284,99.42100962410973,99.54350488703709,-0.1224952629273588,-0.2090933004933362,-0.11064907738802779,-0.0984442231053084,38.59045166863217,4.999999999999716
2022-03-03 22:00:00,2022-03-03 22:00:00,99.5,100.0,99.0,99.8,638.398,LTCEUR,0.29999999999999716,99.61050481205487,99.61678920502649,-0.00628439297162231,-0.19020510598433304,-0.12656028310728884,-0.0636448228770442,51.44756439537344,55.000000000000426
2022-03-03 23:00:00,2022-03-03 23:00:00,100.0,101.0,99.8,100.4,245.977,LTCEUR,0.4000000000000057,100.00525240602744,99.84056371787607,0.16468868815137228,-0.1253758355743173,-0.12632339360069456,0.0009475580263772487,62.69467305885172,64.99999999999986
