date,date,open,high,low,close,volume,pair,close_open_diff,ema_short,ema_long,ema_sort_ema_long_diff,macd,signal,momentum,rsi,gradient
2022-09-16 00:00:00,2022-09-16 00:00:00,56.89,56.89,56.0,56.44,427.529,LTCEUR,-0.45000000000000284,56.739361808362034,57.056309709406605,-0.31694790104457127,-0.867107338388891,-0.6198987898595879,-0.24720854852930307,18.912419348655703,-21.499999999999986
2022-09-16 01:00:00,2022-09-16 01:00:00,56.5,56.53,56.06,56.48,386.468,LTCEUR,-0.020000000000003126,56.60968090418102,56.89164979243329,-0.2819688882522726,-0.8994932999180776,-0.6758176918712859,-0.22367560804679165,20.61833596977469,16.50000000000027
2022-09-16 02:00:00,2022-09-16 02:00:00,56.5,57.0,55.85,56.77,464.403,LTCEUR,0.2700000000000031,56.68984045209051,56.85689270888092,-0.1670522567904129,-0.8914823774703606,-0.7189506289911008,-0.17253174847925978,32.89971357298516,-10.499999999999687
2022-09-16 03:00:00,2022-09-16 03:00:00,56.76,56.76,56.17,56.27,320.272,LTCEUR,-0.4899999999999949,56.47992022604525,56.68920907777209,-0.2092888517268392,-0.914932710282315,-0.7581470452493437,-0.1567856650329713,24.922214423071836,-40.500000000000114
2022-09-16 04:00:00,2022-09-16 04:00:00,56.31,56.37,55.37,55.96,661.797,LTCEUR,-0.3500000000000014,56.21996011302262,56.48086362698006,-0.2609035139574374,-0.9476082392913128,-0.7960392840577376,-0.15156895523357516,21.113281509926267,-19.50000000000003
2022-09-16 05:00:00,2022-09-16 05:00:00,56.02,56.06,55.79,55.88,391.755,LTCEUR,-0.14000000000000057,56.049980056511316,56.30918830498576,-0.2592082484744438,-0.9687915370699827,-0.8305897346601867,-0.13820180240979596,20.159170531357077,5.999999999999872
2022-09-16 06:00:00,2022-09-16 06:00:00,55.86,56.17,55.86,56.08,221.142,LTCEUR,0.21999999999999886,56.06499002825566,56.243705932132684,-0.17871590387702696,-0.9583933625424947,-0.8561504602366483,-0.10224290230584643,29.690981960862345,1.9999999999999574
2022-09-16 07:00:00,2022-09-16 07:00:00,56.09,56.3,55.9,55.92,431.588,LTCEUR,-0.1700000000000017,55.992495014127826,56.15121852295192,-0.15872350882409592,-0.9520883156899913,-0.8753380313273169,-0.07675028436267439,26.63800623614705,-18.999999999999773
2022-09-16 08:00:00,2022-09-16 08:00:00,55.94,56.09,55.64,55.7,626.517,LTCEUR,-0.23999999999999488,55.846247507063914,56.022298944965655,-0.17605143790174083,-0.9538483124216199,-0.8910400875461776,-0.06280822487544235,22.774119940736426,-14.000000000000057
2022-09-16 09:00:00,2022-09-16 09:00:00,55.65,55.92,55.53,55.64,805.611,LTCEUR,-0.00999999999999801,55.74312375353196,55.91307067497547,-0.1699469214435112,-0.9491434857877508,-0.9026607671944923,-0.046482718593258476,21.74199600750194,-21.000000000000085
2022-09-16 10:00:00,2022-09-16 10:00:00,55.64,55.73,55.1,55.28,1054.943,LTCEUR,-0.35999999999999943,55.51156187676598,55.73219333926819,-0.22063146250221166,-0.9633588667921202,-0.914800387114018,-0.04855847967810223,16.392917287911928,8.500000000000085
2022-09-16 11:00:00,2022-09-16 11:00:00,55.33,55.86,55.33,55.81,510.105,LTCEUR,0.480000000000004,55.66078093838299,55.754423813763,-0.09364287538000582,-0.9212386226583078,-0.9160880342228761,-0.005150588435431702,41.72278743806998,32.99999999999983
2022-09-16 12:00:00,2022-09-16 12:00:00,55.87,56.29,55.81,55.94,567.49,LTCEUR,0.07000000000000028,55.8003904691915,55.80744558125929,-0.007055112067789082,-0.8673696151727555,-0.906344350412852,0.038974735240096536,46.4941244940202,26.999999999999957
2022-09-16 13:00:00,2022-09-16 13:00:00,56.01,56.37,55.93,56.35,488.308,LTCEUR,0.3400000000000034,56.07519523459575,55.962461129470924,0.1127341051248294,-0.7825734456023312,-0.881590169450748,0.09901672384841675,59.151400438930494,-1.5000000000000568
2022-09-16 14:00:00,2022-09-16 14:00:00,56.37,56.38,55.88,55.91,506.843,LTCEUR,-0.46000000000000085,55.992597617297875,55.94747223533638,0.045125381961497624,-0.7423191994078167,-0.8537359754421617,0.11141677603434508,45.339204382732234,-55.00000000000007
2022-09-16 15:00:00,2022-09-16 15:00:00,55.91,56.02,55.04,55.25,1012.784,LTCEUR,-0.6599999999999966,55.62129880864894,55.7481944538117,-0.12689564516276164,-0.7549710669259895,-0.8339829937389274,0.0790119268129379,31.922037716662004,-6.999999999999673
2022-09-16 16:00:00,2022-09-16 16:00:00,55.26,56.16,55.2,55.77,991.413,LTCEUR,0.5100000000000051,55.69564940432447,55.7544246098655,-0.058775205541031994,-0.7147983583783883,-0.8101460666668197,0.09534770828843131,46.80524115775008,24.5000000000001
2022-09-16 17:00:00,2022-09-16 17:00:00,55.79,55.95,55.49,55.74,577.207,LTCEUR,-0.04999999999999716,55.71782470216223,55.750303292761075,-0.03247859059884206,-0.6775713262299448,-0.7836311185794448,0.10605979234950003,46.107395123950546,-22.00000000000024
2022-09-16 18:00:00,2022-09-16 18:00:00,55.73,55.74,54.8,55.33,769.742,LTCEUR,-0.3999999999999986,55.523912351081115,55.63021663768648,-0.10630428660536495,-0.6733897902021866,-0.7615828529039932,0.0881930627018066,37.04842670984187,-30.49999999999997
2022-09-16 19:00:00,2022-09-16 19:00:00,55.32,55.37,54.64,55.13,665.644,LTCEUR,-0.18999999999999773,55.32695617554056,55.48729759834748,-0.16034142280692265,-0.6783941162180298,-0.7449451055668006,0.0665509893487708,33.22699100362264,-5.499999999999972
2022-09-16 20:00:00,2022-09-16 20:00:00,55.13,55.51,54.85,55.22,763.207,LTCEUR,0.0899999999999963,55.27347808777028,55.41092685596249,-0.13744876819220764,-0.6674044102051653,-0.7294369664944735,0.06203255628930826,36.74997944225701,25.0
2022-09-16 21:00:00,2022-09-16 21:00:00,55.25,55.66,55.25,55.63,520.49,LTCEUR,0.38000000000000256,55.45173904388514,55.47351918283035,-0.02178013894521058,-0.6184819407055713,-0.7072459613366932,0.08876402063112188,50.90903872971644,33.500000000000085
2022-09-16 22:00:00,2022-09-16 22:00:00,55.61,55.98,55.61,55.89,503.905,LTCEUR,0.28000000000000114,55.67086952194257,55.592513702021684,0.07835581992088692,-0.5523634025995534,-0.6762694495892652,0.12390604698971175,58.054493991471354,1.4999999999997016
2022-09-16 23:00:00,2022-09-16 23:00:00,55.93,55.93,55.53,55.66,519.515,LTCEUR,-0.2700000000000031,55.66543476097128,55.611795501444064,0.053639259527216154,-0.5126139678714807,-0.6435383532457083,0.13092438537422757,50.284847807294014,-17.00000000000017
