date,date,open,high,low,close,volume,pair,close_open_diff,ema_short,ema_long,ema_sort_ema_long_diff,macd,signal,momentum,rsi,gradient
2022-01-13 00:00:00,2022-01-13 00:00:00,123.6,124.4,123.5,124.4,320.366,LTCEUR,0.8000000000000114,123.82576683511407,123.10730206537933,0.7184647697347373,2.1918883063244152,1.8148796022505438,0.37700870407387144,88.3169987412036,-60.00000000000014
2022-01-13 01:00:00,2022-01-13 01:00:00,124.1,124.7,122.4,122.5,387.731,LTCEUR,-1.5999999999999943,123.16288341755703,122.93378718955667,0.22909622800035834,2.0876861147434767,1.8694409047491305,0.21824520999434616,55.16267743399413,-105.00000000000043
2022-01-13 02:00:00,2022-01-13 02:00:00,122.7,123.2,121.8,122.3,277.19,LTCEUR,-0.4000000000000057,122.7314417087785,122.75270513539763,-0.021263426619128722,1.966300510345377,1.8888128258683798,0.07748768447699717,52.665333709239796,-25.0
2022-01-13 03:00:00,2022-01-13 03:00:00,122.5,122.8,122.0,122.0,99.845,LTCEUR,-0.5,122.36572085438925,122.53764652528403,-0.17192567089477961,1.8248582218813993,1.8760219050709839,-0.05116368318958453,48.69700414190593,0.0
2022-01-13 04:00:00,2022-01-13 04:00:00,122.1,122.5,121.4,122.3,256.237,LTCEUR,0.20000000000000284,122.33286042719462,122.46974751806002,-0.1368870908654003,1.7171771329494305,1.8442529506466734,-0.12707581769724285,52.95115696206089,14.999999999999858
2022-01-13 05:00:00,2022-01-13 05:00:00,122.1,122.7,122.1,122.3,125.868,LTCEUR,0.20000000000000284,122.3164302135973,122.42124822718574,-0.10481801358844223,1.6132426372568602,1.798050887968711,-0.1848082507118507,52.95115696206089,10.000000000000142
2022-01-13 06:00:00,2022-01-13 06:00:00,122.3,122.6,122.0,122.5,263.377,LTCEUR,0.20000000000000284,122.40821510679865,122.4437487337041,-0.03553362690544759,1.5293823612896773,1.7443171826329043,-0.21493482134322694,56.42032680419941,14.999999999999858
2022-01-13 07:00:00,2022-01-13 07:00:00,122.5,122.8,122.4,122.6,251.634,LTCEUR,0.09999999999999432,122.50410755339932,122.48839195264578,0.01571560075353773,1.4542282150328845,1.6862993891129003,-0.23207117408001587,58.2666637858245,-25.0
2022-01-13 08:00:00,2022-01-13 08:00:00,122.6,122.6,121.7,122.0,211.726,LTCEUR,-0.5999999999999943,122.25205377669965,122.34885139474699,-0.09679761804733289,1.3309111122387236,1.6152217337380652,-0.2843106214993416,44.647351040805496,10.000000000000142
2022-01-13 09:00:00,2022-01-13 09:00:00,122.0,122.9,122.0,122.8,372.397,LTCEUR,0.7999999999999972,122.52602688834983,122.47775099624783,0.0482758921019979,1.2829457341266135,1.548766533815775,-0.2658207996891615,59.71381068508338,35.00000000000014
2022-01-13 10:00:00,2022-01-13 10:00:00,122.9,123.2,122.4,122.7,228.217,LTCEUR,-0.20000000000000284,122.61301344417492,122.54125071160558,0.07176273256933996,1.2227683497467439,1.4835668970019689,-0.260798547255225,57.37141829363729,-75.0
2022-01-13 11:00:00,2022-01-13 11:00:00,122.6,123.1,121.2,121.3,619.386,LTCEUR,-1.2999999999999972,121.95650672208745,122.18660765114683,-0.2301009290593754,1.0500052326428886,1.3968545641301529,-0.34684933148726427,34.58165174499558,-145.00000000000028
2022-01-13 12:00:00,2022-01-13 12:00:00,121.3,121.6,119.5,119.8,1117.225,LTCEUR,-1.5,120.87825336104373,121.50471975081916,-0.6264663897754303,0.7830255228590346,1.2740887558759293,-0.4910632330168947,22.890736257114554,-19.999999999999574
2022-01-13 13:00:00,2022-01-13 13:00:00,119.7,121.0,119.7,120.9,336.309,LTCEUR,1.2000000000000028,120.88912668052187,121.33194267915655,-0.44281599863468557,0.6526793055314215,1.1498068658070277,-0.49712756027560623,40.57084762597346,70.00000000000028
2022-01-13 14:00:00,2022-01-13 14:00:00,120.7,121.2,120.6,121.2,276.709,LTCEUR,0.5,121.04456334026094,121.29424477082611,-0.24968143056517533,0.5670498839154163,1.0332554694287055,-0.46620558551328917,44.71908391914241,64.99999999999986
2022-01-13 15:00:00,2022-01-13 15:00:00,121.1,122.9,121.0,122.2,616.413,LTCEUR,1.1000000000000085,121.62228167013046,121.5530319791615,0.0692496909689595,0.5732712785590905,0.9412586312547825,-0.36798735269569194,56.78496001604259,-85.00000000000014
2022-01-13 16:00:00,2022-01-13 16:00:00,122.3,122.3,118.5,119.5,1042.278,LTCEUR,-2.799999999999997,120.56114083506523,120.96645141368678,-0.4053105786215525,0.35622796919379596,0.8242524988425852,-0.46802452964878927,33.26247497478194,-130.00000000000043
2022-01-13 17:00:00,2022-01-13 17:00:00,119.3,120.0,119.0,119.6,520.262,LTCEUR,0.29999999999999716,120.08057041753261,120.57603672406199,-0.49546630652938006,0.19009742232134386,0.697421483538337,-0.5073240612169931,34.46893949560422,-45.000000000000284
2022-01-13 18:00:00,2022-01-13 18:00:00,119.3,119.4,117.6,118.6,1092.215,LTCEUR,-0.7000000000000028,119.3402852087663,120.01145480290143,-0.6711695941351223,-0.022000270212032547,0.5535371327882631,-0.5755374030002957,28.32443391331644,-44.999999999999574
2022-01-13 19:00:00,2022-01-13 19:00:00,118.6,119.2,118.3,118.7,506.68,LTCEUR,0.10000000000000853,119.02014260438315,119.63675343064388,-0.6166108262607253,-0.17994575273576174,0.40684055568345817,-0.58678630841922,29.825566940253424,5.000000000000426
2022-01-13 20:00:00,2022-01-13 20:00:00,118.6,119.3,118.2,118.7,614.84,LTCEUR,0.10000000000000853,118.86007130219159,119.36910959331705,-0.5090382911254636,-0.30164154955366485,0.2651441346360336,-0.5667856841896984,29.825566940253424,25.0
2022-01-13 21:00:00,2022-01-13 21:00:00,118.6,119.2,117.8,119.2,339.834,LTCEUR,0.6000000000000085,119.0300356510958,119.32079256665503,-0.29075691555922845,-0.3536637088890018,0.14138256593102655,-0.49504627482002833,39.0207912818221,29.999999999999716
2022-01-13 22:00:00,2022-01-13 22:00:00,119.2,119.5,118.6,119.3,321.664,LTCEUR,0.09999999999999432,119.16501782554789,119.31485183332501,-0.14983400777711608,-0.3824142472983141,0.03662320328515842,-0.4190374505834725,40.88000388774201,0.0
2022-01-13 23:00:00,2022-01-13 23:00:00,119.3,119.6,118.9,119.2,196.056,LTCEUR,-0.09999999999999432,119.18250891277395,119.28203702380358,-0.09952811102962755,-0.4085588087608727,-0.05241319912404781,-0.3561456096368249,39.437112548243476,5.000000000000426
