date,date,open,high,low,close,volume,pair,close_open_diff,ema_short,ema_long,ema_sort_ema_long_diff,macd,signal,momentum,rsi,gradient
2022-04-10 00:00:00,2022-04-10 00:00:00,103.2,103.5,103.0,103.5,163.419,LTCEUR,0.29999999999999716,103.27340124550628,103.10972504879857,0.16367619670771205,-0.06834509635592667,-0.2381852867030499,0.16984019034712322,64.6660698547129,40.00000000000057
2022-04-10 01:00:00,2022-04-10 01:00:00,103.5,104.1,103.0,103.9,205.067,LTCEUR,0.4000000000000057,103.58670062275314,103.33551789199898,0.2511827307541665,0.013353522000357998,-0.18787752496236831,0.2012310469627263,70.9314313822446,0.0
2022-04-10 02:00:00,2022-04-10 02:00:00,103.9,103.9,103.5,103.5,221.242,LTCEUR,-0.4000000000000057,103.54335031137657,103.38251277999927,0.16083753137729673,0.04530140222820478,-0.14124173952425373,0.1865431417524585,58.486533971221355,-10.000000000000142
2022-04-10 03:00:00,2022-04-10 03:00:00,103.7,104.0,103.4,103.7,202.61,LTCEUR,0.0,103.62167515568828,103.4732234142852,0.14845174140307904,0.08576995337848814,-0.09583940094370536,0.1816093543221935,62.44042352554708,14.999999999999858
2022-04-10 04:00:00,2022-04-10 04:00:00,103.7,103.9,103.5,103.8,130.08,LTCEUR,0.09999999999999432,103.71083757784413,103.56658815306086,0.1442494247832684,0.12447585580814291,-0.05177634959333571,0.17625220540147862,64.47078074216003,0.0
2022-04-10 05:00:00,2022-04-10 05:00:00,103.7,104.0,103.7,103.7,155.409,LTCEUR,0.0,103.70541878892206,103.60470582361489,0.10071296530716722,0.14540525679085192,-0.012340028316498185,0.15774528510735011,60.5434270626906,-4.999999999999716
2022-04-10 06:00:00,2022-04-10 06:00:00,103.6,103.8,103.5,103.7,87.199,LTCEUR,0.10000000000000853,103.70270939446104,103.63193273115348,0.07077666330755505,0.16014589566002257,0.022157156478805968,0.1379887391812166,60.54342706269059,-14.999999999999858
2022-04-10 07:00:00,2022-04-10 07:00:00,103.7,104.0,103.4,103.4,319.22,LTCEUR,-0.29999999999999716,103.55135469723052,103.5656662365382,-0.01431153930768403,0.14593818086338217,0.04691336135572121,0.09902481950766095,47.93011129277258,10.000000000000142
2022-04-10 08:00:00,2022-04-10 08:00:00,103.5,103.9,103.3,103.9,234.583,LTCEUR,0.4000000000000057,103.72567734861526,103.66119016895586,0.06448717965940887,0.1730297070954947,0.07213663050367591,0.10089307659181879,63.24487168980942,-5.000000000000426
2022-04-10 09:00:00,2022-04-10 09:00:00,103.8,103.9,103.2,103.3,151.134,LTCEUR,-0.5,103.51283867430763,103.55799297782562,-0.04515430351798955,0.14442016545861236,0.0865933374946632,0.057826827963949154,44.42814034513201,-50.0
2022-04-10 10:00:00,2022-04-10 10:00:00,103.2,103.5,102.7,102.9,272.5,LTCEUR,-0.29999999999999716,103.20641933715382,103.36999498416117,-0.16357564700734883,0.08845063664955433,0.08696479732564143,0.0014858393239128992,35.88652099826801,-29.999999999999716
2022-04-10 11:00:00,2022-04-10 11:00:00,102.9,103.0,102.6,102.7,164.385,LTCEUR,-0.20000000000000284,102.9532096685769,103.1785678458294,-0.2253581772525024,0.027637465797440086,0.07509933102000116,-0.04746186522256107,32.17500028885652,-10.000000000000142
2022-04-10 12:00:00,2022-04-10 12:00:00,102.8,102.8,102.4,102.7,314.063,LTCEUR,-0.09999999999999432,102.82660483428845,103.04183417559243,-0.21522934130398141,-0.020323137756747656,0.0560148372646514,-0.07633797502139905,32.17500028885652,54.999999999999716
2022-04-10 13:00:00,2022-04-10 13:00:00,102.7,104.1,102.7,103.8,593.466,LTCEUR,1.0999999999999943,103.31330241714423,103.25845298256603,0.054849434578201794,0.030081781256441786,0.050828226063009484,-0.020746444806567697,62.71541868215642,29.999999999999716
2022-04-10 14:00:00,2022-04-10 14:00:00,103.8,104.2,102.9,103.3,479.038,LTCEUR,-0.5,103.3066512085721,103.27032355897575,0.036327649596358924,0.029343962463272533,0.046531373343062093,-0.01718741087978956,50.349213732001616,-44.999999999999574
2022-04-10 15:00:00,2022-04-10 15:00:00,103.3,103.6,102.8,102.9,372.852,LTCEUR,-0.3999999999999915,103.10332560428606,103.16451682783983,-0.06119122355377726,-0.003477336733226366,0.0365296313278044,-0.04000696806103077,42.33543458671408,-4.999999999999716
2022-04-10 16:00:00,2022-04-10 16:00:00,102.9,103.4,102.8,103.2,240.612,LTCEUR,0.29999999999999716,103.15166280214302,103.17465487702844,-0.022992074885422653,-0.005220778135253568,0.028179549435192807,-0.03340032757044638,49.56073538529357,25.0
2022-04-10 17:00:00,2022-04-10 17:00:00,103.4,103.6,103.2,103.4,191.915,LTCEUR,0.0,103.27583140107151,103.23903919787746,0.03679220319405374,0.009427189747910347,0.024429077497736318,-0.01500188774982597,54.156085347915905,44.999999999999574
2022-04-10 18:00:00,2022-04-10 18:00:00,103.6,104.3,103.4,104.1,205.217,LTCEUR,0.5,103.68791570053575,103.4850279984839,0.20288770205185358,0.07663654134015019,0.03487057026621909,0.041765971073931096,66.84338763130279,64.99999999999986
2022-04-10 19:00:00,2022-04-10 19:00:00,104.2,105.1,104.1,104.7,592.287,LTCEUR,0.5,104.19395785026788,103.83216285605992,0.3617949942079548,0.1762833377005535,0.06315312375308597,0.11313021394746751,74.19030191202859,25.0
2022-04-10 20:00:00,2022-04-10 20:00:00,105.0,105.2,104.6,104.6,405.892,LTCEUR,-0.4000000000000057,104.39697892513394,104.05154489718566,0.34543402794827216,0.24436805464731037,0.09939610993193085,0.14497194471537952,71.04197485272248,0.0
2022-04-10 21:00:00,2022-04-10 21:00:00,104.7,105.1,104.3,104.7,516.561,LTCEUR,0.0,104.54848946256698,104.23681778370404,0.3116716788629361,0.3029031684415173,0.14009752163384814,0.16280564680766918,72.44515035953295,10.000000000000142
2022-04-10 22:00:00,2022-04-10 22:00:00,104.7,105.0,104.5,104.8,434.731,LTCEUR,0.09999999999999432,104.6742447312835,104.39772698836002,0.276517742923474,0.3532893326000419,0.1827358838270869,0.17055344877295503,73.95932687628945,-30.000000000000426
2022-04-10 23:00:00,2022-04-10 23:00:00,104.7,105.0,104.1,104.1,340.051,LTCEUR,-0.6000000000000085,104.38712236564174,104.31266213454288,0.07446023109886823,0.33289912693963686,0.21276853244959687,0.12013059449003999,50.60191570804966,-114.99999999999986
