date,date,open,high,low,close,volume,pair,close_open_diff,ema_short,ema_long,ema_sort_ema_long_diff,macd,signal,momentum,rsi,gradient
2022-09-11 00:00:00,2022-09-11 00:00:00,63.37,63.67,63.06,63.32,473.977,LTCEUR,-0.04999999999999716,63.224266879569385,63.15285801824581,0.07140886132357593,0.7586316916496259,0.7514807436346693,0.007150948014956526,60.415040363459475,-9.999999999999787
2022-09-11 01:00:00,2022-09-11 01:00:00,63.2,63.28,62.83,62.92,217.602,LTCEUR,-0.28000000000000114,63.07213343978469,63.08632715588986,-0.014193716105168619,0.7076885319278858,0.7427223012933126,-0.03503376936542679,50.19303646966322,3.9999999999999147
2022-09-11 02:00:00,2022-09-11 02:00:00,62.89,63.5,62.87,63.4,225.221,LTCEUR,0.509999999999998,63.23606671989235,63.17594796849276,0.06011875139959244,0.6980015716680867,0.7337781553682674,-0.035776583700180664,59.95074616699793,5.999999999999872
2022-09-11 03:00:00,2022-09-11 03:00:00,63.37,63.54,63.04,63.04,326.017,LTCEUR,-0.3299999999999983,63.13803335994618,63.13710569178055,0.0009276681656302799,0.6537396903059332,0.7177704623558007,-0.06403077204986751,50.964679536244134,18.500000000000227
2022-09-11 04:00:00,2022-09-11 04:00:00,63.21,63.86,63.01,63.77,326.75,LTCEUR,0.5600000000000023,63.454016679973094,63.31793263698611,0.13608404298698673,0.6698451714004676,0.7081854041647341,-0.03834023276426646,64.0696952902602,14.499999999999957
2022-09-11 05:00:00,2022-09-11 05:00:00,63.77,63.96,63.07,63.33,253.569,LTCEUR,-0.44000000000000483,63.392008339986546,63.32138045499008,0.07062788499646899,0.6397301475127151,0.6944943528343304,-0.0547642053216153,53.69103358347434,-50.0
2022-09-11 06:00:00,2022-09-11 06:00:00,63.35,63.35,62.64,62.77,197.484,LTCEUR,-0.5799999999999983,63.08100416999328,63.16384318213577,-0.08283901214249312,0.5641730188540706,0.6684300860382785,-0.10425706718420791,43.04224490676647,-9.499999999999886
2022-09-11 07:00:00,2022-09-11 07:00:00,62.74,63.22,62.55,63.14,259.913,LTCEUR,0.3999999999999986,63.11050208499664,63.157030844382696,-0.046528759386056606,0.5280621856445435,0.6403565059595315,-0.11229432031498798,50.78184801415798,-21.000000000000085
2022-09-11 08:00:00,2022-09-11 08:00:00,63.17,63.31,61.9,62.35,871.501,LTCEUR,-0.8200000000000003,62.730251042498324,62.92645060313049,-0.19619956063216648,0.4307324765983864,0.5984317000873026,-0.1676992234889162,37.66766726465739,-22.500000000000142
2022-09-11 09:00:00,2022-09-11 09:00:00,62.33,62.8,62.18,62.69,691.348,LTCEUR,0.35999999999999943,62.71012552124916,62.85889328795035,-0.14876776670119085,0.37669088145855056,0.5540835363615523,-0.1773926549030017,45.00277523001257,25.4999999999999
2022-09-11 10:00:00,2022-09-11 10:00:00,62.7,62.94,62.49,62.86,184.285,LTCEUR,0.1599999999999966,62.785062760624584,62.8592094913931,-0.07414673076851841,0.34361908034946254,0.5119906451591344,-0.16837156480967186,48.62983990683902,-5.499999999999972
2022-09-11 11:00:00,2022-09-11 11:00:00,62.86,62.87,62.41,62.58,529.817,LTCEUR,-0.28000000000000114,62.68253138031229,62.77943535099507,-0.09690397068278145,0.2914560557728265,0.46788372728187283,-0.1764276715090463,43.02200148542593,-23.499999999999943
2022-09-11 12:00:00,2022-09-11 12:00:00,62.58,62.74,62.36,62.39,290.31,LTCEUR,-0.18999999999999773,62.53626569015614,62.668168107853624,-0.13190241769748212,0.2321094575344631,0.4207288733323909,-0.1886194157979278,39.32897754032818,-0.999999999999801
2022-09-11 13:00:00,2022-09-11 13:00:00,62.49,62.76,62.44,62.56,470.27,LTCEUR,0.07000000000000028,62.54813284507807,62.637262934181166,-0.08913008910309372,0.1965289665211074,0.3758888919701342,-0.1793599254490268,44.44887148702776,3.0000000000001137
2022-09-11 14:00:00,2022-09-11 14:00:00,62.58,62.58,62.12,62.45,657.638,LTCEUR,-0.12999999999999545,62.49906642253904,62.583759238700836,-0.08469281616179813,0.15763793833091455,0.33223870124229027,-0.17460076291137572,41.715479594571704,-18.500000000000227
2022-09-11 15:00:00,2022-09-11 15:00:00,62.43,62.45,61.9,62.19,685.031,LTCEUR,-0.240000000000002,62.34453321126952,62.47125659907203,-0.1267233878025067,0.10463057506702,0.2867170760072362,-0.18208650094021622,35.51998666480219,-15.000000000000213
2022-09-11 16:00:00,2022-09-11 16:00:00,62.24,62.39,61.91,62.15,454.973,LTCEUR,-0.09000000000000341,62.24726660563476,62.37946899933716,-0.13220239370239995,0.05871733518714706,0.2411171278432184,-0.18239979265607134,34.57206630478741,14.000000000000057
2022-09-11 17:00:00,2022-09-11 17:00:00,62.14,62.67,62.01,62.47,513.296,LTCEUR,0.3299999999999983,62.35863330281738,62.405334999526545,-0.0467016967091638,0.04760334570647018,0.20241437141586877,-0.1548110257093986,47.91577363946106,24.5000000000001
2022-09-11 18:00:00,2022-09-11 18:00:00,62.48,62.79,62.41,62.64,423.746,LTCEUR,0.1600000000000037,62.49931665140869,62.47238214251897,0.02693450888972393,0.05191456938165118,0.17231441100902525,-0.12039984162737408,53.90837650897346,-8.500000000000085
2022-09-11 19:00:00,2022-09-11 19:00:00,62.63,62.84,62.26,62.3,322.335,LTCEUR,-0.3300000000000054,62.399658325704344,62.42313010179926,-0.023471776094915242,0.02757818258150735,0.14336716532352167,-0.11578898274201432,42.243494315890885,-16.000000000000014
2022-09-11 20:00:00,2022-09-11 20:00:00,62.32,62.51,62.16,62.32,278.241,LTCEUR,0.0,62.35982916285217,62.39366435842804,-0.03383519557586823,0.009792373178754588,0.11665220689456826,-0.10685983371581367,43.112402763864885,1.5000000000000568
2022-09-11 21:00:00,2022-09-11 21:00:00,62.32,62.71,62.2,62.33,1192.288,LTCEUR,0.00999999999999801,62.34491458142608,62.37547454173431,-0.030559960308231382,-0.0034562509764342053,0.09263051532036777,-0.09608676629680198,43.62131082946593,0.0
2022-09-11 22:00:00,2022-09-11 22:00:00,62.31,62.43,61.34,62.32,656.767,LTCEUR,0.00999999999999801,62.33245729071304,62.359624672667366,-0.027167381954328107,-0.014594560488610853,0.07118550015857204,-0.0857800606471829,43.15800860386582,-50.4999999999999
2022-09-11 23:00:00,2022-09-11 23:00:00,62.22,62.36,60.84,61.32,727.107,LTCEUR,-0.8999999999999986,61.82622864535652,62.06258905190526,-0.2363604065487408,-0.10292691625468109,0.03636301687592142,-0.1392899331306025,18.974550154400816,-33.000000000000185
