date,date,open,high,low,close,volume,pair,close_open_diff,ema_short,ema_long,ema_sort_ema_long_diff,macd,signal,momentum,rsi,gradient
2022-10-26 00:00:00,2022-10-26 00:00:00,56.42,56.42,55.75,55.99,583.22,LTCEUR,-0.4299999999999997,56.153843575594834,55.89387345192135,0.25997012367348304,0.7410599217823375,0.44378409481608794,0.29727582696624955,63.17774360015485,-22.500000000000142
2022-10-26 01:00:00,2022-10-26 01:00:00,55.99,56.39,55.87,56.04,793.65,LTCEUR,0.04999999999999716,56.09692178779741,55.935623894229536,0.16129789356787683,0.7490645149115309,0.5048401788351765,0.2442243360763544,63.911941358029985,9.999999999999787
2022-10-26 02:00:00,2022-10-26 02:00:00,56.25,56.33,55.93,56.19,617.295,LTCEUR,-0.060000000000002274,56.143460893898705,56.008302781592526,0.13515811230617913,0.7587653840023663,0.5556252198686145,0.2031401641337518,66.32886491172354,28.999999999999915
2022-10-26 03:00:00,2022-10-26 03:00:00,56.22,56.64,56.07,56.62,370.716,LTCEUR,0.3999999999999986,56.38173044694935,56.18307341542323,0.19865703152611758,0.7920208753527049,0.6029043509654326,0.18911652438727233,72.63370222892945,24.5000000000001
2022-10-26 04:00:00,2022-10-26 04:00:00,56.46,56.82,56.45,56.68,336.287,LTCEUR,0.21999999999999886,56.53086522347468,56.32505243958802,0.2058127838866568,0.8138361933582061,0.6450907194439873,0.1687454739142188,73.46563618030194,0.5000000000002558
2022-10-26 05:00:00,2022-10-26 05:00:00,56.75,56.88,56.55,56.63,347.582,LTCEUR,-0.11999999999999744,56.580432611737336,56.41218031399144,0.16825229774589445,0.8176648762017464,0.6796055507955392,0.13805932540620725,71.29817555372219,-8.999999999999986
2022-10-26 06:00:00,2022-10-26 06:00:00,56.62,56.76,56.43,56.5,112.568,LTCEUR,-0.11999999999999744,56.54021630586867,56.437271652851024,0.10294465301764433,0.8009760678745863,0.7038796542113487,0.09709641366323762,65.28840836207044,-13.000000000000256
2022-10-26 07:00:00,2022-10-26 07:00:00,56.49,56.52,56.25,56.37,281.328,LTCEUR,-0.12000000000000455,56.45510815293433,56.418051180607875,0.037056972326453774,0.7684024879273821,0.7167842209545554,0.051618266972826676,59.29118018612533,-10.999999999999943
2022-10-26 08:00:00,2022-10-26 08:00:00,56.35,56.41,56.13,56.28,516.442,LTCEUR,-0.07000000000000028,56.367554076467165,56.37860798614848,-0.011053909681315588,0.7269456661690015,0.7188165099974446,0.00812915617155685,55.08733550963114,-4.499999999999815
2022-10-26 09:00:00,2022-10-26 09:00:00,56.28,56.51,56.23,56.28,626.582,LTCEUR,0.0,56.32377703823359,56.35043427582034,-0.02665723758675398,0.6861809691654983,0.7122894018310554,-0.02610843266555707,55.08733550963114,23.999999999999844
2022-10-26 10:00:00,2022-10-26 10:00:00,56.28,57.12,56.09,56.76,1114.493,LTCEUR,0.4799999999999969,56.541888519116796,56.46745305415739,0.07443546495940723,0.6847136883887899,0.7067742591426023,-0.022060570753812403,70.9213733338622,43.99999999999977
2022-10-26 11:00:00,2022-10-26 11:00:00,56.92,57.22,56.8,57.16,573.295,LTCEUR,0.23999999999999488,56.850944259558396,56.665323610112424,0.18562064944597267,0.7076699363456243,0.7069533945832067,0.000716541762417533,78.50091357168118,24.5000000000001
2022-10-26 12:00:00,2022-10-26 12:00:00,57.11,57.49,57.07,57.25,368.622,LTCEUR,0.14000000000000057,57.050472129779195,56.832374007223166,0.21809812255602878,0.724770473219543,0.710516810310474,0.014253662909069043,79.91447876187597,-3.9999999999999147
2022-10-26 13:00:00,2022-10-26 13:00:00,57.23,57.34,57.0,57.08,747.012,LTCEUR,-0.14999999999999858,57.065236064889596,56.90312429087369,0.16211177401590504,0.7163475836111388,0.711682964970607,0.0046646186405318035,69.54931119504528,-28.000000000000114
2022-10-26 14:00:00,2022-10-26 14:00:00,57.08,57.11,56.53,56.69,834.927,LTCEUR,-0.39000000000000057,56.8776180324448,56.842231636338354,0.03538639610644623,0.6704738372386174,0.7034411394242092,-0.03296730218559174,51.24978529409311,-27.99999999999976
2022-10-26 15:00:00,2022-10-26 15:00:00,56.66,56.74,56.11,56.52,957.738,LTCEUR,-0.13999999999999346,56.6988090162224,56.7501654545274,-0.051356438304999585,0.6133308868072902,0.6854190889008254,-0.07208820209353517,45.049614607089865,1.0000000000001563
2022-10-26 16:00:00,2022-10-26 16:00:00,56.57,57.4,56.46,56.71,1795.307,LTCEUR,0.14000000000000057,56.704404508111196,56.73868961037671,-0.034285102265513956,0.5767279383290926,0.6636808587864789,-0.08695292045738623,52.720878443806875,-6.500000000000128
2022-10-26 17:00:00,2022-10-26 17:00:00,56.77,56.96,56.36,56.39,763.254,LTCEUR,-0.38000000000000256,56.5472022540556,56.63906400741193,-0.09186175335633351,0.5159509509079498,0.6341348772107731,-0.11818392630282326,41.119249322734646,-42.00000000000017
2022-10-26 18:00:00,2022-10-26 18:00:00,56.4,56.55,55.81,55.87,1275.717,LTCEUR,-0.5300000000000011,56.2086011270278,56.419331433865665,-0.21073030683786698,0.4209723886730714,0.5915023795032328,-0.1705299908301614,28.77258117617545,-22.500000000000142
2022-10-26 19:00:00,2022-10-26 19:00:00,55.86,56.06,55.7,55.94,467.417,LTCEUR,0.0799999999999983,56.0743005635139,56.28237959561833,-0.20807903210442902,0.34734562465801133,0.5426710285341886,-0.19532540387617725,32.06759709408752,-20.49999999999983
2022-10-26 20:00:00,2022-10-26 20:00:00,55.84,55.93,55.3,55.46,438.121,LTCEUR,-0.38000000000000256,55.767150281756955,56.04741399687024,-0.2802637151132856,0.24741188504897593,0.4836191998371461,-0.23620731478817014,23.22631768244483,-16.999999999999815
2022-10-26 21:00:00,2022-10-26 21:00:00,55.45,55.7,55.32,55.6,460.043,LTCEUR,0.14999999999999858,55.683575140878474,55.91958142633589,-0.23600628545741387,0.17746480261968145,0.4223883203936532,-0.24492351777397176,29.982811869463845,7.000000000000028
2022-10-26 22:00:00,2022-10-26 22:00:00,55.65,55.83,55.37,55.6,624.899,LTCEUR,-0.04999999999999716,55.641787570439234,55.82827244738278,-0.18648487694354543,0.1206405664985013,0.36203876961462284,-0.24139820311612153,29.982811869463845,5.000000000000071
2022-10-26 23:00:00,2022-10-26 23:00:00,55.63,55.83,55.55,55.7,708.825,LTCEUR,0.07000000000000028,55.67089378521962,55.79162317670199,-0.12072939148237083,0.08272254028961612,0.30617552374962154,-0.22345298346000542,35.79466473044158,16.999999999999815
