date,date,open,high,low,close,volume,pair,close_open_diff,ema_short,ema_long,ema_sort_ema_long_diff,macd,signal,momentum,rsi,gradient
2022-12-21 00:00:00,2022-12-21 00:00:00,61.82,62.14,61.75,61.75,344.954,LTCEUR,-0.07000000000000028,61.70247995384234,61.610117320568904,0.09236263327343863,0.3479067261262543,0.34022978497776324,0.0076769411484910455,69.45704407428255,4.499999999999815
2022-12-21 01:00:00,2022-12-21 01:00:00,61.74,62.22,61.46,61.87,971.735,LTCEUR,0.12999999999999545,61.786239976921166,61.68436951469207,0.10187046222909402,0.35532877412116903,0.3432495828064444,0.012079191314724624,73.96503272979434,30.999999999999872
2022-12-21 02:00:00,2022-12-21 02:00:00,61.82,62.63,61.74,62.37,795.164,LTCEUR,0.5499999999999972,62.078119988460585,61.88026393906577,0.19785604939481516,0.3969804781158075,0.35399576186831705,0.04298471624749045,85.01994296098471,22.00000000000024
2022-12-21 03:00:00,2022-12-21 03:00:00,62.29,62.84,62.08,62.31,1129.084,LTCEUR,0.020000000000003126,62.194059994230294,62.00304567076127,0.1910143234690267,0.4203032606971888,0.3672572616340914,0.053045999063097427,80.12095052023211,-30.49999999999997
2022-12-21 04:00:00,2022-12-21 04:00:00,62.27,62.28,61.39,61.76,574.723,LTCEUR,-0.5100000000000051,61.977029997115146,61.933604050543764,0.04342594657138221,0.3899116714296298,0.3717881435931991,0.018123527836430675,49.03847495806404,-59.50000000000024
2022-12-21 05:00:00,2022-12-21 05:00:00,61.66,61.66,61.02,61.12,708.673,LTCEUR,-0.5399999999999991,61.54851499855757,61.701145750388406,-0.1526307518308343,0.3106030283119807,0.3595511205369554,-0.048948092224974704,31.807815941460746,-13.499999999999801
2022-12-21 06:00:00,2022-12-21 06:00:00,61.02,61.56,60.96,61.49,327.773,LTCEUR,0.46999999999999886,61.51925749927879,61.64081839313458,-0.1215608938557935,0.27444266087437086,0.3425294286044385,-0.06808676773006767,45.17268991436085,10.000000000000142
2022-12-21 07:00:00,2022-12-21 07:00:00,61.51,61.52,61.29,61.32,193.437,LTCEUR,-0.18999999999999773,61.419628749639394,61.54915599509613,-0.12952724545673533,0.22942308341328754,0.3199081595662084,-0.09048507615292084,40.76742535112017,-19.50000000000003
2022-12-21 08:00:00,2022-12-21 08:00:00,61.31,61.37,61.06,61.1,372.677,LTCEUR,-0.21000000000000085,61.2598143748197,61.42082571078295,-0.16101133596325212,0.17398696906727196,0.29072392146642106,-0.11673695239914911,35.405489093704574,1.9999999999999574
2022-12-21 09:00:00,2022-12-21 09:00:00,61.07,61.49,60.78,61.36,289.071,LTCEUR,0.28999999999999915,61.30990718740985,61.40344693627353,-0.09353974886368377,0.14931209920567312,0.26244155701427146,-0.11312945780859834,45.559987811924906,19.99999999999993
2022-12-21 10:00:00,2022-12-21 10:00:00,61.34,61.62,61.33,61.5,703.75,LTCEUR,0.1599999999999966,61.404953593704924,61.43103352590966,-0.026079932204737588,0.139446464992659,0.23784253860994897,-0.09839607361728997,50.57996619283286,8.999999999999986
2022-12-21 11:00:00,2022-12-21 11:00:00,61.51,61.58,61.33,61.54,240.971,LTCEUR,0.030000000000001137,61.47247679685246,61.462166804221184,0.010309992631277964,0.13331872918483612,0.21693777672492642,-0.08361904754009031,52.09451095300617,16.499999999999915
2022-12-21 12:00:00,2022-12-21 12:00:00,61.57,61.87,61.54,61.83,311.621,LTCEUR,0.259999999999998,61.65123839842623,61.56726200301513,0.08397639541109925,0.15013239794868127,0.2035767009696774,-0.05344430302099612,62.17858635959092,2.500000000000213
2022-12-21 13:00:00,2022-12-21 13:00:00,61.8,62.01,61.59,61.59,759.498,LTCEUR,-0.20999999999999375,61.62061919921312,61.57375857358224,0.04686062563087745,0.1424492905932908,0.1913512188944001,-0.04890192830110929,51.427738349988104,-10.999999999999943
2022-12-21 14:00:00,2022-12-21 14:00:00,61.64,61.72,61.36,61.61,398.664,LTCEUR,-0.030000000000001137,61.61530959960656,61.584113266844454,0.031196332762107204,0.1364018498949946,0.180361345094519,-0.04395949519952441,52.253292018100765,5.999999999999872
2022-12-21 15:00:00,2022-12-21 15:00:00,61.68,62.2,61.44,61.71,406.593,LTCEUR,0.030000000000001137,61.66265479980328,61.620080904888894,0.04257389491438346,0.13808659749724228,0.17190639557506368,-0.0338197980778214,56.671829908256434,21.000000000000085
2022-12-21 16:00:00,2022-12-21 16:00:00,61.75,62.06,61.64,62.03,401.09,LTCEUR,0.28000000000000114,61.84632739990164,61.73720064634921,0.10912675355243096,0.1633599855332193,0.1701971135666948,-0.006837128033475526,68.03194223823348,-6.500000000000128
2022-12-21 17:00:00,2022-12-21 17:00:00,62.02,62.12,61.49,61.58,827.771,LTCEUR,-0.44000000000000483,61.71316369995082,61.692286175963716,0.020877523987103075,0.14540198487157596,0.16523808782767105,-0.019836102956095086,47.164430899376896,-3.9999999999999147
2022-12-21 18:00:00,2022-12-21 18:00:00,61.55,62.03,61.45,61.95,521.941,LTCEUR,0.4000000000000057,61.83158184997541,61.765918697116945,0.06566315285846258,0.15919099307259899,0.16402866887665665,-0.004837675804057667,59.439664885870116,13.000000000000256
2022-12-21 19:00:00,2022-12-21 19:00:00,62.03,62.07,61.81,61.84,429.4,LTCEUR,-0.18999999999999773,61.835790924987705,61.78708478365496,0.04870614133274387,0.15940527593011922,0.16310399028734918,-0.0036987143572299597,54.89010236601644,-6.500000000000128
2022-12-21 20:00:00,2022-12-21 20:00:00,61.85,62.01,61.69,61.82,552.677,LTCEUR,-0.030000000000001137,61.827895462493856,61.79648913118211,0.031406331311742974,0.15616113542327525,0.1617154193145344,-0.005554283891259143,53.98850396057337,-1.0000000000001563
2022-12-21 21:00:00,2022-12-21 21:00:00,61.79,61.97,61.75,61.82,281.305,LTCEUR,0.030000000000001137,61.82394773124693,61.80320652227294,0.020741208973994674,0.15183981581908057,0.15974029861544364,-0.007900482796363073,53.98850396057337,1.9999999999999574
2022-12-21 22:00:00,2022-12-21 22:00:00,61.82,61.99,61.71,61.86,534.528,LTCEUR,0.03999999999999915,61.841973865623466,61.81943323019496,0.022540635428505595,0.14991468147597686,0.1577751751875503,-0.007860493711573435,56.06678633560733,-10.000000000000142
2022-12-21 23:00:00,2022-12-21 23:00:00,61.78,61.82,61.61,61.62,382.442,LTCEUR,-0.1600000000000037,61.73098693281173,61.76245230728212,-0.03146537447038611,0.12755265677438388,0.151730671504917,-0.02417801473053313,42.30768763957827,-10.000000000000142
