date,date,open,high,low,close,volume,pair,close_open_diff,ema_short,ema_long,ema_sort_ema_long_diff,macd,signal,momentum,rsi,gradient
2022-02-14 00:00:00,2022-02-14 00:00:00,111.6,111.8,110.6,110.7,459.467,LTCEUR,-0.8999999999999915,111.02400831634469,111.07189321342787,-0.04788489708317911,-0.13805430213911052,-0.07153985684293518,-0.06651444529617534,43.07378225180613,-75.0
2022-02-14 01:00:00,2022-02-14 01:00:00,110.7,111.0,109.7,110.2,621.463,LTCEUR,-0.5,110.61200415817234,110.82278086673419,-0.21077670856185193,-0.20824437893222125,-0.0988807612607924,-0.10936361767142885,37.74772178366945,-150.0
2022-02-14 02:00:00,2022-02-14 02:00:00,110.1,110.2,107.7,107.7,450.463,LTCEUR,-2.3999999999999915,109.15600207908616,109.930557761953,-0.7745556828668327,-0.460293648454666,-0.17116333869956712,-0.2891303097550989,21.67045188700807,-110.00000000000014
2022-02-14 03:00:00,2022-02-14 03:00:00,107.6,108.4,107.6,108.0,413.844,LTCEUR,0.4000000000000057,108.57800103954308,109.37896982996642,-0.8009687904233402,-0.628591011773338,-0.2626488733143213,-0.3659421384590167,26.19691087046128,54.999999999999716
2022-02-14 04:00:00,2022-02-14 04:00:00,108.1,109.0,107.7,108.8,237.942,LTCEUR,0.7000000000000028,108.68900051977154,109.21354987854744,-0.5245493587759,-0.6894668262050914,-0.3480124638924753,-0.34145436231261606,37.71468621475367,50.0
2022-02-14 05:00:00,2022-02-14 05:00:00,108.8,109.0,108.7,109.0,145.344,LTCEUR,0.20000000000000284,108.84450025988576,109.15253562753388,-0.3080353676481167,-0.7133499648487032,-0.4210799640837209,-0.2922700007649823,40.50035631519176,-25.0
2022-02-14 06:00:00,2022-02-14 06:00:00,109.1,109.2,108.3,108.3,135.761,LTCEUR,-0.7999999999999972,108.57225012994289,108.90895401966705,-0.33670388972416276,-0.7797729371210664,-0.49281855869119007,-0.28695437842987637,34.09573603015521,39.99999999999986
2022-02-14 07:00:00,2022-02-14 07:00:00,108.4,109.8,108.4,109.8,197.525,LTCEUR,1.3999999999999915,109.18612506497143,109.16353858547646,0.02258647949497572,-0.703269306427103,-0.5349087082383727,-0.16836059818873028,53.14770534791231,85.00000000000014
2022-02-14 08:00:00,2022-02-14 08:00:00,109.7,110.0,109.2,110.0,223.985,LTCEUR,0.29999999999999716,109.59306253248572,109.40252756105461,0.19053497143110576,-0.6193616834454758,-0.5517993032797933,-0.0675623801656825,55.21899200280013,-50.0
2022-02-14 09:00:00,2022-02-14 09:00:00,110.1,110.4,108.8,108.8,323.045,LTCEUR,-1.2999999999999972,109.19653126624286,109.23037682932471,-0.03384556308185438,-0.6422903357140655,-0.5698975097666478,-0.0723928259474177,41.88639338359348,-70.00000000000028
2022-02-14 10:00:00,2022-02-14 10:00:00,108.8,109.2,108.5,108.6,346.623,LTCEUR,-0.20000000000000284,108.89826563312143,109.05026916380336,-0.15200353068193806,-0.6688892474833068,-0.5896958573099796,-0.07919339017332716,39.956879576315075,20.000000000000284
2022-02-14 11:00:00,2022-02-14 11:00:00,108.6,109.2,108.2,109.2,345.634,LTCEUR,0.6000000000000085,109.04913281656071,109.09304940271669,-0.043916586155972936,-0.6342429333710697,-0.5986052725221978,-0.03563766084887199,48.49777519885083,30.000000000000426
2022-02-14 12:00:00,2022-02-14 12:00:00,109.0,109.7,108.9,109.2,393.657,LTCEUR,0.20000000000000284,109.12456640828036,109.1236067162262,0.0009596920541525833,-0.599870545580913,-0.5988583271339408,-0.0010122184469721907,48.49777519885083,104.99999999999972
2022-02-14 13:00:00,2022-02-14 13:00:00,109.1,111.5,108.5,111.3,869.139,LTCEUR,2.200000000000003,110.21228320414018,109.745433368733,0.4668498354071744,-0.3985831130321458,-0.5588032843135818,0.16022017128143606,70.00313073442479,110.00000000000014
2022-02-14 14:00:00,2022-02-14 14:00:00,111.4,111.9,111.2,111.4,365.539,LTCEUR,0.0,110.80614160207008,110.21816669195215,0.5879749101179357,-0.22835981843658715,-0.49271459113818294,0.2643547727015958,70.7021958953297,0.0
2022-02-14 15:00:00,2022-02-14 15:00:00,111.4,112.2,111.3,111.3,358.022,LTCEUR,-0.10000000000000853,111.05307080103503,110.52726192282296,0.5258088782120751,-0.10036880622141098,-0.41424543415482856,0.3138766279334176,68.77876172466813,-5.000000000000426
2022-02-14 16:00:00,2022-02-14 16:00:00,111.3,111.5,110.7,111.3,558.043,LTCEUR,0.0,111.17653540051751,110.74804423058782,0.4284911699296856,0.0010528564112348704,-0.33118577604161586,0.33223863245285074,68.77876172466813,5.000000000000426
2022-02-14 17:00:00,2022-02-14 17:00:00,111.4,111.9,111.3,111.4,424.484,LTCEUR,0.0,111.28826770025876,110.93431730756274,0.3539503926960208,0.0884794826173021,-0.24725272430983225,0.33573220692713435,69.95573995247608,-10.000000000000142
2022-02-14 18:00:00,2022-02-14 18:00:00,111.3,111.7,111.0,111.1,448.49,LTCEUR,-0.20000000000000284,111.19413385012938,110.98165521968767,0.21247863044170856,0.13203618995692068,-0.17139494145648168,0.3034311314134024,61.59632967299965,-95.00000000000028
2022-02-14 19:00:00,2022-02-14 19:00:00,111.1,111.1,109.5,109.5,337.722,LTCEUR,-1.5999999999999943,110.3470669250647,110.55832515691975,-0.2112582318550551,0.03702180180466996,-0.12971159280425135,0.1667333946089213,34.903269313586705,-134.99999999999943
2022-02-14 20:00:00,2022-02-14 20:00:00,109.7,109.8,107.7,108.4,876.438,LTCEUR,-1.2999999999999972,109.37353346253235,109.94166082637126,-0.5681273638389115,-0.12559085901892786,-0.12888744604718666,0.0032965870282588017,25.7110980563901,-35.00000000000014
2022-02-14 21:00:00,2022-02-14 21:00:00,108.2,109.2,108.0,108.8,380.098,LTCEUR,0.5999999999999943,109.08676673126618,109.61547201883661,-0.5287052875704319,-0.2196538740913354,-0.14704073165601642,-0.072613142435319,33.36847939232625,50.0
2022-02-14 22:00:00,2022-02-14 22:00:00,108.8,109.6,108.6,109.4,314.188,LTCEUR,0.6000000000000085,109.2433833656331,109.55390858488329,-0.31052521925019505,-0.24298354260571386,-0.16622929384595592,-0.07675424875975795,43.796303990976064,70.00000000000028
2022-02-14 23:00:00,2022-02-14 23:00:00,109.4,110.8,109.3,110.2,460.047,LTCEUR,0.7999999999999972,109.72169168281656,109.73850613205948,-0.016814449242929186,-0.19467506588500783,-0.17191844825376632,-0.02275661763124151,55.05141950574171,44.999999999999574
