date,date,open,high,low,close,volume,pair,close_open_diff,ema_short,ema_long,ema_sort_ema_long_diff,macd,signal,momentum,rsi,gradient
2022-03-18 00:00:00,2022-03-18 00:00:00,99.7,99.8,99.4,99.6,134.422,LTCEUR,-0.10000000000000853,99.67073762468237,99.72179591939363,-0.05105829471125389,0.19732764722769502,0.2634899872201048,-0.06616233999240978,44.59151778651844,-110.00000000000014
2022-03-18 01:00:00,2022-03-18 01:00:00,99.6,99.6,97.1,97.5,565.994,LTCEUR,-2.0999999999999943,98.58536881234119,99.08699708528115,-0.5016282729399677,0.006001902091384181,0.21199237019436068,-0.2059904681029765,15.462180213833477,-64.99999999999986
2022-03-18 02:00:00,2022-03-18 02:00:00,97.4,98.4,97.4,98.3,368.478,LTCEUR,0.8999999999999915,98.4426844061706,98.86214077520083,-0.41945636903022887,-0.08014791990535741,0.15356431217441707,-0.23371223207977448,34.902196586073245,35.00000000000014
2022-03-18 03:00:00,2022-03-18 03:00:00,98.4,98.5,98.1,98.2,297.98,LTCEUR,-0.20000000000000284,98.3213422030853,98.67295769657201,-0.35161549348671883,-0.15470806055915887,0.09190983762770188,-0.24661789818686075,33.738440807881844,-14.999999999999858
2022-03-18 04:00:00,2022-03-18 04:00:00,98.4,98.4,97.8,98.0,219.203,LTCEUR,-0.4000000000000057,98.16067110154265,98.48068406898001,-0.3200129674373642,-0.22731548630717668,0.02806477284072617,-0.25538025914790285,31.238602448701286,10.000000000000142
2022-03-18 05:00:00,2022-03-18 05:00:00,98.0,98.5,98.0,98.4,120.888,LTCEUR,0.4000000000000057,98.28033555077133,98.45763147784287,-0.1772959270715404,-0.24970232429998873,-0.02748864658741681,-0.22221367771257192,41.6201304893811,45.000000000000284
2022-03-18 06:00:00,2022-03-18 06:00:00,98.4,98.9,98.4,98.9,426.858,LTCEUR,0.5,98.59016777538567,98.58402248417347,0.006145291212192205,-0.22451021931658488,-0.06689296113325043,-0.15761725818333444,52.40002619515105,25.0
2022-03-18 07:00:00,2022-03-18 07:00:00,98.9,99.0,98.6,98.9,283.971,LTCEUR,0.0,98.74508388769283,98.67430177440963,0.07078211328320094,-0.2022142941094529,-0.09395722772849092,-0.10825706638096198,52.40002619515105,-5.000000000000426
2022-03-18 08:00:00,2022-03-18 08:00:00,98.9,99.0,98.6,98.8,643.846,LTCEUR,-0.10000000000000853,98.77254194384642,98.71021555314974,0.062326390696682665,-0.19041874821657245,-0.11324953182610722,-0.07716921639046523,49.7541284857988,4.999999999999716
2022-03-18 09:00:00,2022-03-18 09:00:00,98.8,99.4,98.6,99.0,608.294,LTCEUR,0.20000000000000284,98.88627097192321,98.79301110939267,0.09325986253054452,-0.163052793477533,-0.1232101841563924,-0.03984260932114059,55.185074287778775,10.000000000000142
2022-03-18 10:00:00,2022-03-18 10:00:00,99.1,99.2,98.8,99.0,302.14,LTCEUR,-0.09999999999999432,98.9431354859616,98.85215079242334,0.09098469353826033,-0.1397540791551677,-0.12651896315614747,-0.01323511599902022,55.185074287778775,4.999999999999716
2022-03-18 11:00:00,2022-03-18 11:00:00,99.0,99.5,98.8,99.1,226.158,LTCEUR,0.09999999999999432,99.0215677429808,98.92296485173097,0.09860289124983979,-0.1119302536415887,-0.12360122125323572,0.011670967611647015,58.42088302704107,0.0
2022-03-18 12:00:00,2022-03-18 12:00:00,98.9,99.1,98.5,99.0,375.92,LTCEUR,0.09999999999999432,99.0107838714904,98.94497489409355,0.06580897739685554,-0.09683260967919693,-0.11824749893842797,0.021414889259231032,53.7626414533881,10.000000000000142
2022-03-18 13:00:00,2022-03-18 13:00:00,98.8,99.5,98.8,99.3,439.648,LTCEUR,0.5,99.1553919357452,99.04641063863825,0.10898129710695059,-0.05996884179207029,-0.10659176750915644,0.04662292571708615,64.07491076453474,25.0
2022-03-18 14:00:00,2022-03-18 14:00:00,99.2,99.8,99.0,99.5,369.976,LTCEUR,0.29999999999999716,99.3276959678726,99.17600759902733,0.15168836884527082,-0.014449150805958766,-0.08816324416851691,0.07371409336255814,69.51427079085576,50.0
2022-03-18 15:00:00,2022-03-18 15:00:00,99.7,100.4,99.6,100.3,458.745,LTCEUR,0.5999999999999943,99.8138479839363,99.49714828501952,0.3166996989167785,0.08519675125786819,-0.05349124508323989,0.13868799634110807,82.34512951403576,54.999999999999716
2022-03-18 16:00:00,2022-03-18 16:00:00,100.3,100.8,100.1,100.6,468.166,LTCEUR,0.29999999999999716,100.20692399196815,99.81224877501396,0.39467521695419805,0.18622762323086306,-0.005547471420419302,0.19177509465128237,85.15644494740867,20.000000000000284
2022-03-18 17:00:00,2022-03-18 17:00:00,100.4,100.9,100.3,100.7,755.103,LTCEUR,0.29999999999999716,100.45346199598407,100.06589198215283,0.3875700138312368,0.2712378206657604,0.049809586996816646,0.22142823366894376,86.04528959268706,25.0
2022-03-18 18:00:00,2022-03-18 18:00:00,100.8,101.3,100.7,101.1,928.839,LTCEUR,0.29999999999999716,100.77673099799203,100.36135141582345,0.4153795821685833,0.3666590543179922,0.11317948046105175,0.2534795738569404,89.16078436273982,10.000000000000142
2022-03-18 19:00:00,2022-03-18 19:00:00,101.0,101.3,100.8,100.9,555.906,LTCEUR,-0.09999999999999432,100.83836549899601,100.51525101130247,0.32311448769354456,0.4212864133980361,0.17480086704844863,0.24648554634958744,78.62818212181274,35.00000000000014
2022-03-18 20:00:00,2022-03-18 20:00:00,101.1,101.8,101.0,101.8,516.704,LTCEUR,0.7000000000000028,101.319182749498,100.88232215093032,0.43686059856767656,0.5310795133792681,0.24605659631461255,0.28502291706465555,86.95173018384428,29.999999999999716
2022-03-18 21:00:00,2022-03-18 21:00:00,101.9,102.4,101.3,101.5,1054.436,LTCEUR,-0.4000000000000057,101.409591374749,101.05880153637881,0.35078983837018995,0.5871159362890381,0.3142684643094977,0.27284747197954046,75.23171952617353,0.0
2022-03-18 22:00:00,2022-03-18 22:00:00,101.6,101.9,101.2,101.8,472.205,LTCEUR,0.20000000000000284,101.60479568737449,101.27057252598487,0.33422316138961605,0.6482599606623296,0.3810667635800641,0.2671931970822655,78.68010690717261,-10.000000000000142
2022-03-18 23:00:00,2022-03-18 23:00:00,101.8,101.9,101.2,101.3,664.738,LTCEUR,-0.5,101.45239784368724,101.27898037570348,0.17341746798375368,0.6488912052777351,0.4346316519195983,0.21425955335813684,61.5432672096758,-14.999999999999858
