date,date,open,high,low,close,volume,pair,close_open_diff,ema_short,ema_long,ema_sort_ema_long_diff,macd,signal,momentum,rsi,gradient
2023-01-28 00:00:00,2023-01-28 00:00:00,81.96,82.14,81.65,81.85,99.675,LTCEUR,-0.10999999999999943,81.73415613640842,81.54127861934532,0.19287751706309564,0.2693131233432666,0.11661056930139495,0.15270255404187166,69.70759687148751,2.999999999999403
2023-01-28 01:00:00,2023-01-28 01:00:00,81.85,82.16,81.5,81.99,179.137,LTCEUR,0.14000000000000057,81.8620780682042,81.6694847281038,0.19259334010040163,0.30803221812821846,0.15489489906675966,0.1531373190614588,72.4398327571339,-17.499999999999716
2023-01-28 02:00:00,2023-01-28 02:00:00,81.97,81.97,81.44,81.5,120.177,LTCEUR,-0.46999999999999886,81.6810390341021,81.62106052007414,0.05997851402796073,0.29576903349388317,0.18306972595218435,0.11269930754169882,52.537527464699124,-22.49999999999943
2023-01-28 03:00:00,2023-01-28 03:00:00,81.47,81.59,81.43,81.54,232.009,LTCEUR,0.07000000000000739,81.61051951705105,81.59790037148153,0.012619145569516377,0.28598142121917647,0.20365206500558278,0.08232935621359369,53.781433496214184,42.99999999999997
2023-01-28 04:00:00,2023-01-28 04:00:00,81.54,82.84,81.52,82.36,295.366,LTCEUR,0.8199999999999932,81.98525975852553,81.8156431224868,0.16961663603872523,0.3404671219017388,0.231015076384814,0.10945204551692478,71.89885371785212,21.49999999999963
2023-01-28 05:00:00,2023-01-28 05:00:00,82.41,82.66,81.9,81.97,298.887,LTCEUR,-0.4399999999999977,81.97762987926276,81.85974508749058,0.11788479177218392,0.3481642706199892,0.25444491523184903,0.09371935538814019,58.75415907703882,-13.000000000000256
2023-01-28 06:00:00,2023-01-28 06:00:00,82.07,82.34,81.87,82.1,156.09,LTCEUR,0.030000000000001137,82.03881493963138,81.92838934820756,0.11042559142381947,0.36059748661723745,0.27567542950892676,0.08492205710831069,61.5648742178928,-12.5
2023-01-28 07:00:00,2023-01-28 07:00:00,82.12,82.22,81.46,81.72,137.274,LTCEUR,-0.4000000000000057,81.87940746981569,81.86884953443396,0.010557935381726224,0.33591584688154796,0.287723512983451,0.04819233389809696,49.68783401551966,-19.999999999999574
2023-01-28 08:00:00,2023-01-28 08:00:00,81.72,81.85,81.36,81.7,246.412,LTCEUR,-0.01999999999999602,81.78970373490785,81.82060681030998,-0.030903075402136437,0.3111548374375701,0.2924097778742748,0.018745059563295308,49.08970714086758,-15.999999999999659
2023-01-28 09:00:00,2023-01-28 09:00:00,81.66,81.75,81.4,81.4,169.981,LTCEUR,-0.2599999999999909,81.59485186745393,81.70043343593571,-0.10558156848178157,0.26427763815881633,0.28678334993118315,-0.02250571177236682,40.34731314745413,-9.499999999999886
2023-01-28 10:00:00,2023-01-28 10:00:00,81.45,81.59,81.11,81.51,697.183,LTCEUR,0.060000000000002274,81.55242593372697,81.64602388281122,-0.09359794908425556,0.23331370552550368,0.2760894210500473,-0.04277571552454362,44.682012510669665,-2.0000000000003126
2023-01-28 11:00:00,2023-01-28 11:00:00,81.48,81.84,81.35,81.36,186.149,LTCEUR,-0.12000000000000455,81.45621296686349,81.5643027734366,-0.10808980657310485,0.19442955653327942,0.25975744814669377,-0.06532789161341435,39.933611578749925,-0.5000000000002558
2023-01-28 12:00:00,2023-01-28 12:00:00,81.37,81.61,81.26,81.5,238.598,LTCEUR,0.12999999999999545,81.47810648343174,81.5459305524547,-0.06782406902296145,0.17291713716294055,0.24238938594994314,-0.06947224878700259,46.32249547158643,-18.999999999999773
2023-01-28 13:00:00,2023-01-28 13:00:00,81.57,81.58,80.75,80.98,441.383,LTCEUR,-0.5899999999999892,81.22905324171587,81.38423610889622,-0.15518286718034346,0.11261063039513886,0.21643363483898231,-0.10382300444384346,31.42471949716102,-39.50000000000031
2023-01-28 14:00:00,2023-01-28 14:00:00,80.95,80.95,80.08,80.71,617.194,LTCEUR,-0.2400000000000091,80.96952662085793,81.19159722064015,-0.22207059978221366,0.042540169190800725,0.181654941709346,-0.1391147725185453,26.178807327470494,-23.499999999999943
2023-01-28 15:00:00,2023-01-28 15:00:00,80.67,80.69,80.38,80.51,261.599,LTCEUR,-0.1599999999999966,80.73976331042897,80.99685515760011,-0.2570918471711394,-0.028797544507085604,0.13956444446605967,-0.16836198897314528,22.796146038607887,13.500000000000512
2023-01-28 16:00:00,2023-01-28 16:00:00,80.44,81.22,80.34,80.98,394.692,LTCEUR,0.5400000000000063,80.85988165521448,80.99203939828578,-0.13215774307130346,-0.046867860999654454,0.10227798337291685,-0.1491458443725713,43.41481079232584,36.49999999999949
2023-01-28 17:00:00,2023-01-28 17:00:00,80.98,81.54,80.9,81.24,398.03,LTCEUR,0.2599999999999909,81.04994082760723,81.06288528448985,-0.01294445688262158,-0.03975066895252155,0.07387225290782917,-0.11362292186035072,51.93596658806661,0.49999999999954525
2023-01-28 18:00:00,2023-01-28 18:00:00,81.2,81.2,80.92,80.99,225.084,LTCEUR,-0.21000000000000796,81.0199704138036,81.04206091749275,-0.022090503689142338,-0.053664542203890164,0.04836489388548531,-0.10202943608937548,44.24761090688357,-8.99999999999963
2023-01-28 19:00:00,2023-01-28 19:00:00,81.0,81.18,80.89,81.06,132.272,LTCEUR,0.060000000000002274,81.0399852069018,81.04718636963767,-0.007201162735867683,-0.05837011763212274,0.0270178915819637,-0.08538800921408644,46.88932808955525,8.00000000000054
2023-01-28 20:00:00,2023-01-28 20:00:00,81.14,81.4,81.06,81.15,119.349,LTCEUR,0.010000000000005116,81.0949926034509,81.07656169259833,0.018430910852572424,-0.05421214832225019,0.010771883601120927,-0.06498403192337111,50.50749028089672,-6.000000000000227
2023-01-28 21:00:00,2023-01-28 21:00:00,81.15,81.28,80.9,80.94,174.504,LTCEUR,-0.21000000000000796,81.01749630172546,81.03754406614166,-0.020047764416204927,-0.06708881455158178,-0.004800256029419615,-0.06228855852216216,42.41654041316147,24.499999999999744
2023-01-28 22:00:00,2023-01-28 22:00:00,80.86,81.96,80.86,81.64,296.09,LTCEUR,0.7800000000000011,81.32874815086274,81.20967433295833,0.11907381790440752,-0.020572369978538063,-0.007954678819243305,-0.012617691159294758,64.90466078020464,35.00000000000014
2023-01-28 23:00:00,2023-01-28 23:00:00,81.66,81.96,81.34,81.64,226.383,LTCEUR,-0.01999999999999602,81.48437407543136,81.33262452354165,0.15174955188970785,0.016106580840556717,-0.003142426887283301,0.019249007727840016,64.90466078020464,50.0
