date,date,open,high,low,close,volume,pair,close_open_diff,ema_short,ema_long,ema_sort_ema_long_diff,macd,signal,momentum,rsi,gradient
2023-02-06 00:00:00,2023-02-06 00:00:00,89.25,89.66,89.09,89.66,107.875,LTCEUR,0.4099999999999966,89.31616413284873,89.17297446512478,0.14318966772394504,-0.6523348653729073,-0.6287393907835578,-0.02359547458934952,58.36134891648083,33.99999999999963
2023-02-06 01:00:00,2023-02-06 01:00:00,89.68,90.11,89.48,89.99,1185.821,LTCEUR,0.30999999999998806,89.65308206642436,89.40641033223199,0.24667173419237542,-0.5576828292097389,-0.6145280784687941,0.05684524925905521,64.76463503663615,-3.9999999999999147
2023-02-06 02:00:00,2023-02-06 02:00:00,90.01,90.01,89.53,89.58,140.391,LTCEUR,-0.4300000000000068,89.61654103321217,89.4560073801657,0.16053365304647116,-0.5098764438487535,-0.593597751544786,0.08372130769603248,52.68521290535894,-61.999999999999744
2023-02-06 03:00:00,2023-02-06 03:00:00,89.51,89.58,88.75,88.75,202.897,LTCEUR,-0.7600000000000051,89.18327051660609,89.25429098583264,-0.07102046922655347,-0.5328215670690639,-0.5814425146496416,0.04862094758057767,36.25738366592832,-32.00000000000003
2023-02-06 04:00:00,2023-02-06 04:00:00,88.7,89.08,88.7,88.94,64.218,LTCEUR,0.23999999999999488,89.06163525830304,89.16449356130903,-0.10285830300598775,-0.5295697796539969,-0.5710679676505126,0.04149818799651572,41.286441157486905,15.500000000000114
2023-02-06 05:00:00,2023-02-06 05:00:00,88.94,89.44,88.94,89.06,90.579,LTCEUR,0.12000000000000455,89.06081762915153,89.13463825807789,-0.07382062892635588,-0.5114144501447129,-0.5591372641493526,0.047722814004639735,44.59914112867793,-17.00000000000017
2023-02-06 06:00:00,2023-02-06 06:00:00,89.06,89.08,87.94,88.6,288.669,LTCEUR,-0.46000000000000796,88.83040881457576,88.98188447005563,-0.15147565547987085,-0.5280572609263885,-0.5529212635047598,0.02486400257837129,35.40911741189676,-5.000000000000426
2023-02-06 07:00:00,2023-02-06 07:00:00,88.57,89.12,88.57,88.96,29.345,LTCEUR,0.39000000000000057,88.89520440728788,88.97563176432544,-0.0804273570375642,-0.5063608048615862,-0.5436091717761251,0.03724836691453892,45.881829384931585,45.000000000000284
2023-02-06 08:00:00,2023-02-06 08:00:00,88.95,89.57,88.81,89.5,201.823,LTCEUR,0.5499999999999972,89.19760220364394,89.12545126023247,0.07215094341147221,-0.440514740367945,-0.5229902854944891,0.08247554512654409,58.10802372018261,22.000000000000597
2023-02-06 09:00:00,2023-02-06 09:00:00,89.51,89.87,89.35,89.4,390.278,LTCEUR,-0.10999999999999943,89.29880110182197,89.2038937573089,0.09490734451306082,-0.3918830403758591,-0.49676883647076314,0.10488579609490406,55.33024122380032,-29.50000000000017
2023-02-06 10:00:00,2023-02-06 10:00:00,89.41,89.5,88.89,88.91,307.203,LTCEUR,-0.5,89.10440055091098,89.1199241123635,-0.015523561452525314,-0.3884036966170896,-0.4750958085000284,0.0866921118829388,43.19010155656075,-10.500000000000398
2023-02-06 11:00:00,2023-02-06 11:00:00,88.99,89.24,88.85,89.19,236.329,LTCEUR,0.20000000000000284,89.14720027545549,89.13994579454535,0.007254480910134475,-0.358915279750633,-0.4518597027501493,0.09294442299951633,50.61959144095746,38.50000000000051
2023-02-06 12:00:00,2023-02-06 12:00:00,89.18,89.71,88.72,89.68,421.823,LTCEUR,0.5,89.41360013772774,89.29424699610382,0.11935314162391819,-0.2926332975361703,-0.42001442170735354,0.12738112417118325,61.25914641595054,17.99999999999997
2023-02-06 13:00:00,2023-02-06 13:00:00,89.68,89.96,89.38,89.55,249.714,LTCEUR,-0.13000000000000966,89.48180006886386,89.3673192829313,0.11448078593255673,-0.24773848756713335,-0.38555923487930954,0.1378207473121762,57.326772606910346,-13.500000000000512
2023-02-06 14:00:00,2023-02-06 14:00:00,89.64,89.8,89.31,89.41,303.476,LTCEUR,-0.23000000000000398,89.44590003443193,89.37951377352236,0.06638626090956734,-0.22090935169320858,-0.3526292582420894,0.13171990654888083,52.93544020544823,12.000000000000455
2023-02-06 15:00:00,2023-02-06 15:00:00,89.46,89.89,89.35,89.79,335.837,LTCEUR,0.3300000000000125,89.61795001721597,89.49679555251598,0.12115446469999824,-0.1670584976416194,-0.31551510612199546,0.14845660848037606,62.33337340054395,63.000000000000256
2023-02-06 16:00:00,2023-02-06 16:00:00,89.89,90.68,89.64,90.67,411.644,LTCEUR,0.7800000000000011,90.14397500860798,89.8319968232257,0.31197818538228717,-0.05276442683036464,-0.2629649702636693,0.21020054343330463,75.7756097746074,35.49999999999969
2023-02-06 17:00:00,2023-02-06 17:00:00,90.78,90.95,90.29,90.5,432.054,LTCEUR,-0.28000000000000114,90.32198750430399,90.02285487373263,0.2991326305713642,0.023822260293314912,-0.20560752415227243,0.22942978444558734,69.98570232529165,29.999999999999716
2023-02-06 18:00:00,2023-02-06 18:00:00,90.61,91.36,90.5,91.27,372.873,LTCEUR,0.6599999999999966,90.79599375215199,90.37918205266615,0.41681169948583374,0.14497909766608075,-0.1354901997886018,0.2804692974546825,78.79302568950442,15.999999999999659
2023-02-06 19:00:00,2023-02-06 19:00:00,91.27,91.37,90.52,90.82,449.523,LTCEUR,-0.45000000000000284,90.80799687607599,90.50513003761868,0.3028668384573052,0.20235292640353464,-0.06792157455017452,0.27027450095370914,65.34570302360777,-0.49999999999954525
2023-02-06 20:00:00,2023-02-06 20:00:00,90.85,91.36,90.84,91.26,555.089,LTCEUR,0.4100000000000108,91.033998438038,90.72080716972764,0.31319126831036215,0.2800976306690188,0.001682266493664153,0.2784153641753547,71.12740027355213,21.000000000000085
2023-02-06 21:00:00,2023-02-06 21:00:00,91.28,91.36,90.95,91.24,335.063,LTCEUR,-0.04000000000000625,91.136999219019,90.86914797837687,0.2678512406421305,0.336221286367973,0.06859007046852593,0.26763121589944705,70.48595529566283,-26.500000000000057
2023-02-06 22:00:00,2023-02-06 22:00:00,91.21,91.31,90.64,90.73,131.217,LTCEUR,-0.47999999999998977,90.93349960950951,90.82939141312633,0.10410819638318003,0.3356774691934419,0.12200755021350912,0.21366991897993276,55.24157009745417,-48.99999999999949
2023-02-06 23:00:00,2023-02-06 23:00:00,90.76,90.87,90.23,90.26,321.061,LTCEUR,-0.5,90.59674980475475,90.6667081522331,-0.06995834747834806,0.2939331398493721,0.15639266814068173,0.13754047170869035,44.57930363161218,-58.500000000000085
