date,date,open,high,low,close,volume,pair,close_open_diff,ema_short,ema_long,ema_sort_ema_long_diff,macd,signal,momentum,rsi,gradient
2023-01-02 00:00:00,2023-01-02 00:00:00,65.92,66.01,65.7,65.98,385.181,LTCEUR,0.060000000000002274,66.036430003128,66.03003686983484,0.006393133293158826,0.37332475888503325,0.3595334545040636,0.013791304380969649,54.69757006958325,-19.50000000000003
2023-01-02 01:00:00,2023-01-02 01:00:00,66.06,66.17,65.54,65.58,282.905,LTCEUR,-0.480000000000004,65.80821500156401,65.90145490702488,-0.09323990546087657,0.3225489028269237,0.35213654416863566,-0.029587641341711934,37.40811482161087,-30.49999999999997
2023-01-02 02:00:00,2023-01-02 02:00:00,65.59,65.69,65.25,65.37,253.635,LTCEUR,-0.21999999999999886,65.589107500782,65.74961064787492,-0.16050314709291058,0.26233934149561833,0.3341771036340322,-0.07183776213841386,31.195841786810234,10.500000000000398
2023-01-02 03:00:00,2023-01-02 03:00:00,65.32,65.81,65.32,65.79,86.751,LTCEUR,0.4700000000000131,65.68955375039101,65.7611504627678,-0.07159671237678822,0.24568125963781995,0.31647793483478975,-0.0707966751969698,50.803643107446945,30.999999999999517
2023-01-02 04:00:00,2023-01-02 04:00:00,65.74,66.07,65.57,65.99,87.699,LTCEUR,0.25,65.8397768751955,65.82653604483414,0.013240830361354483,0.24578468542286203,0.30233928495240425,-0.05655459952954223,57.69313246882588,-17.500000000000426
2023-01-02 05:00:00,2023-01-02 05:00:00,65.99,66.0,65.31,65.44,102.389,LTCEUR,-0.5499999999999972,65.63988843759775,65.71609717488153,-0.0762087372837783,0.19919010807014104,0.2817094495759516,-0.08251934150581058,39.458167240503904,-14.499999999999602
2023-01-02 06:00:00,2023-01-02 06:00:00,65.56,65.78,65.52,65.7,47.861,LTCEUR,0.14000000000000057,65.66994421879888,65.71149798205823,-0.041553763259358334,0.1811551530721971,0.2615985902752007,-0.08044343720300362,48.66277189624635,12.000000000000455
2023-01-02 07:00:00,2023-01-02 07:00:00,65.71,65.88,65.57,65.68,80.319,LTCEUR,-0.029999999999986926,65.67497210939945,65.70249855861303,-0.027526449213581827,0.16336531479092287,0.24195193517834518,-0.07858662038742231,47.9892810256748,200.9999999999998
2023-01-02 08:00:00,2023-01-02 08:00:00,65.66,72.5,65.57,69.72,5912.505,LTCEUR,4.060000000000002,67.69748605469972,66.85035611329502,0.8471299414047024,0.46984489659573114,0.2875305274618224,0.18231436913390875,88.05670972973377,225.0
2023-01-02 09:00:00,2023-01-02 09:00:00,69.71,70.7,69.39,70.18,1698.196,LTCEUR,0.4700000000000131,68.93874302734986,67.80168293806787,1.137060089281988,0.7413050259687708,0.3782854271632121,0.3630195988055587,89.19411839597842,7.500000000000284
2023-01-02 10:00:00,2023-01-02 10:00:00,70.15,70.53,69.76,69.87,741.501,LTCEUR,-0.28000000000000114,69.40437151367493,68.39263067004848,1.0117408436264554,0.9208101982585646,0.4867903813822827,0.4340198168762819,82.81600917433533,-16.500000000000625
2023-01-02 11:00:00,2023-01-02 11:00:00,69.86,70.29,69.56,69.85,654.94,LTCEUR,-0.010000000000005116,69.62718575683746,68.80902190717748,0.8181638496599817,1.0493591486478948,0.5993041348354051,0.4500550138124897,82.36005425396317,5.999999999999517
2023-01-02 12:00:00,2023-01-02 12:00:00,69.87,70.11,69.72,69.99,568.713,LTCEUR,0.11999999999999034,69.80859287841872,69.14644421941249,0.6621486590062347,1.1492837206207582,0.7093000519924758,0.4399836686282824,83.1397941692607,22.500000000000142
2023-01-02 13:00:00,2023-01-02 13:00:00,70.08,70.4,69.93,70.3,417.796,LTCEUR,0.21999999999999886,70.05429643920937,69.47603158529463,0.5782648539147317,1.2392042972875856,0.8152809010514978,0.4239233962360879,84.91194500564603,19.50000000000003
2023-01-02 14:00:00,2023-01-02 14:00:00,70.44,70.66,70.12,70.38,596.162,LTCEUR,-0.060000000000002274,70.21714821960468,69.73430827521045,0.48283994439422884,1.3019146716301009,0.9126076551672184,0.38930701646288246,85.38757543665399,21.000000000000085
2023-01-02 15:00:00,2023-01-02 15:00:00,70.33,70.86,70.3,70.72,587.974,LTCEUR,0.39000000000000057,70.46857410980235,70.01593448229318,0.4526396275091713,1.363332603988141,1.002752644931403,0.360579959056738,87.41144465244298,-3.499999999999659
2023-01-02 16:00:00,2023-01-02 16:00:00,70.73,72.01,70.19,70.31,2078.655,LTCEUR,-0.4200000000000017,70.38928705490117,70.09995320163799,0.2893338532631873,1.3632089600636732,1.0748439079578571,0.2883650521058161,72.81723636174286,-45.49999999999983
2023-01-02 17:00:00,2023-01-02 17:00:00,70.31,70.6,69.8,69.81,652.246,LTCEUR,-0.5,70.09964352745058,70.01710942974142,0.0825340977091571,1.307690903312988,1.1214133070288832,0.18627759628410478,58.519157158788936,-17.00000000000017
2023-01-02 18:00:00,2023-01-02 18:00:00,69.87,70.01,69.64,69.97,535.113,LTCEUR,0.09999999999999432,70.03482176372529,70.00364959267245,0.031172171052844533,1.2620549226301137,1.1495416301491295,0.11251329248098418,61.42754307842117,3.499999999999659
2023-01-02 19:00:00,2023-01-02 19:00:00,70.03,70.08,69.68,69.88,306.615,LTCEUR,-0.15000000000000568,69.95741088186264,69.96832113762318,-0.010910255760535392,1.2047383574497559,1.1605809756092549,0.044157381840501,58.65173706010125,11.500000000000199
2023-01-02 20:00:00,2023-01-02 20:00:00,69.86,70.2,69.79,70.2,401.601,LTCEUR,0.3400000000000034,70.07870544093132,70.03451509830228,0.04419034262903665,1.1716300701152846,1.162790794510461,0.008839275604823671,65.3352237064124,24.0000000000002
2023-01-02 21:00:00,2023-01-02 21:00:00,70.15,70.4,69.97,70.36,259.259,LTCEUR,0.20999999999999375,70.21935272046565,70.12751078450162,0.09184193596402679,1.1451021518889632,1.1592530659861615,-0.014150914097198264,68.3999058778657,10.999999999999943
2023-01-02 22:00:00,2023-01-02 22:00:00,70.32,70.7,70.21,70.42,325.48,LTCEUR,0.10000000000000853,70.31967636023282,70.21107913178687,0.10859722844594444,1.116054897986416,1.1506134323862125,-0.0345585343997965,69.6089850981931,-17.99999999999997
2023-01-02 23:00:00,2023-01-02 23:00:00,70.44,70.45,69.93,70.0,198.22,LTCEUR,-0.4399999999999977,70.15983818011641,70.1507708084192,0.009067371697213389,1.0470742301369853,1.1299055919363672,-0.08283136179938189,52.67821484796194,-25.500000000000256
