date,date,open,high,low,close,volume,pair,close_open_diff,ema_short,ema_long,ema_sort_ema_long_diff,macd,signal,momentum,rsi,gradient
2023-01-19 00:00:00,2023-01-19 00:00:00,77.54,77.64,76.47,76.64,198.516,LTCEUR,-0.9000000000000057,77.12480486152717,77.5291684709746,-0.40436360944742944,-0.8719178883928436,-0.6052806191426342,-0.26663726925020936,21.45885855609059,-26.999999999999602
2023-01-19 01:00:00,2023-01-19 01:00:00,76.52,77.18,76.51,77.04,137.535,LTCEUR,0.5200000000000102,77.08240243076358,77.38940605069614,-0.30700361993255854,-0.8991417332806577,-0.664052841970239,-0.23508889131041877,32.12102217914364,4.999999999999716
2023-01-19 02:00:00,2023-01-19 02:00:00,77.17,77.21,76.72,76.74,83.133,LTCEUR,-0.4300000000000068,76.9112012153818,77.20386146478295,-0.2926602494011519,-0.9341559509758781,-0.7180734637713668,-0.2160824872045113,28.6238379707425,-0.5000000000002558
2023-01-19 03:00:00,2023-01-19 03:00:00,76.81,77.03,76.45,77.03,80.16,LTCEUR,0.21999999999999886,76.9706006076909,77.15418676055924,-0.1835861528683438,-0.9278091876205679,-0.7600206085412071,-0.16778857907936073,36.627487552855655,13.000000000000256
2023-01-19 04:00:00,2023-01-19 04:00:00,77.13,77.15,77.0,77.0,71.114,LTCEUR,-0.12999999999999545,76.98530030384545,77.11013340039946,-0.12483309655401342,-0.9146564905459513,-0.790947784942156,-0.12370870560379532,36.12463250421227,18.999999999999773
2023-01-19 05:00:00,2023-01-19 05:00:00,76.98,77.47,76.98,77.41,51.515,LTCEUR,0.4299999999999926,77.19765015192272,77.1958095717139,0.0018405802088210521,-0.8612216824043344,-0.8050025644345917,-0.05621911796974266,47.86339423142996,22.999999999999687
2023-01-19 06:00:00,2023-01-19 06:00:00,77.43,77.49,77.37,77.46,36.17,LTCEUR,0.029999999999986926,77.32882507596136,77.2712925512242,0.0575325247371552,-0.8055537081349371,-0.8051127931746609,-0.00044091496027620636,49.22883663050631,12.5
2023-01-19 07:00:00,2023-01-19 07:00:00,77.5,77.66,77.44,77.66,71.855,LTCEUR,0.1599999999999966,77.49441253798068,77.38235182230301,0.1120607156776714,-0.7368046831872874,-0.7914511711771863,0.054646487989898906,54.898564708712826,-24.499999999999744
2023-01-19 08:00:00,2023-01-19 08:00:00,77.48,77.5,76.97,76.97,43.959,LTCEUR,-0.5100000000000051,77.23220626899034,77.26453701593073,-0.03233074694038862,-0.7295875874797275,-0.7790784544376946,0.04949086695796712,37.542024862662295,-30.999999999999517
2023-01-19 09:00:00,2023-01-19 09:00:00,77.05,77.2,76.88,77.04,113.361,LTCEUR,-0.009999999999990905,77.13610313449517,77.20038358280766,-0.06428044831248769,-0.7100347337204624,-0.7652697102942483,0.05523497657378584,39.85685172187402,3.5000000000003695
2023-01-19 10:00:00,2023-01-19 10:00:00,77.06,77.09,76.71,77.04,234.044,LTCEUR,-0.01999999999999602,77.08805156724759,77.15455970200547,-0.06650813475788198,-0.686623982385214,-0.7495405647124416,0.06291658232722752,39.85685172187402,-13.500000000000512
2023-01-19 11:00:00,2023-01-19 11:00:00,77.05,77.21,76.69,76.77,228.074,LTCEUR,-0.28000000000000114,76.92902578362379,77.04468550143248,-0.11565971780869688,-0.681995912451498,-0.7360316342602529,0.05403572180875482,33.052806780604655,-40.00000000000057
2023-01-19 12:00:00,2023-01-19 12:00:00,76.83,76.83,76.14,76.24,414.027,LTCEUR,-0.5900000000000034,76.5845128918119,76.81477535816606,-0.23026246635416214,-0.7128771008230643,-0.7314007275728152,0.018523626749750832,23.573421803437228,-17.99999999999997
2023-01-19 13:00:00,2023-01-19 13:00:00,76.22,76.62,76.06,76.41,185.741,LTCEUR,0.18999999999999773,76.49725644590595,76.6991252558329,-0.20186880992694967,-0.7153865549509391,-0.72819789304844,0.012811338097500902,31.171352845991848,4.5000000000001705
2023-01-19 14:00:00,2023-01-19 14:00:00,76.52,76.57,75.65,76.33,461.176,LTCEUR,-0.18999999999999773,76.41362822295298,76.5936608970235,-0.18003267407051737,-0.7155818645388763,-0.7256746873465272,0.010092822807650892,29.51441064504766,30.000000000000426
2023-01-19 15:00:00,2023-01-19 15:00:00,76.29,77.04,75.88,77.01,175.075,LTCEUR,0.7199999999999989,76.71181411147649,76.71261492644535,-0.0008008149688691901,-0.6533350915432266,-0.7112067681858671,0.05787167664264059,54.29514659389262,50.0
2023-01-19 16:00:00,2023-01-19 16:00:00,76.89,77.47,76.89,77.33,249.137,LTCEUR,0.4399999999999977,77.02090705573823,76.88901066174668,0.1318963939915534,-0.5715937726259313,-0.68328416907388,0.11169039644794876,61.86605383881778,30.999999999999517
2023-01-19 17:00:00,2023-01-19 17:00:00,77.33,77.78,77.25,77.63,278.158,LTCEUR,0.29999999999999716,77.32545352786912,77.10072190124762,0.22473162662149093,-0.47710591566649896,-0.6420485183924038,0.16494260272590489,67.85617587993542,-9.499999999999886
2023-01-19 18:00:00,2023-01-19 18:00:00,77.69,77.73,77.0,77.14,259.192,LTCEUR,-0.5499999999999972,77.23272676393455,77.11194421517688,0.12078254875767414,-0.436728182542538,-0.6009844512224307,0.16425626867989274,51.88261193430384,-5.999999999999517
2023-01-19 19:00:00,2023-01-19 19:00:00,77.16,77.52,77.15,77.51,220.534,LTCEUR,0.3500000000000085,77.37136338196729,77.22567443941206,0.1456889425552248,-0.3706005775873962,-0.5549076764954238,0.18430709890802766,60.3418586321821,29.50000000000017
2023-01-19 20:00:00,2023-01-19 20:00:00,77.43,77.87,77.29,77.73,200.5,LTCEUR,0.29999999999999716,77.55068169098365,77.3697674567229,0.18091423426075437,-0.2970179745303625,-0.5033297361024116,0.2063117615720491,64.76206276499153,8.500000000000085
2023-01-19 21:00:00,2023-01-19 21:00:00,77.87,78.02,77.57,77.68,218.348,LTCEUR,-0.18999999999999773,77.61534084549183,77.45840532623065,0.15693551926118232,-0.23997157071609365,-0.4506581030251481,0.21068653230905443,62.85153041228585,-17.00000000000017
2023-01-19 22:00:00,2023-01-19 22:00:00,77.79,77.79,77.39,77.39,286.464,LTCEUR,-0.4000000000000057,77.50267042274592,77.4388609473076,0.06380947543831894,-0.2156762791725555,-0.4036617382546296,0.1879854590820741,52.14485928933084,-3.0000000000001137
2023-01-19 23:00:00,2023-01-19 23:00:00,77.35,77.65,77.35,77.62,219.171,LTCEUR,0.27000000000001023,77.56133521137296,77.49061496236257,0.07072024901039242,-0.17583607891282327,-0.35809660638626833,0.18226052747344507,58.82100005394459,22.999999999999687
