date,date,open,high,low,close,volume,pair,close_open_diff,ema_short,ema_long,ema_sort_ema_long_diff,macd,signal,momentum,rsi,gradient
2023-01-06 00:00:00,2023-01-06 00:00:00,70.71,70.89,70.32,70.45,182.914,LTCEUR,-0.2599999999999909,70.61214842464405,70.65432840200903,-0.042179977364980914,-0.14130886633179784,-0.17429428537318659,0.03298541904138874,41.9349102350944,17.00000000000017
2023-01-06 01:00:00,2023-01-06 01:00:00,70.6,71.09,70.19,71.03,944.226,LTCEUR,0.4300000000000068,70.82107421232203,70.76166314429216,0.05941106802987406,-0.10251185228635507,-0.1599377987558203,0.05742594646946522,59.34651801521698,39.00000000000006
2023-01-06 02:00:00,2023-01-06 02:00:00,71.03,71.68,70.96,71.23,199.081,LTCEUR,0.20000000000000284,71.02553710616101,70.8954736744944,0.13006343166661338,-0.05499268911925981,-0.1389487768285082,0.0839560877092484,63.83404395543585,-4.5000000000001705
2023-01-06 03:00:00,2023-01-06 03:00:00,71.15,71.21,70.79,70.94,182.484,LTCEUR,-0.21000000000000796,70.9827685530805,70.90819548178172,0.07457307129878643,-0.04026978134881176,-0.11921297773256892,0.07894319638375716,53.548926806612585,-41.00000000000037
2023-01-06 04:00:00,2023-01-06 04:00:00,70.91,70.92,70.41,70.41,336.598,LTCEUR,-0.5,70.69638427654024,70.76585391555837,-0.06946963901812353,-0.07055502704037053,-0.10948138759412926,0.038926360553758727,39.56742578892839,-21.000000000000085
2023-01-06 05:00:00,2023-01-06 05:00:00,70.47,70.61,70.15,70.52,284.908,LTCEUR,0.04999999999999716,70.60819213827011,70.69560993968454,-0.087417801414432,-0.08470380896919494,-0.1045258718691424,0.019822062899947465,43.257296208634195,-6.499999999999773
2023-01-06 06:00:00,2023-01-06 06:00:00,70.43,70.53,69.97,70.28,187.419,LTCEUR,-0.15000000000000568,70.44409606913506,70.57686424263181,-0.13276817349675696,-0.11396905054910178,-0.10641450760513428,-0.007554542943967499,37.29527357129242,-54.999999999999716
2023-01-06 07:00:00,2023-01-06 07:00:00,70.27,70.29,68.8,69.42,1340.995,LTCEUR,-0.8499999999999943,69.93204803456753,70.24633160187986,-0.3142835673123301,-0.20420285462965637,-0.1259721770100387,-0.07823067761961766,23.41702974299527,-29.50000000000017
2023-01-06 08:00:00,2023-01-06 08:00:00,69.37,69.76,69.22,69.69,192.569,LTCEUR,0.3199999999999932,69.81102401728376,70.08737971562847,-0.27635569834471596,-0.2510332953807648,-0.15098440068418395,-0.10004889469658085,32.83334510074255,14.000000000000057
2023-01-06 09:00:00,2023-01-06 09:00:00,69.68,69.88,69.56,69.7,198.914,LTCEUR,0.01999999999999602,69.75551200864189,69.97669979687748,-0.22118778823559637,-0.28406531254609035,-0.17760058305656523,-0.10646472948952512,33.1983957812826,2.0000000000003126
2023-01-06 10:00:00,2023-01-06 10:00:00,69.68,69.82,69.45,69.73,401.183,LTCEUR,0.04999999999999716,69.74275600432094,69.90621414062677,-0.1634581363058345,-0.30431472414232985,-0.20294341127371815,-0.1013713128686117,34.48035288476619,-14.000000000000057
2023-01-06 11:00:00,2023-01-06 11:00:00,69.83,69.93,69.36,69.42,163.452,LTCEUR,-0.4099999999999966,69.58137800216048,69.76729581473342,-0.1859178125729386,-0.34144101842265684,-0.2306429327035059,-0.11079808571915095,27.852504818029843,24.499999999999744
2023-01-06 12:00:00,2023-01-06 12:00:00,69.42,70.38,69.08,70.22,554.678,LTCEUR,0.7999999999999972,69.90068900108024,69.89663986766672,0.00404913341351687,-0.30281984136681217,-0.24507831443616715,-0.05774152693064502,54.7739760516345,36.999999999999744
2023-01-06 13:00:00,2023-01-06 13:00:00,70.23,70.43,70.05,70.16,271.228,LTCEUR,-0.07000000000000739,70.03034450054011,69.97188561976193,0.058458880778175626,-0.2738964708374141,-0.25084194571641655,-0.023054525120997538,52.99426730997973,20.49999999999983
2023-01-06 14:00:00,2023-01-06 14:00:00,70.11,71.16,69.89,70.63,1516.615,LTCEUR,0.519999999999996,70.33017225027005,70.15991829982995,0.17025395044009883,-0.21062150565525428,-0.2427978577041841,0.032176352048929824,63.99196818728515,28.50000000000037
2023-01-06 15:00:00,2023-01-06 15:00:00,70.64,70.78,70.46,70.73,497.247,LTCEUR,0.09000000000000341,70.53008612513503,70.32279878559282,0.20728733954220502,-0.15066964967884644,-0.2243722160991166,0.07370256642027015,66.02168876606873,19.50000000000003
2023-01-06 16:00:00,2023-01-06 16:00:00,70.74,71.09,70.48,71.02,583.305,LTCEUR,0.28000000000000114,70.7750430625675,70.5219991325663,0.25304393000121195,-0.07884788616824778,-0.19526735011294283,0.11641946394469505,71.59390166635171,19.50000000000003
2023-01-06 17:00:00,2023-01-06 17:00:00,71.03,71.4,70.64,71.12,770.395,LTCEUR,0.09000000000000341,70.94752153128375,70.69285652326164,0.25466500802211556,-0.01370151434463196,-0.15895418295928068,0.14525266861464872,73.39902435539064,-4.999999999999716
2023-01-06 18:00:00,2023-01-06 18:00:00,71.18,71.25,70.77,70.92,442.684,LTCEUR,-0.2600000000000051,70.93376076564188,70.7577546594726,0.17600610616928236,0.02154081701966959,-0.12285518296349063,0.14439599998316022,63.686080039923326,1.5000000000000568
2023-01-06 19:00:00,2023-01-06 19:00:00,70.99,71.42,70.93,71.15,331.486,LTCEUR,0.1600000000000108,71.04188038282095,70.86982475676615,0.1720556260547994,0.06725442914819268,-0.08483326054115398,0.15208768968934666,69.29357568595027,17.499999999999716
2023-01-06 20:00:00,2023-01-06 20:00:00,71.19,71.48,70.99,71.27,221.157,LTCEUR,0.0799999999999983,71.15594019141048,70.98416054054725,0.171779650863229,0.11187615455772004,-0.04549137752137917,0.1573675320790992,72.00052632657882,-17.500000000000426
2023-01-06 21:00:00,2023-01-06 21:00:00,71.28,71.5,70.79,70.8,229.151,LTCEUR,-0.480000000000004,70.97797009570525,70.93154324324803,0.04642685245721623,0.10806837640784295,-0.014779426735534746,0.12284780314337769,50.90778079526874,-12.999999999999545
2023-01-06 22:00:00,2023-01-06 22:00:00,70.91,71.23,70.9,71.01,171.537,LTCEUR,0.10000000000000853,70.99398504785262,70.95395945946288,0.04002558838973869,0.12060566274159612,0.01229759115989143,0.10830807158170469,57.57204524066205,30.000000000000426
2023-01-06 23:00:00,2023-01-06 23:00:00,70.98,71.4,70.96,71.4,187.156,LTCEUR,0.4200000000000017,71.19699252392631,71.08139961390206,0.11559291002424743,0.16016501057868027,0.0418710750436492,0.11829393553503106,67.42646413627511,15.499999999999403
