date,date,open,high,low,close,volume,pair,close_open_diff,ema_short,ema_long,ema_sort_ema_long_diff,macd,signal,momentum,rsi,gradient
2023-01-24 00:00:00,2023-01-24 00:00:00,83.19,83.45,82.75,82.75,125.468,LTCEUR,-0.4399999999999977,82.94784757067167,82.94729493872431,0.0005526319473574404,0.3775813341935361,0.36330097716418597,0.014280357029350155,48.185731705646596,7.499999999999574
2023-01-24 01:00:00,2023-01-24 01:00:00,82.78,83.35,82.53,83.35,168.129,LTCEUR,0.5699999999999932,83.14892378533582,83.06235352766022,0.08657025767560356,0.39331172878668497,0.36930312748868577,0.0240086012979992,58.940972285543445,11.999999999999744
2023-01-24 02:00:00,2023-01-24 02:00:00,83.32,83.34,82.65,82.99,66.102,LTCEUR,-0.3299999999999983,83.0694618926679,83.04168109118586,0.027780801482037987,0.37243597835353626,0.3699296976616559,0.002506280691880358,51.277430788654485,-15.999999999999659
2023-01-24 03:00:00,2023-01-24 03:00:00,83.13,83.76,82.89,83.03,508.563,LTCEUR,-0.09999999999999432,83.04973094633395,83.03834363656134,0.011387309772615595,0.35502693196455937,0.3669491445222366,-0.011922212557677225,52.10769570648218,17.99999999999997
2023-01-24 04:00:00,2023-01-24 04:00:00,83.0,83.35,82.87,83.35,77.316,LTCEUR,0.3499999999999943,83.19986547316697,83.12738831182952,0.07247716133744575,0.3628685402699148,0.36613302367177225,-0.0032644834018574764,58.8409242159358,15.999999999999659
2023-01-24 05:00:00,2023-01-24 05:00:00,83.46,83.65,83.3,83.35,43.28,LTCEUR,-0.10999999999999943,83.27493273658348,83.1909916513068,0.08394108527667754,0.364876996460481,0.36588181822951404,-0.0010048217690330485,58.8409242159358,17.00000000000017
2023-01-24 06:00:00,2023-01-24 06:00:00,83.3,83.82,83.27,83.69,116.672,LTCEUR,0.39000000000000057,83.48246636829174,83.33356546521914,0.14890090307260095,0.38941493796066595,0.37058844217574444,0.018826495784921515,66.12712466673781,0.0
2023-01-24 07:00:00,2023-01-24 07:00:00,83.72,83.87,83.27,83.35,223.57,LTCEUR,-0.37000000000000455,83.41623318414587,83.3382610465851,0.0779721375607636,0.3770795367091324,0.3718866610824221,0.005192875626710336,54.540963782532685,-16.499999999999915
2023-01-24 08:00:00,2023-01-24 08:00:00,83.44,83.5,83.22,83.36,118.724,LTCEUR,-0.0799999999999983,83.38811659207293,83.34447217613221,0.04364441594071877,0.3639155666492684,0.3702924421957914,-0.006376875546522998,54.820350082397354,-3.499999999999659
2023-01-24 09:00:00,2023-01-24 09:00:00,83.36,83.53,83.17,83.28,221.471,LTCEUR,-0.0799999999999983,83.33405829603646,83.32605155438014,0.008006741656316763,0.343072962566481,0.36484854626992935,-0.021775583703448342,51.7661201364905,7.000000000000028
2023-01-24 10:00:00,2023-01-24 10:00:00,83.08,84.19,82.69,83.5,653.307,LTCEUR,0.4200000000000017,83.41702914801823,83.37575111027152,0.04127803774670724,0.3403834811618225,0.359955533248308,-0.019572052086485492,59.25691313807826,3.0000000000001137
2023-01-24 11:00:00,2023-01-24 11:00:00,83.53,83.82,83.02,83.34,211.19,LTCEUR,-0.18999999999999773,83.37851457400912,83.3655365073368,0.012978066672317823,0.3216337908173017,0.35229118476210675,-0.030657393944805045,52.18409770430275,-39.50000000000031
2023-01-24 12:00:00,2023-01-24 12:00:00,83.23,83.28,82.71,82.71,234.75,LTCEUR,-0.5200000000000102,83.04425728700456,83.17824036238342,-0.13398307537886467,0.2530221098828065,0.3324373697862467,-0.07941525990344023,33.366456010416144,-14.000000000000057
2023-01-24 13:00:00,2023-01-24 13:00:00,82.94,83.24,82.52,83.06,134.43,LTCEUR,0.12000000000000455,83.05212864350227,83.14445740170244,-0.09232875820016773,0.22430330447961921,0.3108105567249212,-0.08650725224530198,46.28063083236135,-7.000000000000028
2023-01-24 14:00:00,2023-01-24 14:00:00,83.05,83.41,82.36,82.57,350.582,LTCEUR,-0.480000000000004,82.81106432175113,82.98032671550175,-0.16926239375061414,0.16015833381351285,0.28068011214263955,-0.1205217783291267,34.91299530605782,-19.50000000000003
2023-01-24 15:00:00,2023-01-24 15:00:00,82.62,82.87,82.05,82.67,468.804,LTCEUR,0.04999999999999716,82.74053216087557,82.89166193964411,-0.15112977876853506,0.1160543444447768,0.247754958603067,-0.1317006141582902,38.606016898940574,1.5000000000000568
2023-01-24 16:00:00,2023-01-24 16:00:00,82.68,82.75,82.29,82.6,193.352,LTCEUR,-0.0800000000000125,82.67026608043778,82.80832995688864,-0.1380638764508575,0.07459333460381856,0.21312263380321733,-0.13852929919939877,36.849708014483234,-22.500000000000142
2023-01-24 17:00:00,2023-01-24 17:00:00,82.64,82.82,81.88,82.22,338.917,LTCEUR,-0.4200000000000017,82.44513304021889,82.64023568349188,-0.19510264327298898,0.010946180630369895,0.17268734316864784,-0.16174116253827794,28.425623669390006,-23.99999999999949
2023-01-24 18:00:00,2023-01-24 18:00:00,82.13,82.2,81.38,82.12,470.608,LTCEUR,-0.009999999999990905,82.28256652010944,82.49159691677991,-0.20903039667047096,-0.04702177397140872,0.12874551974063653,-0.17576729371204525,26.51170300738508,10.999999999999943
2023-01-24 19:00:00,2023-01-24 19:00:00,82.01,82.6,81.85,82.44,255.65,LTCEUR,0.4299999999999926,82.36128326005472,82.47685494055708,-0.11557168050235589,-0.06637533642042115,0.089721348508425,-0.15609668492884615,41.608775378369614,12.999999999999545
2023-01-24 20:00:00,2023-01-24 20:00:00,82.38,82.53,82.28,82.38,465.886,LTCEUR,0.0,82.37064163002736,82.4491821003979,-0.07854047037054102,-0.0855682946192644,0.054663419882887115,-0.14023171450215152,39.770469443971535,-24.0000000000002
2023-01-24 21:00:00,2023-01-24 21:00:00,82.41,82.46,81.64,81.96,254.057,LTCEUR,-0.45000000000000284,82.16532081501367,82.3094157859985,-0.14409497098482404,-0.13313464882499204,0.017103806141311285,-0.15023845496630334,29.005867046372884,-64.4999999999996
2023-01-24 22:00:00,2023-01-24 22:00:00,81.97,82.19,80.5,81.09,837.072,LTCEUR,-0.8799999999999955,81.62766040750684,81.96101127571322,-0.3333508682063808,-0.23828624087990136,-0.03397420326293124,-0.20431203761697012,17.339669925861728,-108.99999999999963
2023-01-24 23:00:00,2023-01-24 23:00:00,80.98,81.12,79.15,79.78,990.283,LTCEUR,-1.2000000000000028,80.70383020375343,81.33786519693801,-0.634034993184585,-0.4224558786336985,-0.1116705383370847,-0.3107853402966138,10.041875941154032,-41.499999999999915
