date,date,open,high,low,close,volume,pair,close_open_diff,ema_short,ema_long,ema_sort_ema_long_diff,macd,signal,momentum,rsi,gradient
2023-01-31 00:00:00,2023-01-31 00:00:00,83.38,84.37,83.12,84.24,380.324,LTCEUR,0.8599999999999994,83.79507138393107,83.84253519708395,-0.04746381315287351,-0.7949956407253467,-0.6454786578119933,-0.14951698291335336,50.503281223118655,145.00000000000028
2023-01-31 01:00:00,2023-01-31 01:00:00,84.35,86.5,84.34,86.18,584.945,LTCEUR,1.8300000000000125,84.98753569196555,84.5103822836314,0.47715340833414643,-0.5855461426052386,-0.6334921547706425,0.04794601216540384,71.22920891022747,112.00000000000045
2023-01-31 02:00:00,2023-01-31 02:00:00,86.28,87.07,86.16,86.48,406.748,LTCEUR,0.20000000000000284,85.73376784598278,85.07313020259386,0.6606376433889238,-0.3908430185213376,-0.5849623275207816,0.19411930899944396,73.3036017825096,61.999999999999744
2023-01-31 03:00:00,2023-01-31 03:00:00,86.57,87.78,86.37,87.42,704.224,LTCEUR,0.8500000000000085,86.57688392299139,85.74366443042419,0.8332194925671956,-0.15885802935565607,-0.4997414678877565,0.3408834385321004,78.99737980442023,69.99999999999957
2023-01-31 04:00:00,2023-01-31 04:00:00,87.57,88.76,87.09,87.88,805.119,LTCEUR,0.3100000000000023,87.22844196149569,86.35404602173156,0.8743959397641277,0.06140209639357863,-0.3875127550314895,0.44891485142506815,81.33506279634801,10.499999999999687
2023-01-31 05:00:00,2023-01-31 05:00:00,87.96,88.63,87.52,87.63,349.709,LTCEUR,-0.3299999999999983,87.42922098074784,86.71860430123684,0.7106166795110056,0.21332781205019558,-0.26734464161515253,0.4806724536653481,75.83053958222567,-43.49999999999952
2023-01-31 06:00:00,2023-01-31 06:00:00,87.68,87.69,87.01,87.01,141.426,LTCEUR,-0.6700000000000017,87.21961049037392,86.80186021516917,0.41775027520475305,0.28046815551847715,-0.1577820821884266,0.43825023770690374,63.118103815031155,-39.00000000000006
2023-01-31 07:00:00,2023-01-31 07:00:00,87.02,87.32,86.74,86.85,109.669,LTCEUR,-0.1700000000000017,87.03480524518696,86.81561443940654,0.21919080578041417,0.31711123766007177,-0.06280341821872694,0.3799146558787987,60.003036791515136,19.999999999999574
2023-01-31 08:00:00,2023-01-31 08:00:00,86.74,87.88,86.73,87.41,662.721,LTCEUR,0.6700000000000017,87.22240262259348,86.98543888529039,0.2369637373030855,0.3868787665441147,0.027133018733841392,0.3597457478102733,66.87025484270274,26.00000000000051
2023-01-31 09:00:00,2023-01-31 09:00:00,87.41,87.93,87.1,87.37,237.726,LTCEUR,-0.03999999999999204,87.29620131129674,87.09531348949314,0.20088782180360454,0.43394017787441896,0.1084944505619569,0.3254457273124621,65.9004256577811,-21.999999999999886
2023-01-31 10:00:00,2023-01-31 10:00:00,87.5,87.86,86.92,86.97,427.504,LTCEUR,-0.5300000000000011,87.13310065564838,87.05950963535224,0.07359102029613496,0.4339576348668288,0.1735870874229313,0.26037054744389754,56.131435618881504,-59.499999999999886
2023-01-31 11:00:00,2023-01-31 11:00:00,86.91,86.97,85.98,86.18,488.706,LTCEUR,-0.7299999999999898,86.65655032782419,86.80822116810874,-0.15167084028455236,0.3660059828253708,0.21207086650341922,0.15393511632195156,41.5380539968169,-14.000000000000057
2023-01-31 12:00:00,2023-01-31 12:00:00,86.09,86.9,85.79,86.69,271.055,LTCEUR,0.5999999999999943,86.6732751639121,86.77444369150624,-0.1011685275941403,0.34928026133617607,0.2395127454699706,0.10976751586620548,51.33875869376896,9.499999999999886
2023-01-31 13:00:00,2023-01-31 13:00:00,86.73,86.95,86.27,86.37,304.125,LTCEUR,-0.35999999999999943,86.52163758195604,86.65888835107589,-0.13725076911984502,0.30666859622259324,0.2529439156204951,0.05372468060209812,45.5848188415649,-12.5
2023-01-31 14:00:00,2023-01-31 14:00:00,86.41,86.79,86.27,86.44,416.498,LTCEUR,0.030000000000001137,86.48081879097802,86.59634882219706,-0.11553003121903771,0.2753726352792114,0.2574296595522384,0.01794297572697301,47.1399841186945,44.999999999999574
2023-01-31 15:00:00,2023-01-31 15:00:00,86.51,87.37,86.38,87.27,815.862,LTCEUR,0.7599999999999909,86.87540939548902,86.78882058728361,0.0865888082054056,0.3139256842805054,0.2687288644978918,0.045196819782613584,62.42126920508876,53.50000000000037
2023-01-31 16:00:00,2023-01-31 16:00:00,87.26,88.03,87.26,87.51,780.106,LTCEUR,0.25,87.19270469774452,86.99487184805972,0.19783284968480075,0.35969886302191867,0.2869228642026972,0.07277599881922148,65.84716209704152,-11.999999999999744
2023-01-31 17:00:00,2023-01-31 17:00:00,87.5,87.61,86.75,87.03,664.119,LTCEUR,-0.46999999999999886,87.11135234887226,87.0049084628998,0.10644388597245324,0.3531713094657647,0.30017255325531067,0.05299875621045402,54.026322561842264,-24.0000000000002
2023-01-31 18:00:00,2023-01-31 18:00:00,86.98,87.27,86.78,87.03,254.277,LTCEUR,0.04999999999999716,87.07067617443613,87.01207747349986,0.05859870093627251,0.3440323850617659,0.30894451961660174,0.03508786544516418,54.026322561842264,6.000000000000227
2023-01-31 19:00:00,2023-01-31 19:00:00,87.02,87.27,86.8,87.15,206.007,LTCEUR,0.13000000000000966,87.11033808721807,87.05148390964276,0.05885417757531286,0.3425243116961383,0.3156604780325091,0.02686383366362921,56.8171021827431,-4.999999999999716
2023-01-31 20:00:00,2023-01-31 20:00:00,87.18,87.29,86.83,86.93,196.829,LTCEUR,-0.25,87.02016904360903,87.01677422117339,0.003394822435637934,0.31988950422510243,0.31650628327102776,0.0033832209540746727,50.123221655555845,-34.5000000000006
2023-01-31 21:00:00,2023-01-31 21:00:00,86.88,86.95,86.05,86.46,473.27,LTCEUR,-0.4200000000000017,86.7400845218045,86.8576958722667,-0.11761135046219806,0.26101733877939637,0.30540849437270146,-0.04439115559330509,38.496103755128715,-54.50000000000017
2023-01-31 22:00:00,2023-01-31 22:00:00,86.31,86.42,85.34,85.84,604.946,LTCEUR,-0.46999999999999886,86.29004226090225,86.56692562304764,-0.27688336214538367,0.1624591768059389,0.27681863085934894,-0.11435945405341003,28.156796899900883,1.0000000000005116
2023-01-31 23:00:00,2023-01-31 23:00:00,85.84,86.68,85.58,86.48,327.949,LTCEUR,0.6400000000000006,86.38502113045112,86.54208973074832,-0.15706860029719394,0.13444398805971502,0.24834370229942218,-0.11389971423970716,46.09172420295651,43.49999999999952
