date,date,open,high,low,close,volume,pair,close_open_diff,ema_short,ema_long,ema_sort_ema_long_diff,macd,signal,momentum,rsi,gradient
2023-01-07 00:00:00,2023-01-07 00:00:00,71.34,71.87,71.25,71.32,551.763,LTCEUR,-0.020000000000010232,71.25849626196316,71.14957115278719,0.10892510917597065,0.18291548606126184,0.07003382663669885,0.11288165942456299,63.780014955425486,18.999999999999773
2023-01-07 01:00:00,2023-01-07 01:00:00,71.33,71.91,71.03,71.78,270.718,LTCEUR,0.45000000000000284,71.51924813098158,71.32969368056229,0.18955445041929408,0.23538130359273168,0.10310332202790543,0.13227798156482626,73.62279276696881,8.500000000000085
2023-01-07 02:00:00,2023-01-07 02:00:00,71.79,71.98,71.3,71.49,178.319,LTCEUR,-0.30000000000001137,71.50462406549079,71.37549548611591,0.12912857937487843,0.2506706899368396,0.13261679560969228,0.11805389432714733,61.068120479089764,-23.000000000000398
2023-01-07 03:00:00,2023-01-07 03:00:00,71.55,71.64,71.27,71.32,203.035,LTCEUR,-0.23000000000000398,71.41231203274539,71.35963963293993,0.052672399805459236,0.24623165428121752,0.15533976734399732,0.0908918869372202,54.527205507313404,3.0000000000001137
2023-01-07 04:00:00,2023-01-07 04:00:00,71.29,71.61,71.11,71.55,146.38,LTCEUR,0.2599999999999909,71.4811560163727,71.41402830924281,0.06712770712988458,0.2582952969523973,0.17593087326567733,0.08236442368671995,61.263280973464184,-12.5
2023-01-07 05:00:00,2023-01-07 05:00:00,71.48,71.48,71.07,71.07,372.484,LTCEUR,-0.4100000000000108,71.27557800818634,71.31573450660201,-0.04015649841566926,0.2265127344075637,0.18604724549405463,0.04046548891350907,44.68577364718534,-10.499999999999687
2023-01-07 06:00:00,2023-01-07 06:00:00,71.1,71.41,71.1,71.34,102.903,LTCEUR,0.2400000000000091,71.30778900409317,71.32266750471572,-0.014878500622558022,0.22056898615268494,0.1929515936257807,0.027617392526904233,53.22862562344845,5.000000000000426
2023-01-07 07:00:00,2023-01-07 07:00:00,71.32,71.32,71.0,71.17,130.614,LTCEUR,-0.14999999999999147,71.23889450204658,71.2790482176541,-0.04015371560751646,0.19983734309086287,0.19432874351879714,0.005508599572065731,47.66644365425142,7.000000000000028
2023-01-07 08:00:00,2023-01-07 08:00:00,71.25,71.56,71.17,71.48,46.367,LTCEUR,0.23000000000000398,71.35944725102328,71.33646301261007,0.022984238413215508,0.20604659889039567,0.19667231459311685,0.009374284297278823,57.40605860522949,21.49999999999963
2023-01-07 09:00:00,2023-01-07 09:00:00,71.51,71.92,71.29,71.6,274.723,LTCEUR,0.0899999999999892,71.47972362551164,71.41175929472148,0.0679643307901614,0.21813594062632546,0.20096503979975858,0.017170900826566887,60.79528542150936,12.5
2023-01-07 10:00:00,2023-01-07 10:00:00,71.64,72.21,71.56,71.73,517.768,LTCEUR,0.09000000000000341,71.60486181275581,71.50268521051534,0.1021766022404762,0.2354921378197048,0.20787045940374782,0.027621678415956974,64.47051957556502,-1.999999999999602
2023-01-07 11:00:00,2023-01-07 11:00:00,71.75,71.9,71.42,71.56,234.174,LTCEUR,-0.18999999999999773,71.58243090637791,71.51906086465381,0.06337004172409877,0.2328453733664304,0.21286544219628434,0.01997993117014607,56.20270462093564,-24.500000000000455
2023-01-07 12:00:00,2023-01-07 12:00:00,71.55,71.6,71.23,71.24,213.044,LTCEUR,-0.3100000000000023,71.41121545318896,71.43932918903843,-0.028113735849473187,0.20259112345726749,0.21081057844848097,-0.008219454991213487,43.57894777885534,-10.000000000000142
2023-01-07 13:00:00,2023-01-07 13:00:00,71.38,71.38,70.92,71.36,523.381,LTCEUR,-0.01999999999999602,71.38560772659449,71.41666370645602,-0.03105597986153441,0.1861515701272225,0.20587877678422928,-0.01972720665700678,48.75821337621203,-1.5000000000000568
2023-01-07 14:00:00,2023-01-07 14:00:00,71.34,71.49,71.17,71.21,225.803,LTCEUR,-0.13000000000000966,71.29780386329725,71.35761693318287,-0.05981306988562096,0.1591843808215856,0.19653989759170057,-0.03735551677011498,42.85701541531803,-4.999999999999716
2023-01-07 15:00:00,2023-01-07 15:00:00,71.23,71.29,71.05,71.26,281.745,LTCEUR,0.030000000000001137,71.27890193164862,71.3297263808449,-0.05082444919628415,0.14023077802289663,0.18527807367793978,-0.045047295655043146,45.4956749523242,7.500000000000284
2023-01-07 16:00:00,2023-01-07 16:00:00,71.23,71.36,71.17,71.36,170.829,LTCEUR,0.12999999999999545,71.3194509658243,71.33837598631779,-0.018925020493483657,0.13176022565330925,0.1745745040730137,-0.04281427841970445,50.933404510652906,-3.9999999999999147
2023-01-07 17:00:00,2023-01-07 17:00:00,71.31,71.52,71.12,71.18,242.362,LTCEUR,-0.12999999999999545,71.24972548291215,71.2931257045127,-0.04340022160054957,0.10926323760700996,0.16151225077981296,-0.052249013172803005,41.90337117573699,7.500000000000284
2023-01-07 18:00:00,2023-01-07 18:00:00,71.19,71.51,71.13,71.51,190.643,LTCEUR,0.3200000000000074,71.37986274145608,71.35508978893765,0.02477295251843259,0.11671701349543184,0.15255320332293676,-0.035836189827504916,58.205071752273604,25.0
2023-01-07 19:00:00,2023-01-07 19:00:00,71.5,71.88,71.47,71.68,529.419,LTCEUR,0.18000000000000682,71.52993137072804,71.44792127781261,0.08201009291542505,0.13478801154484188,0.14900016496731777,-0.014212153422475893,64.38315375717582,17.499999999999716
2023-01-07 20:00:00,2023-01-07 20:00:00,71.7,71.99,71.65,71.86,695.411,LTCEUR,0.1599999999999966,71.69496568536402,71.56565805558043,0.12930762978359667,0.1617691295431456,0.15155395788248333,0.01021517166066227,70.01487093830765,5.999999999999517
2023-01-07 21:00:00,2023-01-07 21:00:00,71.86,71.99,71.55,71.8,177.485,LTCEUR,-0.060000000000002274,71.74748284268202,71.63261289684317,0.1148699458388478,0.17627833447579633,0.15649883320114594,0.01977950127465039,65.85000362507469,-0.5000000000002558
2023-01-07 22:00:00,2023-01-07 22:00:00,71.75,72.0,71.7,71.85,80.963,LTCEUR,0.09999999999999432,71.798741421341,71.69472349774512,0.10401792359589024,0.1896256792580573,0.16312420241252823,0.02650147684552906,67.76737630663689,-8.99999999999963
2023-01-07 23:00:00,2023-01-07 23:00:00,71.84,71.9,71.43,71.62,235.806,LTCEUR,-0.21999999999999886,71.7093707106705,71.67337392696079,0.03599678370970594,0.17957444591928606,0.1664142511138798,0.013160194805406256,51.733830215754665,-4.999999999999716
