date,date,open,high,low,close,volume,pair,close_open_diff,ema_short,ema_long,ema_sort_ema_long_diff,macd,signal,momentum,rsi,gradient
2023-01-18 00:00:00,2023-01-18 00:00:00,80.81,81.64,80.35,80.73,294.88,LTCEUR,-0.0799999999999983,80.75969136213914,80.76248422177738,-0.0027928596382480464,0.2604780608503461,0.21090280892697572,0.04957525192337037,52.540937042414974,39.50000000000031
2023-01-18 01:00:00,2023-01-18 01:00:00,80.95,81.73,80.58,81.48,206.662,LTCEUR,0.5300000000000011,81.11984568106956,80.967488729841,0.15235695122856896,0.3092555186104562,0.2305733508636718,0.07868216774678438,68.30735406954138,34.499999999999886
2023-01-18 02:00:00,2023-01-18 02:00:00,81.54,81.64,81.02,81.42,152.39,LTCEUR,-0.12000000000000455,81.26992284053478,81.09677766417214,0.17314517636263815,0.33916087134433326,0.25229085495980413,0.08687001638452913,66.19620841281312,-7.000000000000028
2023-01-18 03:00:00,2023-01-18 03:00:00,81.52,81.8,81.19,81.34,150.724,LTCEUR,-0.1799999999999926,81.30496142026739,81.16626976012296,0.13869166014443124,0.3523441434709582,0.27230151266203495,0.08004263080892327,63.07701810872882,14.999999999999858
2023-01-18 04:00:00,2023-01-18 04:00:00,81.43,81.96,81.37,81.72,289.307,LTCEUR,0.28999999999999204,81.5124807101337,81.32447840008783,0.1880023100458743,0.3889709903682075,0.2956354082032695,0.09333558216493798,70.89438355922105,-4.5000000000001705
2023-01-18 05:00:00,2023-01-18 05:00:00,81.69,81.69,81.2,81.25,130.858,LTCEUR,-0.4399999999999977,81.38124035506685,81.30319885720559,0.07804149786126402,0.3757416426054476,0.31165665508370516,0.06408498752174246,53.943323714992935,-11.500000000000199
2023-01-18 06:00:00,2023-01-18 06:00:00,81.27,81.62,81.15,81.49,57.358,LTCEUR,0.21999999999999886,81.43562017753342,81.3565706122897,0.07904956524372153,0.38024011210634967,0.32537334648823407,0.0548667656181156,59.82895185979228,-7.9999999999998295
2023-01-18 07:00:00,2023-01-18 07:00:00,81.31,81.47,81.0,81.09,51.187,LTCEUR,-0.21999999999999886,81.26281008876671,81.28040758020693,-0.017597491440213275,0.347522501463402,0.32980317748326765,0.01771932398013437,47.65037492431071,-34.499999999999886
2023-01-18 08:00:00,2023-01-18 08:00:00,81.16,81.17,80.6,80.8,135.087,LTCEUR,-0.35999999999999943,81.03140504438335,81.14314827157637,-0.11174322719301699,0.294794772310496,0.3228014964487133,-0.02800672413821731,40.48135982979535,-44.50000000000003
2023-01-18 09:00:00,2023-01-18 09:00:00,80.89,80.89,79.91,80.2,218.975,LTCEUR,-0.6899999999999977,80.61570252219167,80.87367733684026,-0.2579748146485912,0.20226114095355285,0.29869342534968124,-0.09643228439612839,29.47245745173906,-53.49999999999966
2023-01-18 10:00:00,2023-01-18 10:00:00,80.2,80.29,79.73,79.73,439.921,LTCEUR,-0.46999999999999886,80.17285126109584,80.54691238345734,-0.37406112236149625,0.08996543386815858,0.2569478270533767,-0.16698239318521813,23.47219236826406,-43.50000000000023
2023-01-18 11:00:00,2023-01-18 11:00:00,79.65,79.76,79.03,79.33,664.723,LTCEUR,-0.3200000000000074,79.75142563054791,80.19922313104095,-0.44779750049303857,-0.030949612239979274,0.19936833919470554,-0.2303179514346848,19.43190045387736,3.9999999999999147
2023-01-18 12:00:00,2023-01-18 12:00:00,79.21,79.85,79.21,79.81,653.698,LTCEUR,0.6000000000000085,79.78071281527396,80.08801652217211,-0.30730370689815345,-0.08704032229917402,0.14208660689592964,-0.22912692919510366,35.43543199742079,28.50000000000037
2023-01-18 13:00:00,2023-01-18 13:00:00,79.81,80.11,79.73,79.9,327.272,LTCEUR,0.09000000000000341,79.84035640763699,80.03429751583722,-0.19394110820023513,-0.12281463562420925,0.08910635839190187,-0.2119209940161111,38.19754203826777,14.499999999999602
2023-01-18 14:00:00,2023-01-18 14:00:00,79.94,80.32,79.44,80.1,375.36,LTCEUR,0.1599999999999966,79.97017820381849,80.05306965416945,-0.08289145035095657,-0.13348893084325653,0.0445873005448702,-0.17807623138812673,44.52609210773645,10.499999999999687
2023-01-18 15:00:00,2023-01-18 15:00:00,80.15,80.8,79.86,80.11,1184.693,LTCEUR,-0.04000000000000625,80.04008910190925,80.0693354672639,-0.02924636535465197,-0.13953302047819705,0.00776323634025675,-0.1472962568184538,44.86484136482302,-82.99999999999983
2023-01-18 16:00:00,2023-01-18 16:00:00,80.06,80.5,77.64,78.44,656.366,LTCEUR,-1.6200000000000045,79.24004455095462,79.60381104804564,-0.3637664970910208,-0.2758976716682042,-0.04896894526143544,-0.22692872640676878,20.175446070274134,-113.00000000000026
2023-01-18 17:00:00,2023-01-18 17:00:00,78.36,78.36,75.91,77.85,1650.762,LTCEUR,-0.5100000000000051,78.54502227547731,79.10272217717545,-0.5576999016981432,-0.4266574676527739,-0.12450664973970314,-0.30215081791307075,16.35886656997164,-12.5
2023-01-18 18:00:00,2023-01-18 18:00:00,77.56,79.29,77.49,78.19,775.576,LTCEUR,0.6299999999999955,78.36751113773866,78.84194441226818,-0.4744332745295168,-0.5127894164423594,-0.2021632030802344,-0.31062621336212504,26.034679487751035,37.5
2023-01-18 19:00:00,2023-01-18 19:00:00,78.22,79.02,78.13,78.6,241.216,LTCEUR,0.37999999999999545,78.48375556886933,78.77281743733441,-0.2890618684650832,-0.5417214057624875,-0.270074843616685,-0.2716465621458025,36.64094364703326,-1.999999999999602
2023-01-18 20:00:00,2023-01-18 20:00:00,78.43,78.74,78.15,78.15,243.759,LTCEUR,-0.28000000000000114,78.31687778443467,78.59486959809601,-0.2779918136613446,-0.5941128913464979,-0.3348824531626476,-0.25923043818385033,30.8201867101006,-66.99999999999946
2023-01-18 21:00:00,2023-01-18 21:00:00,78.15,78.22,77.03,77.26,222.353,LTCEUR,-0.8900000000000006,77.78843889221733,78.2134782843543,-0.4250393921369664,-0.6993869852787498,-0.407783359585868,-0.2916036256928818,22.381699253609682,-33.00000000000054
2023-01-18 22:00:00,2023-01-18 22:00:00,77.42,79.14,76.8,77.49,1635.173,LTCEUR,0.06999999999999318,77.63921944610865,78.00677020311021,-0.3675507570015526,-0.7555488880999661,-0.4773364652886876,-0.2782124228112785,28.456326774077354,15.999999999999659
2023-01-18 23:00:00,2023-01-18 23:00:00,77.37,77.58,76.86,77.58,416.645,LTCEUR,0.20999999999999375,77.60960972305432,77.88483585936443,-0.27522613631010984,-0.7837606479958055,-0.5386213018301113,-0.24513934616569422,30.992324392332478,-42.499999999999716
