date,date,open,high,low,close,volume,pair,close_open_diff,ema_short,ema_long,ema_sort_ema_long_diff,macd,signal,momentum,rsi,gradient
2023-02-02 00:00:00,2023-02-02 00:00:00,91.68,92.26,90.98,91.18,336.953,LTCEUR,-0.5,90.73068377360765,89.87517770649544,0.8555060671122163,0.6995365508805378,0.343608151376838,0.3559283995036998,72.98728315144905,39.4999999999996
2023-02-02 01:00:00,2023-02-02 01:00:00,91.18,92.71,90.82,92.47,780.767,LTCEUR,1.289999999999992,91.60034188680382,90.6165555046396,0.9837863821642117,0.9205573234706321,0.4589979857955968,0.4615593376750353,79.06954742535072,27.999999999999403
2023-02-02 02:00:00,2023-02-02 02:00:00,92.46,92.46,91.69,91.74,340.842,LTCEUR,-0.7199999999999989,91.6701709434019,90.93753964617115,0.7326312972307534,1.0249974464575047,0.5721978779279784,0.4527995685295263,68.58309699100614,-57.00000000000003
2023-02-02 03:00:00,2023-02-02 03:00:00,91.79,91.79,90.99,91.33,189.938,LTCEUR,-0.46000000000000796,91.50008547170094,91.04967117583652,0.4504142958644195,1.0624363183536758,0.6702455660131179,0.3921907523405579,62.95583082194078,-5.499999999999972
2023-02-02 04:00:00,2023-02-02 04:00:00,91.29,92.15,91.29,91.63,189.892,LTCEUR,0.3399999999999892,91.56504273585047,91.21547941131179,0.34956332453867844,1.1035928553851306,0.7569150238875204,0.3466778314976102,65.44529669749157,17.500000000000426
2023-02-02 05:00:00,2023-02-02 05:00:00,91.54,91.93,91.46,91.68,168.155,LTCEUR,0.14000000000000057,91.62252136792523,91.34819957950842,0.2743217884168132,1.127250052713066,0.8309820296526296,0.2962680230604364,65.90357069374758,-26.500000000000057
2023-02-02 06:00:00,2023-02-02 06:00:00,91.79,91.79,91.06,91.1,423.226,LTCEUR,-0.6900000000000119,91.36126068396261,91.27728541393458,0.08397527002803429,1.0866709332097315,0.88211981036405,0.20455112284568155,55.63309611541736,-27.50000000000057
2023-02-02 07:00:00,2023-02-02 07:00:00,91.13,91.35,90.83,91.13,384.119,LTCEUR,0.0,91.2456303419813,91.23520386709613,0.010426474885164794,1.0448876238186955,0.9146733730549791,0.1302142507637164,56.05814071499947,-7.000000000000028
2023-02-02 08:00:00,2023-02-02 08:00:00,91.16,91.27,90.68,90.96,389.067,LTCEUR,-0.20000000000000284,91.10281517099065,91.15657419078295,-0.05375901979229525,0.9866826079274773,0.9290752200294787,0.057607387897998574,52.62956256679403,-1.5000000000000568
2023-02-02 09:00:00,2023-02-02 09:00:00,90.91,91.3,90.55,91.1,111.321,LTCEUR,0.18999999999999773,91.10140758549532,91.14041013627353,-0.039002550778207024,0.9410042324238077,0.9314610225083446,0.009543209915463091,55.32951663333393,17.00000000000017
2023-02-02 10:00:00,2023-02-02 10:00:00,91.15,91.3,90.62,91.3,668.449,LTCEUR,0.14999999999999147,91.20070379274766,91.18600724019538,0.014696552552280195,0.910447052386175,0.9272582284839108,-0.016811176097735858,59.305694701771976,3.5000000000003695
2023-02-02 11:00:00,2023-02-02 11:00:00,91.28,91.5,90.93,91.17,342.826,LTCEUR,-0.10999999999999943,91.18535189637383,91.18143374299669,0.00391815337714263,0.8657604064605664,0.914958664079242,-0.04919825761867558,55.45548582727594,-9.499999999999886
2023-02-02 12:00:00,2023-02-02 12:00:00,91.19,91.25,90.95,91.11,100.423,LTCEUR,-0.0799999999999983,91.14767594818692,91.16102410214049,-0.01334815395357225,0.8160969612885225,0.8951863235210982,-0.07908936223257568,53.53071049170485,10.499999999999687
2023-02-02 13:00:00,2023-02-02 13:00:00,91.25,91.38,90.92,91.38,133.055,LTCEUR,0.12999999999999545,91.26383797409346,91.22358864438606,0.040249329707407355,0.7894250659396249,0.8740340720048037,-0.08460900606517874,60.865520264068344,-21.49999999999963
2023-02-02 14:00:00,2023-02-02 14:00:00,91.35,91.35,90.43,90.68,649.635,LTCEUR,-0.6699999999999875,90.97191898704673,91.06827760313288,-0.0963586160861496,0.703691528946166,0.8399655633930762,-0.1362740344469101,40.82018534855177,-49.499999999999744
2023-02-02 15:00:00,2023-02-02 15:00:00,90.69,91.6,90.38,90.39,776.662,LTCEUR,-0.29999999999999716,90.68095949352337,90.87448400223778,-0.19352450871440396,0.605368199062994,0.7930460905270598,-0.18767789146406577,35.07708190296543,62.999999999999545
2023-02-02 16:00:00,2023-02-02 16:00:00,90.59,92.3,90.41,91.94,664.176,LTCEUR,1.3499999999999943,91.31047974676169,91.17891714445557,0.1315626023061185,0.645082191900272,0.7634533108017022,-0.11837111890143015,65.87268575666407,54.50000000000017
2023-02-02 17:00:00,2023-02-02 17:00:00,91.87,92.16,91.45,91.48,564.29,LTCEUR,-0.39000000000000057,91.39523987338085,91.26494081746827,0.13029905591257318,0.6321506228479876,0.7371927732109593,-0.10504215036297171,56.35314063165216,25.0
2023-02-02 18:00:00,2023-02-02 18:00:00,91.49,92.51,91.49,92.44,463.658,LTCEUR,0.9500000000000028,91.91761993669041,91.60067201247735,0.3169479242130677,0.6913962525323996,0.7280334690752475,-0.036637216542847906,67.95182591417169,76.9999999999996
2023-02-02 19:00:00,2023-02-02 19:00:00,92.44,93.23,92.44,93.02,320.505,LTCEUR,0.5799999999999983,92.4688099683452,92.00619429462668,0.462615673718517,0.7762024153616949,0.737667258332537,0.038535157029157885,73.12884839596683,-31.499999999999773
2023-02-02 20:00:00,2023-02-02 20:00:00,93.01,93.15,91.2,91.81,582.406,LTCEUR,-1.2000000000000028,92.1394049841726,91.95013878187619,0.1892662022964089,0.7372761621326589,0.7375890390925615,-0.0003128769599025638,52.071093004012496,-57.00000000000003
2023-02-02 21:00:00,2023-02-02 21:00:00,91.66,92.09,91.48,91.88,208.345,LTCEUR,0.21999999999999886,92.00970249208629,91.93009912991155,0.07960336217473696,0.7039604234246468,0.7308633159589786,-0.026902892534331757,53.0104242774463,-84.49999999999989
2023-02-02 22:00:00,2023-02-02 22:00:00,91.88,92.19,89.9,90.12,1131.3,LTCEUR,-1.759999999999991,91.06485124604315,91.41292794993682,-0.3480767038936676,0.5294371475317661,0.6905780822735361,-0.16114093474177005,33.31238903610178,-44.999999999999574
2023-02-02 23:00:00,2023-02-02 23:00:00,89.95,91.26,89.89,90.98,222.388,LTCEUR,1.0300000000000011,91.02242562302158,91.28923424995486,-0.2668086269332832,0.4552729040540697,0.6435170466296429,-0.1882441425755732,45.24312679608152,19.50000000000003
