date,date,open,high,low,close,volume,pair,close_open_diff,ema_short,ema_long,ema_sort_ema_long_diff,macd,signal,momentum,rsi,gradient
2023-01-17 00:00:00,2023-01-17 00:00:00,79.47,79.5,79.17,79.38,522.987,LTCEUR,-0.09000000000000341,79.59594234158999,79.78714984728997,-0.19120750569997824,-0.21138668119779425,-0.19326863371339653,-0.018118047484397715,30.424021650224745,-16.499999999999915
2023-01-17 01:00:00,2023-01-17 01:00:00,79.36,79.99,78.91,79.18,501.245,LTCEUR,-0.1799999999999926,79.387971170795,79.61367846234998,-0.2257072915549827,-0.2544099558216999,-0.2054968981350572,-0.0489130576866427,26.430940848014444,-24.499999999999744
2023-01-17 02:00:00,2023-01-17 02:00:00,79.21,79.45,78.28,78.89,556.742,LTCEUR,-0.3199999999999932,79.1389855853975,79.40691318739285,-0.26792760199533916,-0.3083522939934653,-0.22606797730673883,-0.08228431668672648,21.517068891370826,-12.000000000000455
2023-01-17 03:00:00,2023-01-17 03:00:00,78.96,79.05,78.25,78.94,234.34,LTCEUR,-0.01999999999999602,79.03949279269875,79.27350941956632,-0.23401662686757163,-0.343112219410159,-0.24947682572742286,-0.09363539368273616,24.424087842238208,-7.500000000000284
2023-01-17 04:00:00,2023-01-17 04:00:00,78.94,79.06,78.68,78.74,212.95,LTCEUR,-0.20000000000000284,78.88974639634938,79.12107815683308,-0.2313317604836982,-0.3823900844014645,-0.2760594774622312,-0.1063306069392333,20.73717062057888,25.9999999999998
2023-01-17 05:00:00,2023-01-17 05:00:00,78.75,79.52,78.6,79.46,216.246,LTCEUR,0.7099999999999937,79.17487319817468,79.21791296916649,-0.04303977099181111,-0.35136972125333443,-0.29112152622045184,-0.06024819503288259,52.0236190095631,37.5
2023-01-17 06:00:00,2023-01-17 06:00:00,79.47,79.49,79.06,79.49,265.853,LTCEUR,0.01999999999999602,79.33243659908734,79.29565212083321,0.036784478254134,-0.3206686421913787,-0.2970309494146372,-0.023637692776741492,52.95215016174492,-19.999999999999574
2023-01-17 07:00:00,2023-01-17 07:00:00,79.48,79.48,78.88,79.06,140.051,LTCEUR,-0.4200000000000017,79.19621829954367,79.2283229434523,-0.03210464390862455,-0.32726274102098785,-0.30307730773590735,-0.024185433285080493,39.72739753149174,-7.000000000000028
2023-01-17 08:00:00,2023-01-17 08:00:00,79.06,79.6,79.02,79.35,259.983,LTCEUR,0.28999999999999204,79.27310914977184,79.26308781675164,0.010021333020205248,-0.30556566470777113,-0.30357497913028014,-0.0019906855774909915,49.86151536834865,29.999999999999716
2023-01-17 09:00:00,2023-01-17 09:00:00,79.36,79.66,79.2,79.66,673.896,LTCEUR,0.29999999999999716,79.46655457488592,79.37649129767973,0.09006327720618401,-0.26035495631755623,-0.29493097456773537,0.03457601825017914,58.75685817475437,10.500000000000398
2023-01-17 10:00:00,2023-01-17 10:00:00,79.65,79.73,79.32,79.56,210.112,LTCEUR,-0.09000000000000341,79.51327728744296,79.42892235548553,0.08435493195743504,-0.22994366106804875,-0.2819335118677981,0.051989850799749326,54.980934923179994,-11.499999999999488
2023-01-17 11:00:00,2023-01-17 11:00:00,79.49,79.52,79.21,79.43,227.118,LTCEUR,-0.05999999999998806,79.47163864372149,79.42923025391823,0.04240838980325634,-0.21386707748430922,-0.2683202249911003,0.05445314750679109,49.97126056604891,89.00000000000006
2023-01-17 12:00:00,2023-01-17 12:00:00,79.42,81.85,79.39,81.34,769.917,LTCEUR,1.9200000000000017,80.40581932186075,79.97516446708445,0.43065485477629295,-0.046469559548498296,-0.22395009190257992,0.17748053235408162,80.80583232699533,72.99999999999969
2023-01-17 13:00:00,2023-01-17 13:00:00,81.26,81.45,80.68,80.89,235.642,LTCEUR,-0.37000000000000455,80.64790966093037,80.23654604791747,0.41136361301289526,0.04931447370090325,-0.1692971787818833,0.21861165248278655,68.81470519933009,-10.999999999999943
2023-01-17 14:00:00,2023-01-17 14:00:00,80.86,81.43,80.58,81.12,485.13,LTCEUR,0.2600000000000051,80.88395483046519,80.4889614627982,0.39499336766698434,0.14214453423873863,-0.10700883617775893,0.24915337041649754,71.41625968085116,-32.500000000000284
2023-01-17 15:00:00,2023-01-17 15:00:00,81.13,81.36,79.69,80.24,576.222,LTCEUR,-0.8900000000000006,80.56197741523259,80.41782961628442,0.14414779894816832,0.14305532771722085,-0.056996003398762984,0.20005133111598383,51.6379837969005,-56.00000000000023
2023-01-17 16:00:00,2023-01-17 16:00:00,80.23,80.88,79.67,80.0,719.801,LTCEUR,-0.23000000000000398,80.2809887076163,80.29844972591744,-0.01746101830113389,0.12299335306113335,-0.02099813210678372,0.14399148516791707,47.346667175705704,42.00000000000017
2023-01-17 17:00:00,2023-01-17 17:00:00,79.84,82.7,79.6,81.08,1423.978,LTCEUR,1.2399999999999949,80.68049435380814,80.52174980422674,0.1587445495813995,0.19202749425011234,0.021606993164595495,0.17042050108551685,63.656299912694564,28.999999999999915
2023-01-17 18:00:00,2023-01-17 18:00:00,80.97,81.3,80.0,80.58,383.322,LTCEUR,-0.39000000000000057,80.63024717690408,80.53839271730482,0.09185445959926142,0.20403968470587586,0.05809353147285157,0.1459461532330243,54.310258881508474,-16.499999999999915
2023-01-17 19:00:00,2023-01-17 19:00:00,80.61,80.88,80.25,80.75,223.634,LTCEUR,0.14000000000000057,80.69012358845204,80.59885194093201,0.09127164752003125,0.22468696002356126,0.0914122171829935,0.13327474284056776,56.89251402300869,13.000000000000256
2023-01-17 20:00:00,2023-01-17 20:00:00,80.82,81.0,80.67,80.84,474.053,LTCEUR,0.020000000000010232,80.76506179422603,80.66775138638,0.09731040784602385,0.24548255225225546,0.12222628419684589,0.12325626805540957,58.38664283853096,20.000000000000284
2023-01-17 21:00:00,2023-01-17 21:00:00,80.9,81.17,80.69,81.15,634.7,LTCEUR,0.25,80.95753089711302,80.80553670455714,0.15199419255587543,0.2837072179328288,0.15452247094404248,0.12918474698878635,63.601256817140246,-1.0000000000005116
2023-01-17 22:00:00,2023-01-17 22:00:00,81.18,81.33,80.67,80.82,220.426,LTCEUR,-0.36000000000001364,80.88876544855651,80.80966907468367,0.07909637387284363,0.28409740081151824,0.18043745691753765,0.10365994389398059,54.825135530486484,-23.000000000000398
2023-01-17 23:00:00,2023-01-17 23:00:00,80.74,80.84,80.47,80.69,123.312,LTCEUR,-0.04999999999999716,80.78938272427825,80.77547791048833,0.013904813789920922,0.27079515206051497,0.1985089959461331,0.07228615611438186,51.46788392548141,-4.49999999999946
